{
  "build": "1",
  "build_number": 1,
  "channel": "https://repo.anaconda.com/pkgs/main/linux-64",
  "constrains": [],
  "depends": [],
  "features": "",
  "fn": "conda-env-2.6.0-1.conda",
  "legacy_bz2_md5": "f98669af452e8d81a8710f1e7cc932b2",
  "legacy_bz2_size": 2837,
  "license": "BSD 3-Clause",
  "md5": "7e7b9e449c8e3ceffe23585d31be5f8a",
  "name": "conda-env",
  "sha256": "701ae3f8a0bdc2459290943aca1690eeb95cf196cb927eb26526c82e8971818b",
  "size": 3121,
  "subdir": "linux-64",
  "timestamp": 1530812938329,
  "track_features": "",
  "url": "https://repo.anaconda.com/pkgs/main/linux-64/conda-env-2.6.0-1.conda",
  "version": "2.6.0"
}