{
  "build": "py37h71ec239_1",
  "build_number": 1,
  "channel": "https://repo.anaconda.com/pkgs/main/linux-64",
  "constrains": [],
  "depends": [
    "blosc >=1.16.3,<2.0a0",
    "bzip2 >=1.0.6,<2.0a0",
    "hdf5 >=1.10.4,<1.10.5.0a0",
    "libgcc-ng >=7.3.0",
    "libstdcxx-ng >=7.3.0",
    "lzo >=2.10,<3.0a0",
    "mock",
    "numexpr",
    "numpy >=1.11.3,<2.0a0",
    "python >=3.7,<3.8.0a0",
    "six",
    "zlib >=1.2.11,<1.3.0a0"
  ],
  "features": "",
  "fn": "pytables-3.5.2-py37h71ec239_1.conda",
  "legacy_bz2_md5": "74554d0dc5f4d5dccc68d8f8139c1613",
  "legacy_bz2_size": 1535365,
  "license": "BSD 3-Clause",
  "md5": "f5df0d6af96bdf363dc0d50f0e80c99c",
  "name": "pytables",
  "sha256": "d469eea8f6843f9eb452cc55666fcd61c4ddaf4d70a2f125a1035dcd9421925b",
  "size": 1306029,
  "subdir": "linux-64",
  "timestamp": 1559922653201,
  "track_features": "",
  "url": "https://repo.anaconda.com/pkgs/main/linux-64/pytables-3.5.2-py37h71ec239_1.conda",
  "version": "3.5.2"
}