{
  "paths": [
    {
      "_path": "lib/python3.7/site-packages/sphinxcontrib/__init__.py",
      "path_type": "hardlink",
      "sha256": "c36f344d7df392f3324bd07862ca187e70e2dd9a1f64f6d2c939d4b71b137250",
      "size_in_bytes": 275
    },
    {
      "_path": "lib/python3.7/site-packages/sphinxcontrib/__pycache__/__init__.cpython-37.pyc",
      "path_type": "hardlink",
      "sha256": "04a103e0683b53ce442a41d85503ea75a2a7508471171ceadd78989011f47093",
      "size_in_bytes": 140
    }
  ],
  "paths_version": 1
}