{
  "build": "py37_2",
  "build_number": 2,
  "channel": "https://repo.anaconda.com/pkgs/main/linux-64",
  "constrains": [],
  "depends": [
    "backports",
    "python >=3.7,<3.8.0a0"
  ],
  "features": "",
  "fn": "backports.shutil_get_terminal_size-1.0.0-py37_2.conda",
  "legacy_bz2_md5": "ef775703a7b2dffb2e26ec893e4fedb1",
  "legacy_bz2_size": 8112,
  "license": "MIT",
  "md5": "f91f766abcd1b56aab33973992c097ac",
  "name": "backports.shutil_get_terminal_size",
  "sha256": "daf70c0a538e1f0ae33e1b2decd94dc8bbfb63a5b9009ee35be1e17151f578b1",
  "size": 8459,
  "subdir": "linux-64",
  "timestamp": 1530738943847,
  "track_features": "",
  "url": "https://repo.anaconda.com/pkgs/main/linux-64/backports.shutil_get_terminal_size-1.0.0-py37_2.conda",
  "version": "1.0.0"
}