{
  "arch": "x86_64",
  "build": "py37_1",
  "build_number": 1,
  "depends": [
    "jupyter_core",
    "python >=3.7,<3.8.0a0",
    "python-dateutil >=2.1",
    "pyzmq >=13",
    "tornado >=4.1",
    "traitlets"
  ],
  "license": "BSD 3-clause",
  "name": "jupyter_client",
  "platform": "linux",
  "subdir": "linux-64",
  "timestamp": 1569448156654,
  "version": "5.3.3"
}