{
  "build": "py37h7725739_2",
  "build_number": 2,
  "channel": "https://repo.anaconda.com/pkgs/main/linux-64",
  "constrains": [],
  "depends": [
    "libgcc-ng >=7.3.0",
    "liblief 0.9.0 h7725739_2",
    "libstdcxx-ng >=7.3.0",
    "python >=3.7,<3.8.0a0"
  ],
  "features": "",
  "fn": "py-lief-0.9.0-py37h7725739_2.conda",
  "legacy_bz2_md5": "7b0789ba6236b04723a7577c084b9daf",
  "legacy_bz2_size": 1617643,
  "license": "Apache 2.0",
  "license_family": "Apache",
  "md5": "741bfbe036c518e492faae88f558c2f7",
  "name": "py-lief",
  "sha256": "db2c8183f767acdc1c9c45fbbc148a473e51f1b83d94a90594cde3239168166a",
  "size": 1312777,
  "subdir": "linux-64",
  "timestamp": 1547593382791,
  "track_features": "",
  "url": "https://repo.anaconda.com/pkgs/main/linux-64/py-lief-0.9.0-py37h7725739_2.conda",
  "version": "0.9.0"
}