{
  "build": "py37_7",
  "build_number": 7,
  "channel": "https://repo.anaconda.com/pkgs/main/linux-64",
  "constrains": [],
  "depends": [
    "ipykernel",
    "ipywidgets",
    "jupyter_console",
    "nbconvert",
    "notebook",
    "python >=3.7,<3.8.0a0",
    "qtconsole"
  ],
  "features": "",
  "fn": "jupyter-1.0.0-py37_7.conda",
  "legacy_bz2_md5": "d21485c7baedb413f3b207c6620ca0d1",
  "legacy_bz2_size": 5833,
  "license": "BSD 3-Clause",
  "md5": "8b4d802247e48c541da50180c2412e01",
  "name": "jupyter",
  "sha256": "15c9856657b69580d49c58ab0c54ef23a4a5c773f4de36752651758d629c0109",
  "size": 6131,
  "subdir": "linux-64",
  "timestamp": 1537454658837,
  "track_features": "",
  "url": "https://repo.anaconda.com/pkgs/main/linux-64/jupyter-1.0.0-py37_7.conda",
  "version": "1.0.0"
}