{
  "arch": null,
  "build": "py_0",
  "build_number": 0,
  "depends": [
    "click >=6.6",
    "cloudpickle >=0.2.2",
    "cytoolz >=0.7.4",
    "dask-core >=2",
    "msgpack-python",
    "psutil >=5.0",
    "python >=3.5",
    "pyyaml",
    "sortedcontainers !=2.0.0,!=2.0.1",
    "tblib",
    "toolz >=0.7.4",
    "tornado >=5",
    "zict >=0.1.3"
  ],
  "license": "BSD 3-Clause",
  "license_family": "BSD",
  "name": "distributed",
  "noarch": "python",
  "platform": null,
  "subdir": "noarch",
  "timestamp": 1570457336062,
  "version": "2.5.2"
}