{
  "paths": [
    {
      "_path": "bin/runxlrd.py",
      "file_mode": "text",
      "path_type": "hardlink",
      "prefix_placeholder": "/opt/anaconda1anaconda2anaconda3",
      "sha256": "a49dee033beebe0ee26469a8c81f46fdff6e601cd218529d112c7e64411f4bb4",
      "size_in_bytes": 16311
    },
    {
      "_path": "lib/python3.7/site-packages/xlrd-1.2.0.dist-info/INSTALLER",
      "path_type": "hardlink",
      "sha256": "ceebae7b8927a3227e5303cf5e0f1f7b34bb542ad7250ac03fbcde36ec2f1508",
      "size_in_bytes": 4
    },
    {
      "_path": "lib/python3.7/site-packages/xlrd-1.2.0.dist-info/LICENSE",
      "path_type": "hardlink",
      "sha256": "b5a5dbce60265e305a815a6cb83ed07f24519d8ba644f2a307994488bced8815",
      "size_in_bytes": 3771
    },
    {
      "_path": "lib/python3.7/site-packages/xlrd-1.2.0.dist-info/METADATA",
      "path_type": "hardlink",
      "sha256": "a4e17f428a0bd70cf76a3c645000224e274c7c8171b7579712d83a5dcbe58938",
      "size_in_bytes": 1288
    },
    {
      "_path": "lib/python3.7/site-packages/xlrd-1.2.0.dist-info/RECORD",
      "path_type": "hardlink",
      "sha256": "52e5ff0d17f13f2b6a1d73690570e2f904762eb9124bca65b00d167706f70d88",
      "size_in_bytes": 1864
    },
    {
      "_path": "lib/python3.7/site-packages/xlrd-1.2.0.dist-info/WHEEL",
      "path_type": "hardlink",
      "sha256": "ff024574e624ee2df1c53f0494e91426f39d3af7cd19b47d83e6dfe94413eac5",
      "size_in_bytes": 110
    },
    {
      "_path": "lib/python3.7/site-packages/xlrd-1.2.0.dist-info/top_level.txt",
      "path_type": "hardlink",
      "sha256": "9d9faddd273f0aa36c72d4b72fe577eaa5f00b90ee005be40758a7240a45fef3",
      "size_in_bytes": 5
    },
    {
      "_path": "lib/python3.7/site-packages/xlrd/__init__.py",
      "path_type": "hardlink",
      "sha256": "3f6f7153b788e177135adc4371b6f17dd85c37d3442e763167ee7ec3d4f38d6d",
      "size_in_bytes": 6491
    },
    {
      "_path": "lib/python3.7/site-packages/xlrd/__pycache__/__init__.cpython-37.pyc",
      "path_type": "hardlink",
      "sha256": "f6f9e02b02b347ac44ddeb19b0d3d06c0447704332377d544b11cd2b7d7c68f3",
      "size_in_bytes": 5624
    },
    {
      "_path": "lib/python3.7/site-packages/xlrd/__pycache__/biffh.cpython-37.pyc",
      "path_type": "hardlink",
      "sha256": "26404b4c2bb32a9fe852b7a5590de1ada82334a476dd5ffa498de8eea16ebd7f",
      "size_in_bytes": 12937
    },
    {
      "_path": "lib/python3.7/site-packages/xlrd/__pycache__/book.cpython-37.pyc",
      "path_type": "hardlink",
      "sha256": "d44ae1aedc65147641fe033610046582e8fba27300a3f1cfe7d90e8c27a7d08e",
      "size_in_bytes": 32026
    },
    {
      "_path": "lib/python3.7/site-packages/xlrd/__pycache__/compdoc.cpython-37.pyc",
      "path_type": "hardlink",
      "sha256": "39755933560f0a7b83f45792c8a1ea895287c84c9549233453a9f539e858861a",
      "size_in_bytes": 12295
    },
    {
      "_path": "lib/python3.7/site-packages/xlrd/__pycache__/formatting.cpython-37.pyc",
      "path_type": "hardlink",
      "sha256": "c24ef4e6b95afc534096a12f5307db6dc691f05a9311290f82260f79c040f608",
      "size_in_bytes": 24495
    },
    {
      "_path": "lib/python3.7/site-packages/xlrd/__pycache__/formula.cpython-37.pyc",
      "path_type": "hardlink",
      "sha256": "c22997190a472a82b850316ff6d1ccf2bc5868a51524cccee5ac8fe29ab48843",
      "size_in_bytes": 56769
    },
    {
      "_path": "lib/python3.7/site-packages/xlrd/__pycache__/info.cpython-37.pyc",
      "path_type": "hardlink",
      "sha256": "96f085d4c22a1237b53c287443aa4d699c010ff0d4e1404bdae6bb49ebb0eebc",
      "size_in_bytes": 165
    },
    {
      "_path": "lib/python3.7/site-packages/xlrd/__pycache__/sheet.cpython-37.pyc",
      "path_type": "hardlink",
      "sha256": "5768101268b15c00d64d688be3ab761b36d788e81ba0614ce3ae173e0acfa64c",
      "size_in_bytes": 49377
    },
    {
      "_path": "lib/python3.7/site-packages/xlrd/__pycache__/timemachine.cpython-37.pyc",
      "path_type": "hardlink",
      "sha256": "b0b7587579bfc49b06263207d96b9c877dbe5e955c579ab1c0dd14ba903fb32e",
      "size_in_bytes": 1723
    },
    {
      "_path": "lib/python3.7/site-packages/xlrd/__pycache__/xldate.cpython-37.pyc",
      "path_type": "hardlink",
      "sha256": "b75f2ed02de924a1cbacfd89e0313b0c75edfe2ba2c5847d8cf8316fd069d6db",
      "size_in_bytes": 7212
    },
    {
      "_path": "lib/python3.7/site-packages/xlrd/__pycache__/xlsx.cpython-37.pyc",
      "path_type": "hardlink",
      "sha256": "c82590b4dd461a6d36c152fca145380dea5ccb5c5585c452bebc195582152b01",
      "size_in_bytes": 22436
    },
    {
      "_path": "lib/python3.7/site-packages/xlrd/biffh.py",
      "path_type": "hardlink",
      "sha256": "1a3b41a08f4f34811d6d99864ef7c343c1ee85988b25dda87dda36aa6ba7ce60",
      "size_in_bytes": 16651
    },
    {
      "_path": "lib/python3.7/site-packages/xlrd/book.py",
      "path_type": "hardlink",
      "sha256": "15212e0839681f9bb09fb87f18fc62bfdb7a5107161fb292db35c98e20546980",
      "size_in_bytes": 57073
    },
    {
      "_path": "lib/python3.7/site-packages/xlrd/compdoc.py",
      "path_type": "hardlink",
      "sha256": "9041a2511be7b8ee6502a3737641a1d350aa9b902900bc87fd1e110e583df34d",
      "size_in_bytes": 20924
    },
    {
      "_path": "lib/python3.7/site-packages/xlrd/formatting.py",
      "path_type": "hardlink",
      "sha256": "8490b8a054f27f54865fe9d2cd8af07b5af2d6fd5da874504dbe42d3a7431d4b",
      "size_in_bytes": 45546
    },
    {
      "_path": "lib/python3.7/site-packages/xlrd/formula.py",
      "path_type": "hardlink",
      "sha256": "56c9338d270d6cf2aa0f139aff03a6199daeff9c5a73796a1600ccd1d4c6277d",
      "size_in_bytes": 94455
    },
    {
      "_path": "lib/python3.7/site-packages/xlrd/info.py",
      "path_type": "hardlink",
      "sha256": "3c39c3d41ffaa9634d03824729d1b31ab49093380329c96753af5a91ba55a8b2",
      "size_in_bytes": 36
    },
    {
      "_path": "lib/python3.7/site-packages/xlrd/sheet.py",
      "path_type": "hardlink",
      "sha256": "02ea61b7ac6d93f53f48dd64da3c8f1dbfbe1d6c9101f5d8c6cb59069e707b2c",
      "size_in_bytes": 106146
    },
    {
      "_path": "lib/python3.7/site-packages/xlrd/timemachine.py",
      "path_type": "hardlink",
      "sha256": "ec2b54ec563a9905bb1d23f91633352bda487cd7b1542b7f3c95c6d8cdc51007",
      "size_in_bytes": 1757
    },
    {
      "_path": "lib/python3.7/site-packages/xlrd/xldate.py",
      "path_type": "hardlink",
      "sha256": "4beb9468b5fc91ab86cb64a45ff33e4be141aaa43a1fd11f4c0569bf914c5f42",
      "size_in_bytes": 7934
    },
    {
      "_path": "lib/python3.7/site-packages/xlrd/xlsx.py",
      "path_type": "hardlink",
      "sha256": "4c46a3e3eccc16430fcf5d858b14c68cf4cf2320bd22eeabaa1fb786bbe0b8bc",
      "size_in_bytes": 33527
    }
  ],
  "paths_version": 1
}