{
  "build": "py37_13",
  "build_number": 13,
  "channel": "https://repo.anaconda.com/pkgs/main/linux-64",
  "constrains": [],
  "depends": [
    "libarchive",
    "python >=3.7,<3.8.0a0"
  ],
  "features": "",
  "fn": "python-libarchive-c-2.8-py37_13.conda",
  "legacy_bz2_md5": "e21956cfa75890a577807c20a6b28f5e",
  "legacy_bz2_size": 23944,
  "license": "CC0-1.0",
  "md5": "958730010c39cc6a0a3212cdb444c140",
  "name": "python-libarchive-c",
  "sha256": "cd9cb3927cb23e633ea71bee3f5bbfe34057ff016fc90a6b237b9ad8c882e4ea",
  "size": 24598,
  "subdir": "linux-64",
  "timestamp": 1565112746113,
  "track_features": "",
  "url": "https://repo.anaconda.com/pkgs/main/linux-64/python-libarchive-c-2.8-py37_13.conda",
  "version": "2.8"
}