{
  "arch": "x86_64",
  "build": "py37h10f8cd9_2",
  "build_number": 2,
  "depends": [
    "gmp >=6.1.2",
    "libgcc-ng >=7.2.0",
    "mpc",
    "mpfr >=4.0.1,<5.0a0",
    "python >=3.7,<3.8.0a0"
  ],
  "license": "LGPL 3",
  "name": "gmpy2",
  "platform": "linux",
  "subdir": "linux-64",
  "timestamp": 1530892262558,
  "version": "2.0.8"
}