{
  "arch": "x86_64",
  "build": "py37h7b6447c_0",
  "build_number": 0,
  "depends": [
    "libgcc-ng >=7.3.0",
    "python >=3.7,<3.8.0a0",
    "yaml >=0.1.7,<0.2.0a0"
  ],
  "license": "MIT",
  "license_family": "MIT",
  "name": "pyyaml",
  "platform": "linux",
  "subdir": "linux-64",
  "timestamp": 1565957415311,
  "version": "5.1.2"
}