{
  "build": "py_0",
  "build_number": 0,
  "channel": "https://repo.anaconda.com/pkgs/main/noarch",
  "constrains": [],
  "depends": [
    "backports.os",
    "importlib_metadata >=0.5",
    "python >=3.5"
  ],
  "features": "",
  "fn": "path.py-12.0.1-py_0.tar.bz2",
  "license": "MIT",
  "md5": "5734907da272b789b7b2ba9d6f19d94d",
  "name": "path.py",
  "noarch": "python",
  "package_type": "noarch_python",
  "sha256": "aeed1bb474831e5d6832cb0db0146a5f4de79c326026e833efff4379174b311d",
  "size": 23338,
  "subdir": "noarch",
  "timestamp": 1555430130944,
  "track_features": "",
  "url": "https://repo.anaconda.com/pkgs/main/noarch/path.py-12.0.1-py_0.tar.bz2",
  "version": "12.0.1"
}