{
  "channels": [
    "defaults"
  ],
  "conda_build_version": "3.14.4",
  "conda_private": false,
  "conda_version": "4.5.11",
  "description": "Python package to parse, read and write Microsoft OLE2 files\n(Structured Storage or Compound Document, Microsoft Office) -\nImproved version of the OleFileIO module from PIL, the Python\nImage Library.\n",
  "dev_url": "https://github.com/decalage2/olefile",
  "doc_source_url": "https://github.com/decalage2/olefile/blob/master/doc/index.rst",
  "doc_url": "http://olefile.readthedocs.io/en/latest/index.html",
  "env_vars": {
    "CIO_TEST": "<not set>"
  },
  "extra": {
    "copy_test_source_files": true,
    "final": true,
    "recipe-maintainers": [
      "dgursoy",
      "decarlof",
      "ericdill",
      "licode",
      "ravescovi",
      "tacaswell",
      "ocefpaf"
    ]
  },
  "home": "http://www.decalage.info/python/olefileio",
  "identifiers": [],
  "keywords": [],
  "license": "BSD 2-Clause",
  "license_family": "BSD",
  "license_file": "doc/License.rst",
  "root_pkgs": [
    "gcc_impl_linux-64 7.3.0 habb00fd_1",
    "jupyter_core 4.4.0 py37_0",
    "anaconda-client 1.7.2 py37_0",
    "conda 4.5.11 py37_0",
    "conda-env 2.6.0 1",
    "python 3.7.0 hc3d631a_0",
    "jinja2 2.10 py37_0",
    "cryptography 2.3.1 py37hc365091_0",
    "python-dateutil 2.7.3 py37_0",
    "pyopenssl 18.0.0 py37_0",
    "chardet 3.0.4 py37_1",
    "pyyaml 3.13 py37h14c3975_0",
    "pytz 2018.5 py37_0",
    "ca-certificates 2018.03.07 0",
    "gxx_impl_linux-64 7.3.0 hdf63c60_1",
    "clyent 1.2.2 py37_1",
    "requests 2.19.1 py37_0",
    "xz 5.2.4 h14c3975_4",
    "binutils_impl_linux-64 2.31.1 h6176602_1",
    "beautifulsoup4 4.6.3 py37_0",
    "curl 7.61.0 h84994c4_0",
    "binutils_linux-64 2.31.1 h6176602_3",
    "glob2 0.6 py37_0",
    "expat 2.2.6 he6710b0_0",
    "pysocks 1.6.8 py37_0",
    "libgcc-ng 8.2.0 hdf63c60_1",
    "idna 2.7 py37_0",
    "setuptools 40.2.0 py37_0",
    "sqlite 3.24.0 h84994c4_0",
    "libffi 3.2.1 hd88cf55_4",
    "pycparser 2.18 py37_1",
    "filelock 3.0.6 py37_0",
    "cffi 1.11.5 py37he75722e_1",
    "gcc_linux-64 7.3.0 h553295d_3",
    "wheel 0.31.1 py37_0",
    "pip 10.0.1 py37_0",
    "nbformat 4.4.0 py37_0",
    "libcurl 7.61.0 h1ad7b7a_0",
    "urllib3 1.23 py37_0",
    "gxx_linux-64 7.3.0 h553295d_3",
    "traitlets 4.3.2 py37_0",
    "six 1.11.0 py37_1",
    "certifi 2018.8.24 py37_1",
    "libedit 3.1.20170329 h6b74fdf_2",
    "libstdcxx-ng 8.2.0 hdf63c60_1",
    "readline 7.0 h7b6447c_5",
    "yaml 0.1.7 had09818_2",
    "pycosat 0.6.3 py37h14c3975_0",
    "ruamel_yaml 0.15.46 py37h14c3975_0",
    "patchelf 0.9 hf484d3e_2",
    "pkginfo 1.4.2 py37_1",
    "perl 5.26.2 h14c3975_0",
    "markupsafe 1.0 py37h14c3975_1",
    "jsonschema 2.6.0 py37_0",
    "ipython_genutils 0.2.0 py37_0",
    "openssl 1.0.2p h14c3975_0",
    "libssh2 1.8.0 h9cfc8f7_4",
    "asn1crypto 0.24.0 py37_0",
    "git 2.18.0 pl526hb37396a_0",
    "psutil 5.4.7 py37h14c3975_0",
    "tk 8.6.8 hbc83047_0",
    "decorator 4.3.0 py37_0",
    "ncurses 6.1 hf484d3e_0",
    "zlib 1.2.11 ha838bed_2",
    "conda-build 3.14.4 py37_0",
    "tqdm 4.25.0 py37h28b3542_0"
  ],
  "summary": "parse, read and write Microsoft OLE2 files",
  "tags": []
}