{
  "build": "hd408876_0",
  "build_number": 0,
  "channel": "https://repo.anaconda.com/pkgs/main/linux-64",
  "constrains": [],
  "depends": [
    "libffi >=3.2.1,<4.0a0",
    "libgcc-ng >=7.3.0",
    "libstdcxx-ng >=7.3.0",
    "pcre >=8.42,<9.0a0",
    "zlib >=1.2.11,<1.3.0a0"
  ],
  "features": "",
  "fn": "glib-2.56.2-hd408876_0.conda",
  "legacy_bz2_md5": "00d5c0ac884e6176dd740e4b40ba612a",
  "legacy_bz2_size": 5227073,
  "license": "LGPL-2.1",
  "md5": "75b3b8b4aad0571868d8122e89f5dfdc",
  "name": "glib",
  "sha256": "6a1e7272fbdcad167109c201d932e12d6c7911ba9140223f628aa5c7a7f1aba9",
  "size": 4141875,
  "subdir": "linux-64",
  "timestamp": 1535475913016,
  "track_features": "",
  "url": "https://repo.anaconda.com/pkgs/main/linux-64/glib-2.56.2-hd408876_0.conda",
  "version": "2.56.2"
}