{
  "build": "py37h7b6447c_0",
  "build_number": 0,
  "channel": "https://repo.anaconda.com/pkgs/main/linux-64",
  "constrains": [],
  "depends": [
    "libgcc-ng >=7.3.0",
    "python >=3.7,<3.8.0a0"
  ],
  "features": "",
  "fn": "greenlet-0.4.15-py37h7b6447c_0.conda",
  "legacy_bz2_md5": "d0acec415aaa40517b031945940a0f10",
  "legacy_bz2_size": 20316,
  "license": "MIT",
  "license_family": "MIT",
  "md5": "a36c48c9957cab70f819d28c97f4b28a",
  "name": "greenlet",
  "sha256": "2f1cf2267f419c1ed96008a134963728f19c746a64dbba62fe2800d4486870e3",
  "size": 20250,
  "subdir": "linux-64",
  "timestamp": 1536700046535,
  "track_features": "",
  "url": "https://repo.anaconda.com/pkgs/main/linux-64/greenlet-0.4.15-py37h7b6447c_0.conda",
  "version": "0.4.15"
}