{
  "paths": [
    {
      "_path": "ssl/cacert.pem",
      "path_type": "hardlink",
      "sha256": "38b6230aa4bee062cd34ee0ff6da173250899642b1937fc130896290b6bd91e3",
      "size_in_bytes": 224085
    },
    {
      "_path": "ssl/cert.pem",
      "path_type": "softlink",
      "sha256": "38b6230aa4bee062cd34ee0ff6da173250899642b1937fc130896290b6bd91e3",
      "size_in_bytes": 224085
    }
  ],
  "paths_version": 1
}