{
  "arch": "x86_64",
  "build": "py37_0",
  "build_number": 0,
  "depends": [
    "python >=3.7,<3.8.0a0",
    "setuptools",
    "wheel"
  ],
  "license": "MIT",
  "license_family": "MIT",
  "name": "pip",
  "platform": "linux",
  "subdir": "linux-64",
  "timestamp": 1569332239100,
  "version": "19.2.3"
}