{
  "channels": [
    "defaults"
  ],
  "conda_build_version": "3.17.7",
  "conda_private": false,
  "conda_version": "4.5.12",
  "description": "Extends the sortedcontainers library with recipes for other collections.",
  "dev_url": "https://github.com/grantjenks/sortedcollections",
  "doc_source_url": "https://github.com/grantjenks/sortedcollections/blob/master/docs/index.rst",
  "doc_url": "http://www.grantjenks.com/docs/sortedcollections/",
  "env_vars": {
    "CIO_TEST": "<not set>"
  },
  "extra": {
    "copy_test_source_files": true,
    "final": true,
    "recipe-maintainers": [
      "grantjenks",
      "mrocklin",
      "nehaljwani"
    ]
  },
  "home": "http://www.grantjenks.com/docs/sortedcollections/",
  "identifiers": [],
  "keywords": [],
  "license": "Apache-2.0",
  "license_family": "Apache",
  "license_file": "LICENSE",
  "root_pkgs": [
    "xz 5.2.4 h14c3975_4",
    "jupyter_core 4.4.0 py37_0",
    "pycosat 0.6.3 py37h14c3975_0",
    "libxml2 2.9.8 h26e45fe_1",
    "gcc_impl_linux-64 7.3.0 habb00fd_1",
    "nbformat 4.4.0 py37_0",
    "libgcc-ng 8.2.0 hdf63c60_1",
    "pysocks 1.6.8 py37_0",
    "clyent 1.2.2 py37_1",
    "asn1crypto 0.24.0 py37_0",
    "glob2 0.6 py37_1",
    "setuptools 40.6.2 py37_0",
    "libstdcxx-ng 8.2.0 hdf63c60_1",
    "libedit 3.1.20170329 h6b74fdf_2",
    "psutil 5.4.8 py37h7b6447c_0",
    "ipython_genutils 0.2.0 py37_0",
    "idna 2.7 py37_0",
    "ruamel_yaml 0.15.46 py37h14c3975_0",
    "beautifulsoup4 4.6.3 py37_0",
    "pyopenssl 18.0.0 py37_0",
    "curl 7.62.0 hbc83047_0",
    "binutils_impl_linux-64 2.31.1 h6176602_1",
    "zlib 1.2.11 h7b6447c_3",
    "pyyaml 3.13 py37h14c3975_0",
    "certifi 2018.11.29 py37_0",
    "openssl 1.1.1a h7b6447c_0",
    "traitlets 4.3.2 py37_0",
    "markupsafe 1.1.0 py37h7b6447c_0",
    "conda-env 2.6.0 1",
    "gxx_impl_linux-64 7.3.0 hdf63c60_1",
    "anaconda-client 1.7.2 py37_0",
    "six 1.12.0 py37_0",
    "yaml 0.1.7 had09818_2",
    "sqlite 3.25.3 h7b6447c_0",
    "libssh2 1.8.0 h1ba5d50_4",
    "readline 7.0 h7b6447c_5",
    "ca-certificates 2018.03.07 0",
    "chardet 3.0.4 py37_1",
    "gxx_linux-64 7.3.0 h553295d_3",
    "pip 18.1 py37_0",
    "requests 2.20.1 py37_0",
    "pycparser 2.19 py37_0",
    "git 2.19.1 pl526hacde149_0",
    "cffi 1.11.5 py37he75722e_1",
    "libarchive 3.3.3 h5d8350f_5",
    "python-libarchive-c 2.8 py37_6",
    "filelock 3.0.10 py37_0",
    "jinja2 2.10 py37_0",
    "expat 2.2.6 he6710b0_0",
    "libcurl 7.62.0 h20c2e04_0",
    "perl 5.26.2 h14c3975_0",
    "urllib3 1.23 py37_0",
    "binutils_linux-64 2.31.1 h6176602_3",
    "zstd 1.3.7 h0b5b093_0",
    "decorator 4.3.0 py37_0",
    "cryptography 2.4.1 py37h1ba5d50_0",
    "py-lief 0.9.0 py37h7725739_1",
    "libffi 3.2.1 hd88cf55_4",
    "gcc_linux-64 7.3.0 h553295d_3",
    "patchelf 0.9 he6710b0_3",
    "lzo 2.10 h49e0be7_2",
    "pkginfo 1.4.2 py37_1",
    "tqdm 4.28.1 py37h28b3542_0",
    "ncurses 6.1 he6710b0_1",
    "liblief 0.9.0 h7725739_1",
    "bzip2 1.0.6 h14c3975_5",
    "python 3.7.1 h0371630_3",
    "lz4-c 1.8.1.2 h14c3975_0",
    "icu 58.2 h9c2bf20_1",
    "tk 8.6.8 hbc83047_0",
    "pytz 2018.7 py37_0",
    "python-dateutil 2.7.5 py37_0",
    "jsonschema 2.6.0 py37_0",
    "wheel 0.32.3 py37_0",
    "conda 4.5.12 py37_0",
    "conda-build 3.17.7 py37_0"
  ],
  "summary": "Python Sorted Collections",
  "tags": []
}