{
  "build": "h049681c_0",
  "build_number": 0,
  "channel": "https://repo.anaconda.com/pkgs/main/linux-64",
  "constrains": [],
  "depends": [
    "cairo >=1.14.12,<2.0a0",
    "fontconfig >=2.13.0,<3.0a0",
    "freetype >=2.9.1,<3.0a0",
    "fribidi >=1.0.4,<2.0a0",
    "glib >=2.56.1,<2.57.0a0",
    "graphite2 >=1.3.12,<2.0a0",
    "harfbuzz >=1.7.6,<2.0a0",
    "icu >=58.2,<59.0a0",
    "libffi >=3.2.1,<4.0a0",
    "libgcc-ng >=7.3.0",
    "libpng >=1.6.34,<1.7.0a0",
    "libuuid >=1.0.3,<2.0a0",
    "libxml2 >=2.9.8,<2.10.0a0",
    "pcre >=8.42,<9.0a0",
    "pixman >=0.34.0,<1.0a0",
    "xz >=5.2.4,<6.0a0",
    "zlib >=1.2.11,<1.3.0a0"
  ],
  "features": "",
  "fn": "pango-1.42.4-h049681c_0.conda",
  "legacy_bz2_md5": "c641855587a88a2ac48bbafac84f98d7",
  "legacy_bz2_size": 540429,
  "license": "LGPL-2.1",
  "md5": "bfd8859e7ea05185e93cd73f9a1106b9",
  "name": "pango",
  "sha256": "876d2134df029bcf73665e8ae786da9c5488a973d9e6896b0f11544ae58d1977",
  "size": 475166,
  "subdir": "linux-64",
  "timestamp": 1535469857531,
  "track_features": "",
  "url": "https://repo.anaconda.com/pkgs/main/linux-64/pango-1.42.4-h049681c_0.conda",
  "version": "1.42.4"
}