{
  "build": "h20c2e04_0",
  "build_number": 0,
  "channel": "https://repo.anaconda.com/pkgs/main/linux-64",
  "constrains": [],
  "depends": [
    "krb5 >=1.16.1,<1.17.0a0",
    "libgcc-ng >=7.3.0",
    "libssh2 >=1.8.2,<2.0a0",
    "openssl >=1.1.1c,<1.1.2a",
    "zlib >=1.2.11,<1.3.0a0"
  ],
  "features": "",
  "fn": "libcurl-7.65.3-h20c2e04_0.conda",
  "legacy_bz2_md5": "bfff1068b78dcf8248e087cbeaddb620",
  "legacy_bz2_size": 602253,
  "license": "MIT/X derivate (http://curl.haxx.se/docs/copyright.html)",
  "license_family": "MIT",
  "md5": "4027c8c0de40be94149da0683b6eb885",
  "name": "libcurl",
  "sha256": "b293b138443d0a2afafc8543467aeeaa4d4798ba1f1d07b76984672a7a1feaa1",
  "size": 440878,
  "subdir": "linux-64",
  "timestamp": 1566828842344,
  "track_features": "",
  "url": "https://repo.anaconda.com/pkgs/main/linux-64/libcurl-7.65.3-h20c2e04_0.conda",
  "version": "7.65.3"
}