{
  "paths": [
    {
      "_path": "bin/patchelf",
      "file_mode": "binary",
      "path_type": "hardlink",
      "prefix_placeholder": "/tmp/build/80754af9/patchelf_1539357171624/_h_env_placehold_placehold_placehold_placehold_placehold_placehold_placehold_placehold_placehold_placehold_placehold_placehold_placehold_placehold_placehold_placehold_placehold_placehold_placehold_placehold_place",
      "sha256": "381d92f3c7c2ad46e0ced73a2ebda76be8b9019f57adff11a95674e0f1409477",
      "size_in_bytes": 130888
    },
    {
      "_path": "share/doc/patchelf/README",
      "path_type": "hardlink",
      "sha256": "3efaf011d4f306236b51dc175cb27777866b1f76048b0e411e4453eee9668dbe",
      "size_in_bytes": 4310
    },
    {
      "_path": "share/man/man1/patchelf.1",
      "path_type": "hardlink",
      "sha256": "f2a09563c82733f734401b043200abf6e13a43e01eb6eb1cd41664590a650cbe",
      "size_in_bytes": 2425
    }
  ],
  "paths_version": 1
}