{
  "build": "py_0",
  "build_number": 0,
  "channel": "https://repo.anaconda.com/pkgs/main/noarch",
  "constrains": [],
  "depends": [
    "python",
    "sphinxcontrib"
  ],
  "features": "",
  "fn": "sphinxcontrib-websupport-1.1.2-py_0.tar.bz2",
  "license": "BSD-2-Clause",
  "license_family": "BSD",
  "md5": "252fbc08f327de931ef13b0669174a59",
  "name": "sphinxcontrib-websupport",
  "noarch": "python",
  "package_type": "noarch_python",
  "sha256": "f9a5506d6016cf259371339b55f19672ade0114ff82d832d96c211cbb7106717",
  "size": 35676,
  "subdir": "noarch",
  "timestamp": 1559924708569,
  "track_features": "",
  "url": "https://repo.anaconda.com/pkgs/main/noarch/sphinxcontrib-websupport-1.1.2-py_0.tar.bz2",
  "version": "1.1.2"
}