{
  "build": "py37_0",
  "build_number": 0,
  "channel": "https://repo.anaconda.com/pkgs/main/linux-64",
  "constrains": [
    "conda-build >=3",
    "conda-env >=2.6",
    "cytoolz >=0.8.1",
    "setuptools >=31.0.1"
  ],
  "depends": [
    "conda-package-handling >=1.3.0",
    "pycosat >=0.6.3",
    "pyopenssl >=16.2.0",
    "python >=3.7,<3.8.0a0",
    "requests >=2.18.4,<3",
    "ruamel_yaml >=0.11.14,<0.16",
    "setuptools >=31.0.1"
  ],
  "features": "",
  "fn": "conda-4.7.12-py37_0.tar.bz2",
  "license": "BSD 3-Clause",
  "md5": "547ec8f4122f32bb4f3ebacc553f4c62",
  "name": "conda",
  "sha256": "727b47c1f7f0d2ad868e0ca429979d736daf7764b3465a95423273d7856f5551",
  "size": 3133131,
  "subdir": "linux-64",
  "timestamp": 1568310307400,
  "track_features": "",
  "url": "https://repo.anaconda.com/pkgs/main/linux-64/conda-4.7.12-py37_0.tar.bz2",
  "version": "4.7.12"
}