{
  "build": "py37_0",
  "build_number": 0,
  "channel": "https://repo.anaconda.com/pkgs/main/linux-64",
  "constrains": [],
  "depends": [
    "numpy",
    "pillow",
    "python >=3.7,<3.8.0a0"
  ],
  "features": "",
  "fn": "imageio-2.6.0-py37_0.tar.bz2",
  "license": "BSD-2-Clause",
  "md5": "ba7ad58a64f99ad2d4b10683b3208c3f",
  "name": "imageio",
  "sha256": "4bada7967ae7201963e698bbc3458e84355eb19d56233ec7eb829ec12e8a3ad2",
  "size": 3521178,
  "subdir": "linux-64",
  "timestamp": 1570464593756,
  "track_features": "",
  "url": "https://repo.anaconda.com/pkgs/main/linux-64/imageio-2.6.0-py37_0.tar.bz2",
  "version": "2.6.0"
}