{
  "arch": "x86_64",
  "build": "py37_0",
  "build_number": 0,
  "depends": [
    "python >=3.7,<3.8.0a0",
    "six"
  ],
  "license": "BSD 3-Clause",
  "license_family": "BSD",
  "name": "multipledispatch",
  "platform": "linux",
  "subdir": "linux-64",
  "timestamp": 1534268887580,
  "version": "0.6.0"
}