{
  "arch": "x86_64",
  "build": "py37_0",
  "build_number": 0,
  "depends": [
    "python >=3.7,<3.8.0a0"
  ],
  "license": "BSD 3-Clause",
  "license_family": "BSD",
  "name": "itsdangerous",
  "platform": "linux",
  "subdir": "linux-64",
  "timestamp": 1541025206057,
  "version": "1.1.0"
}