{
  "arch": "x86_64",
  "build": "py37_1",
  "build_number": 1,
  "depends": [
    "python >=3.7,<3.8.0a0"
  ],
  "license": "BSD 2-Clause",
  "name": "locket",
  "platform": "linux",
  "subdir": "linux-64",
  "timestamp": 1530741774429,
  "version": "0.2.0"
}