{
  "arch": null,
  "build": "py_0",
  "build_number": 0,
  "depends": [
    "python >=3.5"
  ],
  "license": "BSD-2-Clause",
  "license_family": "BSD",
  "name": "sphinxcontrib-htmlhelp",
  "noarch": "python",
  "platform": null,
  "subdir": "noarch",
  "timestamp": 1555449421555,
  "version": "1.0.2"
}