{
  "build": "py_0",
  "build_number": 0,
  "channel": "https://repo.anaconda.com/pkgs/main/noarch",
  "constrains": [],
  "depends": [
    "python"
  ],
  "features": "",
  "fn": "werkzeug-0.16.0-py_0.tar.bz2",
  "license": "BSD 3-Clause",
  "license_family": "BSD",
  "md5": "c4e8970201d92bd8361ca037d940f3c4",
  "name": "werkzeug",
  "noarch": "python",
  "package_type": "noarch_python",
  "sha256": "876bc9f822af67cb504ccc42ce506dabde8a7e202c650e118e2f18ac4a11463f",
  "size": 261168,
  "subdir": "noarch",
  "timestamp": 1569266458203,
  "track_features": "",
  "url": "https://repo.anaconda.com/pkgs/main/noarch/werkzeug-0.16.0-py_0.tar.bz2",
  "version": "0.16.0"
}