{
  "build": "py_0",
  "build_number": 0,
  "channel": "https://repo.anaconda.com/pkgs/main/noarch",
  "constrains": [],
  "depends": [
    "python >=3.5"
  ],
  "features": "",
  "fn": "sphinxcontrib-serializinghtml-1.1.3-py_0.tar.bz2",
  "license": "BSD-2-Clause",
  "license_family": "BSD",
  "md5": "e8edb7f5f4cf9f19da42f8103f2da7c7",
  "name": "sphinxcontrib-serializinghtml",
  "noarch": "python",
  "package_type": "noarch_python",
  "sha256": "2bfe9173fd0995b29b13dbd605e18b69aa33e4015fe8ccd8612c586733708382",
  "size": 25070,
  "subdir": "noarch",
  "timestamp": 1555955999629,
  "track_features": "",
  "url": "https://repo.anaconda.com/pkgs/main/noarch/sphinxcontrib-serializinghtml-1.1.3-py_0.tar.bz2",
  "version": "1.1.3"
}