{
  "build": "py37h39e3cac_0",
  "build_number": 0,
  "channel": "https://repo.anaconda.com/pkgs/main/linux-64",
  "constrains": [],
  "depends": [
    "ipython >=5.0",
    "jupyter_client",
    "python >=3.7,<3.8.0a0",
    "tornado >=4.0",
    "traitlets >=4.1"
  ],
  "features": "",
  "fn": "ipykernel-5.1.2-py37h39e3cac_0.conda",
  "legacy_bz2_md5": "7610a064574fd569b839f33d7873ccf4",
  "legacy_bz2_size": 169166,
  "license": "BSD-3-Clause",
  "license_family": "BSD",
  "md5": "f7755b77e2712042b6f2d34f9c68ed5e",
  "name": "ipykernel",
  "sha256": "f99599fec71d745479ec94141911beb9fc18e0a2fa746afefa6f7948e1ed8e31",
  "size": 174466,
  "subdir": "linux-64",
  "timestamp": 1565899836330,
  "track_features": "",
  "url": "https://repo.anaconda.com/pkgs/main/linux-64/ipykernel-5.1.2-py37h39e3cac_0.conda",
  "version": "5.1.2"
}