{
  "build": "py37hd81dba3_0",
  "build_number": 0,
  "channel": "https://repo.anaconda.com/pkgs/main/linux-64",
  "constrains": [],
  "depends": [
    "blas 1.0 mkl",
    "joblib >=0.11",
    "libgcc-ng >=7.3.0",
    "libstdcxx-ng >=7.3.0",
    "mkl >=2019.4,<2020.0a0",
    "mkl-service >=2,<3.0a0",
    "numpy >=1.11.3,<2.0a0",
    "python >=3.7,<3.8.0a0",
    "scipy"
  ],
  "features": "",
  "fn": "scikit-learn-0.21.3-py37hd81dba3_0.conda",
  "legacy_bz2_md5": "fc0e025c8be1b237e1e4029ab7bd4450",
  "legacy_bz2_size": 7081788,
  "license": "BSD 3-Clause",
  "md5": "05dbfc8f01c286fc4133573402a6921a",
  "name": "scikit-learn",
  "sha256": "24bb74e97e993bb01d4e4ecca1a84bacf7151337a941d4551b94e57ed5d7f5ed",
  "size": 5180602,
  "subdir": "linux-64",
  "timestamp": 1569370043587,
  "track_features": "",
  "url": "https://repo.anaconda.com/pkgs/main/linux-64/scikit-learn-0.21.3-py37hd81dba3_0.conda",
  "version": "0.21.3"
}