{
  "channels": [
    "defaults",
    "local",
    "https://repo.anaconda.com/pkgs/main"
  ],
  "conda_build_version": "3.10.9+36.gd10dbde.dirty",
  "conda_private": false,
  "conda_version": "4.5.4",
  "dev_url": "https://github.com/gsnedders/python-webencodings",
  "doc_url": "https://pythonhosted.org/webencodings",
  "env_vars": {
    "CIO_TEST": "<not set>"
  },
  "home": "https://github.com/gsnedders/python-webencodings",
  "license": "BSD 3-Clause",
  "license_family": "BSD",
  "license_file": "LICENSE",
  "root_pkgs": [
    "python-libarchive-c 2.8 py36_3",
    "python-dateutil 2.7.3 py36_0",
    "idna 2.7 py36_0",
    "tk 8.6.7 hc745277_3",
    "pysocks 1.6.8 py36_0",
    "libgcc-ng 7.2.0 hdf63c60_3",
    "yaml 0.1.7 had09818_2",
    "glob2 0.6 py36he249c77_0",
    "libedit 3.1.20170329 h6b74fdf_2",
    "patchelf 0.9 hf79760b_2",
    "anaconda-client 1.6.14 py36_0",
    "py-lief 0.9.0 py36h1532aa0_0",
    "networkx 2.1 py36_0",
    "python 3.6.6 hc3d631a_0",
    "pycparser 2.18 py36hf9f622e_1",
    "pycosat 0.6.3 py36h0a5515d_0",
    "ruamel_yaml 0.15.40 py36h14c3975_2",
    "setuptools 39.2.0 py36_0",
    "sqlite 3.24.0 h84994c4_0",
    "jsonschema 2.6.0 py36h006f8b5_0",
    "lz4-c 1.8.1.2 h14c3975_0",
    "nbformat 4.4.0 py36h31c9010_0",
    "ncurses 6.1 hf484d3e_0",
    "xz 5.2.4 h14c3975_4",
    "ipython_genutils 0.2.0 py36hb52b0d5_0",
    "readline 7.0 ha6073c6_4",
    "libxml2 2.9.8 h26e45fe_1",
    "lzo 2.10 h49e0be7_2",
    "liblief 0.9.0 h1532aa0_0",
    "libffi 3.2.1 hd88cf55_4",
    "libstdcxx-ng 7.2.0 hdf63c60_3",
    "bzip2 1.0.6 h14c3975_5",
    "conda 4.5.4 py36_0",
    "beautifulsoup4 4.6.0 py36h49b8c8c_1",
    "clyent 1.2.2 py36h7e57e65_1",
    "traitlets 4.3.2 py36h674d592_0",
    "cryptography 2.2.2 py36h14c3975_0",
    "decorator 4.3.0 py36_0",
    "conda-verify 2.0.0 py36h98955d8_0",
    "markupsafe 1.0 py36hd9260cd_1",
    "pyopenssl 18.0.0 py36_0",
    "chardet 3.0.4 py36h0f667ec_1",
    "urllib3 1.23 py36_0",
    "jupyter_core 4.4.0 py36h7c827e3_0",
    "libarchive 3.3.2 hb43526a_6",
    "pytz 2018.4 py36_0",
    "pip 10.0.1 py36_0",
    "certifi 2018.4.16 py36_0",
    "conda-env 2.6.0 h36134e3_1",
    "cffi 1.11.5 py36h9745a5d_0",
    "asn1crypto 0.24.0 py36_0",
    "six 1.11.0 py36h372c433_1",
    "jinja2 2.10 py36ha16c418_0",
    "filelock 3.0.4 py36_0",
    "icu 58.2 h9c2bf20_1",
    "wheel 0.31.1 py36_0",
    "zlib 1.2.11 ha838bed_2",
    "openssl 1.0.2o h20670df_0",
    "pyyaml 3.12 py36hafb9ca4_1",
    "requests 2.19.1 py36_0",
    "ca-certificates 2018.03.07 0"
  ],
  "summary": "Character encoding aliases for legacy web content"
}