{
  "arch": "x86_64",
  "build": "py37_1",
  "build_number": 1,
  "depends": [
    "python >=3.7,<3.8.0a0"
  ],
  "license": "BSD 3-Clause",
  "license_family": "BSD",
  "name": "webencodings",
  "platform": "linux",
  "subdir": "linux-64",
  "timestamp": 1530734127084,
  "version": "0.5.1"
}