{
  "build": "hdf63c60_0",
  "build_number": 0,
  "channel": "https://repo.anaconda.com/pkgs/main/linux-64",
  "constrains": [],
  "depends": [],
  "features": "",
  "fn": "libgfortran-ng-7.3.0-hdf63c60_0.conda",
  "legacy_bz2_md5": "6003e09e8cef9aca91b954abfdd0f39c",
  "legacy_bz2_size": 1336385,
  "license": "GPL",
  "md5": "e3e10877b7ee2bdd3f67f6d4d4e32e00",
  "name": "libgfortran-ng",
  "sha256": "5fc07f818aca5df283f804026f991a4e5db2b2e29959def155e36ce9b9b26def",
  "size": 1030197,
  "subdir": "linux-64",
  "timestamp": 1534628456385,
  "track_features": "",
  "url": "https://repo.anaconda.com/pkgs/main/linux-64/libgfortran-ng-7.3.0-hdf63c60_0.conda",
  "version": "7.3.0"
}