{
  "paths": [
    {
      "_path": "site-packages/jupyter.py",
      "path_type": "hardlink",
      "sha256": "29ca171ae39c66bfeef972de8aec9ca1586553865de8aaa0b7b68d860360988c",
      "size_in_bytes": 118
    },
    {
      "_path": "site-packages/jupyter_core-4.5.0.dist-info/COPYING.md",
      "path_type": "hardlink",
      "sha256": "9df40290484ccb3a5f69082912d3f70aabab9601dee689774beaafbad51cb50e",
      "size_in_bytes": 2936
    },
    {
      "_path": "site-packages/jupyter_core-4.5.0.dist-info/INSTALLER",
      "path_type": "hardlink",
      "sha256": "d0edee15f91b406f3f99726e44eb990be6e34fd0345b52b910c568e0eef6a2a8",
      "size_in_bytes": 5
    },
    {
      "_path": "site-packages/jupyter_core-4.5.0.dist-info/METADATA",
      "path_type": "hardlink",
      "sha256": "1d17345a2352b5e53dccd798b6250be6b8e7774f8936c3b651cf5ca49520c618",
      "size_in_bytes": 884
    },
    {
      "_path": "site-packages/jupyter_core-4.5.0.dist-info/RECORD",
      "path_type": "hardlink",
      "sha256": "39ed992b930ebd94f44e50fd5ff32bc510ae35dde11af346a694b25d738deea5",
      "size_in_bytes": 5571
    },
    {
      "_path": "site-packages/jupyter_core-4.5.0.dist-info/WHEEL",
      "path_type": "hardlink",
      "sha256": "87f6959f9381d8811152331b8b6a6e72647fcf3589b64df4dd85ef861eb4349f",
      "size_in_bytes": 110
    },
    {
      "_path": "site-packages/jupyter_core-4.5.0.dist-info/entry_points.txt",
      "path_type": "hardlink",
      "sha256": "96053b338d4c2ce0f702ef5bc91b797a68e05368820bb7c69c12fd72cee0a8c6",
      "size_in_bytes": 153
    },
    {
      "_path": "site-packages/jupyter_core-4.5.0.dist-info/top_level.txt",
      "path_type": "hardlink",
      "sha256": "752c340525c91554272672bb9403d64cebd81bdd973bb54e35f33e05e70f4300",
      "size_in_bytes": 21
    },
    {
      "_path": "site-packages/jupyter_core/__init__.py",
      "path_type": "hardlink",
      "sha256": "6f04fc9d334f561692ae814289ec603385028d6f636dc8ac67408d53ac7033b3",
      "size_in_bytes": 47
    },
    {
      "_path": "site-packages/jupyter_core/__main__.py",
      "path_type": "hardlink",
      "sha256": "385879dfb0a2532b8f8c5a02a5e0d7f1f4ecd171e1e0d55259876d62ba589ecc",
      "size_in_bytes": 71
    },
    {
      "_path": "site-packages/jupyter_core/application.py",
      "path_type": "hardlink",
      "sha256": "71859a9d8aa47109430b0558065dab5178ac3a6359937173cb4e57143c7ce8f0",
      "size_in_bytes": 8273
    },
    {
      "_path": "site-packages/jupyter_core/command.py",
      "path_type": "hardlink",
      "sha256": "370f99c79b7e9b84daf86d2d89f4ca863f923e9e9a6522d73395dd73358de3bc",
      "size_in_bytes": 8028
    },
    {
      "_path": "site-packages/jupyter_core/migrate.py",
      "path_type": "hardlink",
      "sha256": "1fcaf2eeb50a2d456541c8eb05ebb07b3b6136873a930a476f9c917afd434961",
      "size_in_bytes": 8447
    },
    {
      "_path": "site-packages/jupyter_core/paths.py",
      "path_type": "hardlink",
      "sha256": "9f771938ee02cdc9222b89d7d54522090d5d9cb8b92c4fab37ae55574afb88f0",
      "size_in_bytes": 5194
    },
    {
      "_path": "site-packages/jupyter_core/tests/__init__.py",
      "path_type": "hardlink",
      "sha256": "e3b0c44298fc1c149afbf4c8996fb92427ae41e4649b934ca495991b7852b855",
      "size_in_bytes": 0
    },
    {
      "_path": "site-packages/jupyter_core/tests/dotipython/nbextensions/myext.js",
      "path_type": "hardlink",
      "sha256": "9aaf7d4297ccc029be981919b42753ccbd66da1fa46e747861c2ad9a70a5167d",
      "size_in_bytes": 11
    },
    {
      "_path": "site-packages/jupyter_core/tests/dotipython/profile_default/ipython_config.py",
      "path_type": "hardlink",
      "sha256": "c823797a5b9b26d568b54deba9d2bbb238cc08c873332a0c0eeef29d1d66fd15",
      "size_in_bytes": 20611
    },
    {
      "_path": "site-packages/jupyter_core/tests/dotipython/profile_default/ipython_console_config.py",
      "path_type": "hardlink",
      "sha256": "707be74b8defd2bbcb071018bf45697b7fe6cfc60355f60bb4564ee692b6ea73",
      "size_in_bytes": 21691
    },
    {
      "_path": "site-packages/jupyter_core/tests/dotipython/profile_default/ipython_kernel_config.py",
      "path_type": "hardlink",
      "sha256": "e9096f3083cfc724f07e0e996c75fe96ebac3cfff9f0bf36f9333653867b3b0e",
      "size_in_bytes": 15358
    },
    {
      "_path": "site-packages/jupyter_core/tests/dotipython/profile_default/ipython_nbconvert_config.py",
      "path_type": "hardlink",
      "sha256": "1a06db1af6e44860cf30ab16ad982cbcab3a833da406a088ae099e5d601ebfd2",
      "size_in_bytes": 36
    },
    {
      "_path": "site-packages/jupyter_core/tests/dotipython/profile_default/ipython_notebook_config.py",
      "path_type": "hardlink",
      "sha256": "f3eb46d936e0a2255d86faebfd171ecd6f5b44088037dd7ecd25d211a348758a",
      "size_in_bytes": 35
    },
    {
      "_path": "site-packages/jupyter_core/tests/dotipython/profile_default/static/custom/custom.css",
      "path_type": "hardlink",
      "sha256": "9e2eb8c875c5f2511e1e3a14ae9482ed0883e5a0438fd9b0dc33061a0794cf72",
      "size_in_bytes": 144
    },
    {
      "_path": "site-packages/jupyter_core/tests/dotipython/profile_default/static/custom/custom.js",
      "path_type": "hardlink",
      "sha256": "42af304344aa2149039bed19d994bd2032beae89fc52a900e326b0aab1521fde",
      "size_in_bytes": 2803
    },
    {
      "_path": "site-packages/jupyter_core/tests/dotipython_empty/profile_default/ipython_config.py",
      "path_type": "hardlink",
      "sha256": "c823797a5b9b26d568b54deba9d2bbb238cc08c873332a0c0eeef29d1d66fd15",
      "size_in_bytes": 20611
    },
    {
      "_path": "site-packages/jupyter_core/tests/dotipython_empty/profile_default/ipython_console_config.py",
      "path_type": "hardlink",
      "sha256": "707be74b8defd2bbcb071018bf45697b7fe6cfc60355f60bb4564ee692b6ea73",
      "size_in_bytes": 21691
    },
    {
      "_path": "site-packages/jupyter_core/tests/dotipython_empty/profile_default/ipython_kernel_config.py",
      "path_type": "hardlink",
      "sha256": "e9096f3083cfc724f07e0e996c75fe96ebac3cfff9f0bf36f9333653867b3b0e",
      "size_in_bytes": 15358
    },
    {
      "_path": "site-packages/jupyter_core/tests/dotipython_empty/profile_default/ipython_nbconvert_config.py",
      "path_type": "hardlink",
      "sha256": "861c9c46532308b005c7180af94366bcfdb836e0aacc843c5d9b7bf86b484565",
      "size_in_bytes": 38772
    },
    {
      "_path": "site-packages/jupyter_core/tests/dotipython_empty/profile_default/ipython_notebook_config.py",
      "path_type": "hardlink",
      "sha256": "f018b975a2e03b0e2bf8c3259f218825d791cf6e316ddbffebdf95479864a447",
      "size_in_bytes": 19986
    },
    {
      "_path": "site-packages/jupyter_core/tests/dotipython_empty/profile_default/static/custom/custom.css",
      "path_type": "hardlink",
      "sha256": "9e2eb8c875c5f2511e1e3a14ae9482ed0883e5a0438fd9b0dc33061a0794cf72",
      "size_in_bytes": 144
    },
    {
      "_path": "site-packages/jupyter_core/tests/dotipython_empty/profile_default/static/custom/custom.js",
      "path_type": "hardlink",
      "sha256": "42af304344aa2149039bed19d994bd2032beae89fc52a900e326b0aab1521fde",
      "size_in_bytes": 2803
    },
    {
      "_path": "site-packages/jupyter_core/tests/mocking.py",
      "path_type": "hardlink",
      "sha256": "1e05fc74a04ab60b6e2c337474b793511e0c78255caa933f27d8bfff5c0e1674",
      "size_in_bytes": 840
    },
    {
      "_path": "site-packages/jupyter_core/tests/test_application.py",
      "path_type": "hardlink",
      "sha256": "ef8f3d6c0bfcf381efe78664caa78a9eb14f82084f725069c7f1c1626887aaa4",
      "size_in_bytes": 2753
    },
    {
      "_path": "site-packages/jupyter_core/tests/test_command.py",
      "path_type": "hardlink",
      "sha256": "22abdfc24e9f29f9300b1695fa646b1b8612f8835151f9c6186b60a9475ad698",
      "size_in_bytes": 4898
    },
    {
      "_path": "site-packages/jupyter_core/tests/test_migrate.py",
      "path_type": "hardlink",
      "sha256": "b8ec5f7d1bb006c9368494f452f2287cc61bc0f2ac752b481d6a3d3df4c09902",
      "size_in_bytes": 5797
    },
    {
      "_path": "site-packages/jupyter_core/tests/test_paths.py",
      "path_type": "hardlink",
      "sha256": "659256a91641a19e181de8577c132505162c916d0b08f9fb32a8fac024cc9671",
      "size_in_bytes": 5000
    },
    {
      "_path": "site-packages/jupyter_core/troubleshoot.py",
      "path_type": "hardlink",
      "sha256": "bd324a523141170c75374c0b31f4a5a538bd2547f38d5ca372a77d48a5b507b1",
      "size_in_bytes": 2725
    },
    {
      "_path": "site-packages/jupyter_core/utils/__init__.py",
      "path_type": "hardlink",
      "sha256": "2cfa2a2464f5f9cab24a45ed07062f195d372bfa3837916f531384bbd42c85f3",
      "size_in_bytes": 521
    },
    {
      "_path": "site-packages/jupyter_core/utils/shutil_which.py",
      "path_type": "hardlink",
      "sha256": "076e270c05e8b7570d995beab2069f2f878680e504eaf0cc7ecb7ca5d824b1a9",
      "size_in_bytes": 2431
    },
    {
      "_path": "site-packages/jupyter_core/version.py",
      "path_type": "hardlink",
      "sha256": "76394a894e7f727b745a9dd87dff07d803367c2f8537baf0cea744c23f2b7489",
      "size_in_bytes": 175
    }
  ],
  "paths_version": 1
}