{
  "build": "py_0",
  "build_number": 0,
  "channel": "https://repo.anaconda.com/pkgs/main/noarch",
  "constrains": [],
  "depends": [
    "python",
    "traitlets"
  ],
  "features": "",
  "fn": "jupyter_core-4.5.0-py_0.tar.bz2",
  "license": "BSD 3-clause",
  "license_family": "BSD",
  "md5": "d70a384bcdc546c3072e89e41fec89bc",
  "name": "jupyter_core",
  "noarch": "python",
  "package_type": "noarch_python",
  "sha256": "291974f0f15736de0d45cf751dd763339230f52f00332ee09b5754035202f77c",
  "size": 49057,
  "subdir": "noarch",
  "timestamp": 1562079648371,
  "track_features": "",
  "url": "https://repo.anaconda.com/pkgs/main/noarch/jupyter_core-4.5.0-py_0.tar.bz2",
  "version": "4.5.0"
}