{
  "build": "py37_0",
  "build_number": 0,
  "channel": "https://repo.anaconda.com/pkgs/main/linux-64",
  "constrains": [],
  "depends": [
    "astroid >=2.3.0,<2.4",
    "isort >=4.2.5,<5",
    "mccabe >=0.6,<0.7",
    "python >=3.7,<3.8.0a0"
  ],
  "features": "",
  "fn": "pylint-2.4.2-py37_0.tar.bz2",
  "license": "GPL 2",
  "md5": "0bc3a152deacef64f7a74ce8ab970822",
  "name": "pylint",
  "sha256": "2e2015880e86b52b34037af3b14ac3bf4f7efc0df3922497efc5af32d0b2d5bd",
  "size": 439382,
  "subdir": "linux-64",
  "timestamp": 1569854782103,
  "track_features": "",
  "url": "https://repo.anaconda.com/pkgs/main/linux-64/pylint-2.4.2-py37_0.tar.bz2",
  "version": "2.4.2"
}