{
  "build": "h7d1a2b0_0",
  "build_number": 0,
  "channel": "https://repo.anaconda.com/pkgs/main/linux-64",
  "constrains": [],
  "depends": [
    "icu >=58.2,<59.0a0",
    "libgcc-ng >=7.3.0",
    "libxml2 >=2.9.8,<2.10.0a0"
  ],
  "features": "",
  "fn": "libxslt-1.1.33-h7d1a2b0_0.conda",
  "legacy_bz2_md5": "33a5cde90b012a948aa6a821d11ebfcb",
  "legacy_bz2_size": 591009,
  "license": "MIT",
  "md5": "56c05c1104eb8f0dd29230bc757241cc",
  "name": "libxslt",
  "sha256": "4b013ba71a910ddeb6ccd580fde5dc42367a1bee44aae3970cad42f3e1800325",
  "size": 436699,
  "subdir": "linux-64",
  "timestamp": 1547922875391,
  "track_features": "",
  "url": "https://repo.anaconda.com/pkgs/main/linux-64/libxslt-1.1.33-h7d1a2b0_0.conda",
  "version": "1.1.33"
}