{
  "paths": [
    {
      "_path": "lib/python3.7/site-packages/testpath-0.4.2.dist-info/INSTALLER",
      "path_type": "hardlink",
      "sha256": "ceebae7b8927a3227e5303cf5e0f1f7b34bb542ad7250ac03fbcde36ec2f1508",
      "size_in_bytes": 4
    },
    {
      "_path": "lib/python3.7/site-packages/testpath-0.4.2.dist-info/LICENSE",
      "path_type": "hardlink",
      "sha256": "95f7c73530d13d9fe14e59b8bbd2eb4901aab79e119e336cd937f495cce6fc36",
      "size_in_bytes": 1528
    },
    {
      "_path": "lib/python3.7/site-packages/testpath-0.4.2.dist-info/METADATA",
      "path_type": "hardlink",
      "sha256": "f70f106f86021f8f7c5ecd0963a4fad91fdc95c2c52bb79f33198620408080ed",
      "size_in_bytes": 374
    },
    {
      "_path": "lib/python3.7/site-packages/testpath-0.4.2.dist-info/RECORD",
      "path_type": "hardlink",
      "sha256": "46e7a5f65fb1a649ddd80611d6d83d335c5d82357b1e3c8fd476e0848434a538",
      "size_in_bytes": 1254
    },
    {
      "_path": "lib/python3.7/site-packages/testpath-0.4.2.dist-info/WHEEL",
      "path_type": "hardlink",
      "sha256": "74cde2fa00c4a8a6e47757bffa26033f38bbfe1185d797335c4800b9e20cd79b",
      "size_in_bytes": 93
    },
    {
      "_path": "lib/python3.7/site-packages/testpath-0.4.2.dist-info/top_level.txt",
      "path_type": "hardlink",
      "sha256": "a846e1158baa3fa0a3e75abdabc9101f8050862cab304aa8509a9b5816639da7",
      "size_in_bytes": 9
    },
    {
      "_path": "lib/python3.7/site-packages/testpath/__init__.py",
      "path_type": "hardlink",
      "sha256": "64ad45b02782c360956ef262af012037ad5f718e78c4e1e0c3b419b8c5862e7a",
      "size_in_bytes": 220
    },
    {
      "_path": "lib/python3.7/site-packages/testpath/__pycache__/__init__.cpython-37.pyc",
      "path_type": "hardlink",
      "sha256": "0c5d8b005b8b676c028377bde12971c56f737e18df562a68a085109e69d032aa",
      "size_in_bytes": 416
    },
    {
      "_path": "lib/python3.7/site-packages/testpath/__pycache__/asserts.cpython-37.pyc",
      "path_type": "hardlink",
      "sha256": "9f9ecf481f093f3b655a0b58653b981eb85bdd8eda81192317346866b0f4f9f4",
      "size_in_bytes": 6193
    },
    {
      "_path": "lib/python3.7/site-packages/testpath/__pycache__/commands.cpython-37.pyc",
      "path_type": "hardlink",
      "sha256": "b6a2a75cac42fdaacce17eff79e81cf685a6b14bfba019ba1e5c5b81f9d28810",
      "size_in_bytes": 5131
    },
    {
      "_path": "lib/python3.7/site-packages/testpath/__pycache__/env.cpython-37.pyc",
      "path_type": "hardlink",
      "sha256": "5b762aff37e24465e1cde49ad818d8241fd2dba60b6c289a8c9bd2aa2440539b",
      "size_in_bytes": 2520
    },
    {
      "_path": "lib/python3.7/site-packages/testpath/__pycache__/tempdir.cpython-37.pyc",
      "path_type": "hardlink",
      "sha256": "35ac18a1bcb7f7004f3775931d8414e0760609791edd51f1c1222566c300d9f9",
      "size_in_bytes": 5280
    },
    {
      "_path": "lib/python3.7/site-packages/testpath/asserts.py",
      "path_type": "hardlink",
      "sha256": "52ff7f33277619b4849d576cf6a1d8c6cc06d90ee3e8cf8b9a90e6d90e135d35",
      "size_in_bytes": 6679
    },
    {
      "_path": "lib/python3.7/site-packages/testpath/cli-32.exe",
      "path_type": "hardlink",
      "sha256": "75f12ea2f30d9c0d872dade345f30f562e6d93847b6a509ba53beec6d0b2c346",
      "size_in_bytes": 65536
    },
    {
      "_path": "lib/python3.7/site-packages/testpath/cli-64.exe",
      "path_type": "hardlink",
      "sha256": "28b001bb9a72ae7a24242bfab248d767a1ac5dec981c672a3944f7a072375e9a",
      "size_in_bytes": 74752
    },
    {
      "_path": "lib/python3.7/site-packages/testpath/commands.py",
      "path_type": "hardlink",
      "sha256": "e0a2f0c380a20ca0fc80cdab7c9bdbc9bd50dc4085a6864f8b8a19645212d10a",
      "size_in_bytes": 4873
    },
    {
      "_path": "lib/python3.7/site-packages/testpath/env.py",
      "path_type": "hardlink",
      "sha256": "c287366d423057dd3c21dd356a8a239b0f4ee9f88b694d2159ec7a7f459c6c08",
      "size_in_bytes": 2370
    },
    {
      "_path": "lib/python3.7/site-packages/testpath/tempdir.py",
      "path_type": "hardlink",
      "sha256": "e2a99f77d874159f1c37d5e89efcaf01f7f95a373f21df3e62b420e099cfe07d",
      "size_in_bytes": 5246
    }
  ],
  "paths_version": 1
}