{
  "paths": [
    {
      "_path": "site-packages/filelock-3.0.12.dist-info/INSTALLER",
      "path_type": "hardlink",
      "sha256": "ceebae7b8927a3227e5303cf5e0f1f7b34bb542ad7250ac03fbcde36ec2f1508",
      "size_in_bytes": 4
    },
    {
      "_path": "site-packages/filelock-3.0.12.dist-info/LICENSE",
      "path_type": "hardlink",
      "sha256": "88d9b4eb60579c191ec391ca04c16130572d7eedc4a86daa58bf28c6e14c9bcd",
      "size_in_bytes": 1210
    },
    {
      "_path": "site-packages/filelock-3.0.12.dist-info/METADATA",
      "path_type": "hardlink",
      "sha256": "823cdbbfd9f1b43f918f6cac8d4b86ed22d908751097984ccbaf098a3f2ca0fc",
      "size_in_bytes": 4343
    },
    {
      "_path": "site-packages/filelock-3.0.12.dist-info/RECORD",
      "path_type": "hardlink",
      "sha256": "73b90597b7a2934e2a3959d884b603a07500622e0a277c3d10e400c1f89b633a",
      "size_in_bytes": 576
    },
    {
      "_path": "site-packages/filelock-3.0.12.dist-info/WHEEL",
      "path_type": "hardlink",
      "sha256": "ae121453793f815da20b2a4e34babecb0f2102f1ae5fe0680e02ffa2f0621d6d",
      "size_in_bytes": 93
    },
    {
      "_path": "site-packages/filelock-3.0.12.dist-info/top_level.txt",
      "path_type": "hardlink",
      "sha256": "343adff62e41368833e2111db2be878bb5acdd395248a63843663dffe8b61b05",
      "size_in_bytes": 9
    },
    {
      "_path": "site-packages/filelock.py",
      "path_type": "hardlink",
      "sha256": "e43413b4e690abbfaf80b919cef3a1aa154c87fba67f275681203c56ece67fc3",
      "size_in_bytes": 13229
    }
  ],
  "paths_version": 1
}