{
  "build": "py_0",
  "build_number": 0,
  "channel": "https://repo.anaconda.com/pkgs/main/noarch",
  "constrains": [],
  "depends": [
    "python"
  ],
  "features": "",
  "fn": "defusedxml-0.6.0-py_0.tar.bz2",
  "license": "PSF 2.0",
  "license_family": "PSF",
  "md5": "db00390e2c4c3c3670d22a7bfba6a993",
  "name": "defusedxml",
  "noarch": "python",
  "package_type": "noarch_python",
  "sha256": "f78d8a76e08f8a5676a8e11ee494c62c1e5d4e579c126a6481501f43dc6eca43",
  "size": 23565,
  "subdir": "noarch",
  "timestamp": 1556080706081,
  "track_features": "",
  "url": "https://repo.anaconda.com/pkgs/main/noarch/defusedxml-0.6.0-py_0.tar.bz2",
  "version": "0.6.0"
}