{
  "arch": "x86_64",
  "build": "py37h7b6447c_0",
  "build_number": 0,
  "depends": [
    "libgcc-ng >=7.3.0",
    "python >=3.7,<3.8.0a0",
    "six"
  ],
  "license": "MIT",
  "license_family": "MIT",
  "name": "pyrsistent",
  "platform": "linux",
  "subdir": "linux-64",
  "timestamp": 1569427193644,
  "version": "0.15.4"
}