{
  "build": "py_0",
  "build_number": 0,
  "channel": "https://repo.anaconda.com/pkgs/main/noarch",
  "constrains": [],
  "depends": [
    "python"
  ],
  "features": "",
  "fn": "tblib-1.4.0-py_0.tar.bz2",
  "license": "BSD 2-Clause",
  "license_family": "BSD",
  "md5": "7e4a4f7f1e577b45cd00325bd0ad1d01",
  "name": "tblib",
  "noarch": "python",
  "package_type": "noarch_python",
  "sha256": "dd26bf6e49534a5f6c4054fc22abbbd4211ef4dd5beee3dfd253f958e5b75f2b",
  "size": 14343,
  "subdir": "noarch",
  "timestamp": 1557506118429,
  "track_features": "",
  "url": "https://repo.anaconda.com/pkgs/main/noarch/tblib-1.4.0-py_0.tar.bz2",
  "version": "1.4.0"
}