{
  "arch": "x86_64",
  "build": "py37he6710b0_0",
  "build_number": 0,
  "depends": [
    "libgcc-ng >=7.3.0",
    "libstdcxx-ng >=7.3.0",
    "python >=3.7,<3.8.0a0"
  ],
  "license": "BSD 3-Clause",
  "license_family": "BSD",
  "name": "kiwisolver",
  "platform": "linux",
  "subdir": "linux-64",
  "timestamp": 1556560851628,
  "version": "1.1.0"
}