{
  "build": "py37he6710b0_0",
  "build_number": 0,
  "channel": "https://repo.anaconda.com/pkgs/main/linux-64",
  "constrains": [],
  "depends": [
    "libgcc-ng >=7.3.0",
    "libstdcxx-ng >=7.3.0",
    "python >=3.7,<3.8.0a0"
  ],
  "features": "",
  "fn": "kiwisolver-1.1.0-py37he6710b0_0.conda",
  "legacy_bz2_md5": "b4692f437bd50cb18ec43fdbb5ad9bdb",
  "legacy_bz2_size": 91739,
  "license": "BSD 3-Clause",
  "license_family": "BSD",
  "md5": "b15fc057b97acb0a5c512a1724fc8a77",
  "name": "kiwisolver",
  "sha256": "47d1e6bd3e012209cdba5ed1c34eb3248aebbe55e73d1f7501200a5c76c1a9cd",
  "size": 84476,
  "subdir": "linux-64",
  "timestamp": 1556560851628,
  "track_features": "",
  "url": "https://repo.anaconda.com/pkgs/main/linux-64/kiwisolver-1.1.0-py37he6710b0_0.conda",
  "version": "1.1.0"
}