{
  "arch": "x86_64",
  "build": "py37_0",
  "build_number": 0,
  "depends": [
    "python >=3.7,<3.8.0a0",
    "setuptools",
    "six",
    "webencodings"
  ],
  "license": "Apache-2.0",
  "license_family": "Apache",
  "name": "bleach",
  "platform": "linux",
  "subdir": "linux-64",
  "timestamp": 1547747439520,
  "version": "3.1.0"
}