{
  "build": "py37_0",
  "build_number": 0,
  "channel": "https://repo.anaconda.com/pkgs/main/linux-64",
  "constrains": [],
  "depends": [
    "numpy >=1.7.1",
    "pandas",
    "python >=3.7,<3.8.0a0",
    "six >=1.5.2"
  ],
  "features": "",
  "fn": "bkcharts-0.2-py37_0.conda",
  "legacy_bz2_md5": "7837189bf0ed7fcea2ef265258d0bd76",
  "legacy_bz2_size": 130207,
  "license": "BSD 3-Clause",
  "md5": "84e6c5c4af0917e37201280f0f593762",
  "name": "bkcharts",
  "sha256": "58928d7c838edc9b0b84330be4c8c3ab7f9d6d889425358085924dbf8c0acfb3",
  "size": 136471,
  "subdir": "linux-64",
  "timestamp": 1530770907422,
  "track_features": "",
  "url": "https://repo.anaconda.com/pkgs/main/linux-64/bkcharts-0.2-py37_0.conda",
  "version": "0.2"
}