{
  "arch": "x86_64",
  "build": "py37_0",
  "build_number": 0,
  "depends": [
    "backports",
    "python >=3.7,<3.8.0a0"
  ],
  "license": "Python Software Foundation",
  "license_family": "PSF",
  "name": "backports.os",
  "platform": "linux",
  "subdir": "linux-64",
  "timestamp": 1539703308789,
  "version": "0.1.1"
}