commit 08d006a0d4d5d605c4f80deaf497b5d4123ab35f
Author: Jonathan Helmus <jjhelmus@gmail.com>
Date:   Tue Jul 16 09:39:24 2019 -0500

    3.4.4

commit cbb6a3815d7ea8faf5050b8202308582c3351372
Author: Jonathan Helmus <jjhelmus@gmail.com>
Date:   Tue Jul 2 10:03:43 2019 -0500

    3.4.3

commit d3d91acb76e786fc0da61386a66a2a52989a54b9
Author: Jonathan Helmus <jjhelmus@gmail.com>
Date:   Mon Apr 22 11:55:12 2019 -0500

    3.4.1, simplify recipe

commit b36d65e424f28fa078502b295319da31aa113b3c
Author: Michael Sarahan <msarahan@gmail.com>
Date:   Wed Dec 19 19:56:26 2018 -0600

    Revert "Add extra reqs, noarch: python"
    
    This reverts commit e400e09fbde3d0064bc5bb326c06fd506d00b982.
    
    Reverting this because it adds too many dependencies to the Anaconda Distribution

commit 78de87bfdf2bbdb41084436b331873a573b3674e
Author: Jonathan Helmus <jjhelmus@gmail.com>
Date:   Mon Dec 17 22:42:28 2018 -0600

    3.4

commit eaa6b6b56c3f1da77d671a1ff3d93303cb8b8a47
Author: Nehal J Wani <nehaljw.kkd1@gmail.com>
Date:   Tue May 8 18:21:41 2018 -0500

    Bump version to 3.3.0

commit d5a648cf9b4a7d940a8ce64cf7afd7d5ad06bb5e
Author: Ray Donnelly <mingw.android@gmail.com>
Date:   Fri Sep 8 07:56:56 2017 +0000

    Remove duplicated meta/about

commit fba204978b430970880f27cef598c64eed6c53fc
Author: Nehal J Wani <nehaljw.kkd1@gmail.com>
Date:   Sun Aug 13 13:39:08 2017 +0000

    Update about section

commit 7859369af17812fba9837db9968e13d393649b06
Author: Nehal J Wani <nehaljw.kkd1@gmail.com>
Date:   Mon Jul 17 05:07:00 2017 +0000

    Make recipe cross-compile capable

commit bbc4abdb3f6b8bc182dceddbe1aa3f13909c4d2e
Author: Travis CI User <travis@example.org>
Date:   Sat Aug 4 18:41:23 2018 +0000

    [ci skip] [skip ci] Update anaconda token

commit ece8ac308549d5610009d0aa0bc054b26b054dad
Merge: 86e594f 154277f
Author: Peter M. Landwehr <plandweh@cs.cmu.edu>
Date:   Sun Oct 1 22:20:18 2017 -0700

    Merge pull request #6 from pmlandwehr/master
    
    Ticked version, regenerated if needed. (Double-check reqs!)

commit 154277fbe0df5a3bc232c42929f0c1bbd05a50be
Author: Peter <pmlandwehr@gmail.com>
Date:   Sun Oct 1 21:47:42 2017 -0700

    MNT: Re-rendered with conda-smithy 2.4.2

commit e400e09fbde3d0064bc5bb326c06fd506d00b982
Author: Peter M. Landwehr <plandweh@cs.cmu.edu>
Date:   Sun Oct 1 21:47:15 2017 -0700

    Add extra reqs, noarch: python

commit ce803370f44756d3dc6013112e9156a0d67b65f0
Author: Peter M. Landwehr <plandweh@cs.cmu.edu>
Date:   Sun Oct 1 20:59:52 2017 -0700

    Tick version to 3.2.5

commit 86e594f1f058ad5b8f3e11ff00a86600c3738dfb
Author: Travis-CI on github.com/conda-forge/staged-recipes <conda-forge@googlegroups.com>
Date:   Sat Aug 26 20:27:12 2017 +0000

    [ci skip] [skip ci] Update anaconda token

commit 5b5969b7426fb0c4b13a5bdf5103e7f6a6b29d08
Merge: 0697a57 2562cef
Author: Peter M. Landwehr <plandweh@cs.cmu.edu>
Date:   Thu May 25 21:45:40 2017 -0700

    Merge pull request #4 from pmlandwehr/master
    
    Ticked version, regenerated if needed. (Double-check reqs!)

commit 2562ceff27d44ad808808af2a40a5a75355ea9a3
Author: Peter M. Landwehr <plandweh@cs.cmu.edu>
Date:   Thu May 25 15:47:09 2017 -0700

    Update template

commit f451ccacf3a0fcef00920b7a956bd22cfee22b08
Author: pmlandwehr <None>
Date:   Thu May 25 13:06:37 2017 -0700

    MNT: Updated the feedstock for conda-smithy version 2.3.1.

commit dd175c3b3b03e664329671b98fc44f0464f7f277
Author: Peter M. Landwehr <plandweh@cs.cmu.edu>
Date:   Thu May 25 13:02:23 2017 -0700

    Tick version to 3.2.4

commit 0697a57a42b6923fa2312cfa310e00aa3de893da
Merge: 36a1760 09e08a0
Author: Peter M. Landwehr <plandweh@cs.cmu.edu>
Date:   Sat Feb 25 22:55:55 2017 -0800

    Merge pull request #3 from pmlandwehr/master
    
    Tick version, rerender with 2.1.0

commit 09e08a049c732dfe28b2d11af24fd852d64b0334
Author: Peter M. Landwehr <plandweh@cs.cmu.edu>
Date:   Tue Feb 21 17:04:04 2017 -0800

    Add six to run reqs

commit cab7d4a6aa108eb1fd9a3b2c4e127f6dbdce82ad
Author: Peter M. Landwehr <plandweh@cs.cmu.edu>
Date:   Tue Feb 21 16:58:57 2017 -0800

    Switch from zip to tar.gz

commit cf08fea529823832248e766eef73a3d3bfffc6d1
Author: Peter Landwehr <pmlandwehr@gmail.com>
Date:   Tue Feb 21 16:37:54 2017 -0800

    MNT: Re-rendered with conda-smithy 2.1.0

commit 8edefc5b47fb425b8c7a731aa292e1556dd045cc
Author: Peter M. Landwehr <plandweh@cs.cmu.edu>
Date:   Tue Feb 21 16:19:33 2017 -0800

    Tick version to 3.2.2

commit 36a1760c83470830ac70725c18453507ba721a6c
Merge: bdf24d9 f824185
Author: jakirkham <jakirkham@gmail.com>
Date:   Tue Oct 11 01:19:23 2016 -0400

    Merge pull request #2 from conda-forge-admin/feedstock_rerender_master
    
    MNT: Re-render the feedstock [ci skip]

commit f8241852a9cc1670365bbfb53ffe6ea2ad9d6919
Author: conda-forge-admin <pelson.pub+conda-forge@gmail.com>
Date:   Tue Oct 11 01:34:54 2016 +0000

    MNT: Updated the feedstock for conda-smithy version 1.3.2.

commit bdf24d9460117236766650f2a5edc7753ba88ecd
Merge: 7014f87 dbab47a
Author: Peter M. Landwehr <plandweh@cs.cmu.edu>
Date:   Tue Oct 4 11:19:52 2016 -0700

    Merge pull request #1 from conda-forge-admin/feedstock_rerender_master
    
    MNT: Re-render the feedstock [ci skip]

commit dbab47a4adf5660ca0720d0ae85de110733915de
Author: conda-forge-admin <pelson.pub+conda-forge@gmail.com>
Date:   Sun Oct 2 01:34:24 2016 +0000

    MNT: Updated the feedstock for conda-smithy version 1.3.1.

commit 7014f87bc54639e0dc6ffdbdaeb1d6799b999896
Author: Travis-CI on github.com/conda-forge/staged-recipes <conda-forge@googlegroups.com>
Date:   Sat Aug 27 19:49:33 2016 +0000

    Re-render the feedstock after CI registration.

commit a581996065dcc8bdfedcae70c6885acfdec01513
Author: Travis-CI on github.com/conda-forge/staged-recipes <conda-forge@googlegroups.com>
Date:   Sat Aug 27 19:48:12 2016 +0000

    Initial commit of the nltk feedstock.
