{
  "build": "py37_0",
  "build_number": 0,
  "channel": "https://repo.anaconda.com/pkgs/main/linux-64",
  "constrains": [],
  "depends": [
    "entrypoints",
    "python >=3.7,<3.8.0a0",
    "secretstorage"
  ],
  "features": "",
  "fn": "keyring-18.0.0-py37_0.conda",
  "legacy_bz2_md5": "41aefa3e1e4722c872fa4284d13228be",
  "legacy_bz2_size": 56383,
  "license": "Python Software Foundation or MIT",
  "license_family": "MIT",
  "md5": "9fc2208a0a47501cb012859d65225c35",
  "name": "keyring",
  "sha256": "49b7d70fc4b9759042a800ad6f79eecdee51b298b3240b0a186159aa29a96963",
  "size": 60918,
  "subdir": "linux-64",
  "timestamp": 1550348287541,
  "track_features": "",
  "url": "https://repo.anaconda.com/pkgs/main/linux-64/keyring-18.0.0-py37_0.conda",
  "version": "18.0.0"
}