{
  "arch": "x86_64",
  "build": "py37_0",
  "build_number": 0,
  "depends": [
    "certifi >=2016.09",
    "python >=3.7,<3.8.0a0"
  ],
  "license": "MIT",
  "license_family": "MIT",
  "name": "setuptools",
  "platform": "linux",
  "subdir": "linux-64",
  "timestamp": 1570459517903,
  "version": "41.4.0"
}