{
  "arch": "x86_64",
  "build": "py37he6710b0_0",
  "build_number": 0,
  "depends": [
    "libgcc-ng >=7.3.0",
    "libstdcxx-ng >=7.3.0",
    "numpy >=1.14.6,<2.0a0",
    "python >=3.7,<3.8.0a0",
    "python-dateutil >=2.6.1",
    "pytz >=2017.2"
  ],
  "license": "BSD 3-clause",
  "name": "pandas",
  "platform": "linux",
  "subdir": "linux-64",
  "timestamp": 1566830216094,
  "version": "0.25.1"
}