{
  "paths": [
    {
      "_path": "bin/dbus-cleanup-sockets",
      "path_type": "hardlink",
      "sha256": "ce55f9d79bfde5ee1dd1f2418ef1f15d77119bbce85ec0d58d406856d710c8aa",
      "size_in_bytes": 20920
    },
    {
      "_path": "bin/dbus-daemon",
      "file_mode": "binary",
      "path_type": "hardlink",
      "prefix_placeholder": "/tmp/build/80754af9/dbus_1547912161983/_h_env_placehold_placehold_placehold_placehold_placehold_placehold_placehold_placehold_placehold_placehold_placehold_placehold_placehold_placehold_placehold_placehold_placehold_placehold_placehold_placehold_placehold",
      "sha256": "e2d6edcd19453a95550ccd9c1c063387bc02b9d4ac2e27b89d69c18b65d57777",
      "size_in_bytes": 280248
    },
    {
      "_path": "bin/dbus-launch",
      "file_mode": "binary",
      "path_type": "hardlink",
      "prefix_placeholder": "/tmp/build/80754af9/dbus_1547912161983/_h_env_placehold_placehold_placehold_placehold_placehold_placehold_placehold_placehold_placehold_placehold_placehold_placehold_placehold_placehold_placehold_placehold_placehold_placehold_placehold_placehold_placehold",
      "sha256": "1ed9e5bdd9b0905c0f21585f493b2c81d561026796ddf23acb213a4ad92cd0e1",
      "size_in_bytes": 34368
    },
    {
      "_path": "bin/dbus-monitor",
      "path_type": "hardlink",
      "sha256": "9cf52d919c56665460489962d34ca5e1849931a21ef08d3de7f7a43735241602",
      "size_in_bytes": 35936
    },
    {
      "_path": "bin/dbus-run-session",
      "path_type": "hardlink",
      "sha256": "a0e2ebd9e74672a6ffea5e9dc9e09725594ece15b29eef4080537420e3a148cd",
      "size_in_bytes": 20624
    },
    {
      "_path": "bin/dbus-send",
      "path_type": "hardlink",
      "sha256": "a6370e525ae5a3f488a60a9d83a66be44a9edb421c4d9318f9ca8d5a8445e378",
      "size_in_bytes": 36016
    },
    {
      "_path": "bin/dbus-test-tool",
      "path_type": "hardlink",
      "sha256": "588a61684eed6853509f32af0fa75dbc11beab417f272ac7358ef75c33734c6e",
      "size_in_bytes": 35336
    },
    {
      "_path": "bin/dbus-update-activation-environment",
      "path_type": "hardlink",
      "sha256": "3bc4d93dba451526ad2d8393632e850d9b09ad430a9070daa038a92f0e0757b4",
      "size_in_bytes": 21232
    },
    {
      "_path": "bin/dbus-uuidgen",
      "path_type": "hardlink",
      "sha256": "f9647b136766076527229d5ad026b2c19b20aa183e6d182f81c5d35fa7bea1c2",
      "size_in_bytes": 20400
    },
    {
      "_path": "etc/dbus-1/session.conf",
      "file_mode": "text",
      "path_type": "hardlink",
      "prefix_placeholder": "/opt/anaconda1anaconda2anaconda3",
      "sha256": "5f4e777d6844e45a159f66cf008d9ad757d8311c0fab458936a2f4368f2157cd",
      "size_in_bytes": 894
    },
    {
      "_path": "etc/dbus-1/system.conf",
      "file_mode": "text",
      "path_type": "hardlink",
      "prefix_placeholder": "/opt/anaconda1anaconda2anaconda3",
      "sha256": "87bff83e095b0d8fc1d2a220b70d46087f116503e5dbd1d7b8b9eb50e5a91822",
      "size_in_bytes": 889
    },
    {
      "_path": "include/dbus-1.0/dbus/dbus-address.h",
      "path_type": "hardlink",
      "sha256": "fe4e79d9d37d9d059ac8cb92a1422182f49c4b8663ed197e14f208ccac8d1be2",
      "size_in_bytes": 2812
    },
    {
      "_path": "include/dbus-1.0/dbus/dbus-bus.h",
      "path_type": "hardlink",
      "sha256": "bcf380f9218ec2748ce7bdd54d559cc540ef3482977ce792e4c83ba385b6ce4b",
      "size_in_bytes": 3472
    },
    {
      "_path": "include/dbus-1.0/dbus/dbus-connection.h",
      "path_type": "hardlink",
      "sha256": "0d16029774286caae011468a0c23c1d50617bad45596f60aa44a467d44630928",
      "size_in_bytes": 27020
    },
    {
      "_path": "include/dbus-1.0/dbus/dbus-errors.h",
      "path_type": "hardlink",
      "sha256": "5a7fa01d17c2bfef306c602e6dbbdc61b1dbf88af2dc409acc9dd18cc44b5e01",
      "size_in_bytes": 2911
    },
    {
      "_path": "include/dbus-1.0/dbus/dbus-macros.h",
      "path_type": "hardlink",
      "sha256": "0d9b2ee4ddf8603d19076a5902f3a7dd57180ed01684550fe9e0cfbf40a0d684",
      "size_in_bytes": 7248
    },
    {
      "_path": "include/dbus-1.0/dbus/dbus-memory.h",
      "path_type": "hardlink",
      "sha256": "87b03507296654bfd83f6a9ef918521e939441642c0b25680fc61fe36c003876",
      "size_in_bytes": 1975
    },
    {
      "_path": "include/dbus-1.0/dbus/dbus-message.h",
      "path_type": "hardlink",
      "sha256": "d67b4b15012663363fde8611a422cd76f86f13b97337834fa4472522088326a4",
      "size_in_bytes": 15261
    },
    {
      "_path": "include/dbus-1.0/dbus/dbus-misc.h",
      "path_type": "hardlink",
      "sha256": "3df90d610e4fce407012e7dd38ae2dc961a65948f438b7228fb7bee6e4400637",
      "size_in_bytes": 1813
    },
    {
      "_path": "include/dbus-1.0/dbus/dbus-pending-call.h",
      "path_type": "hardlink",
      "sha256": "5766678273a015408580b429338753cf63ae2585bacf9f9d26216793b0b6e26f",
      "size_in_bytes": 3811
    },
    {
      "_path": "include/dbus-1.0/dbus/dbus-protocol.h",
      "path_type": "hardlink",
      "sha256": "afbed5494ba45e01774869f8aa6b14046caa70bc581568453e4763de407f528e",
      "size_in_bytes": 23957
    },
    {
      "_path": "include/dbus-1.0/dbus/dbus-server.h",
      "path_type": "hardlink",
      "sha256": "85fe2fcca2aae6dd8c27fcfefb4171fff02a82e76fa0a51638dc3cd36df3c7d3",
      "size_in_bytes": 5414
    },
    {
      "_path": "include/dbus-1.0/dbus/dbus-shared.h",
      "path_type": "hardlink",
      "sha256": "671bb9e80feac3b3aef487212a7caa83b8dd0e84cf3e992821a1c59a33bd8566",
      "size_in_bytes": 5537
    },
    {
      "_path": "include/dbus-1.0/dbus/dbus-signature.h",
      "path_type": "hardlink",
      "sha256": "57ab18d9645f944744bbccdd9c3a8b96525a092f5d580861c8d7c4fa8dd67102",
      "size_in_bytes": 3049
    },
    {
      "_path": "include/dbus-1.0/dbus/dbus-syntax.h",
      "path_type": "hardlink",
      "sha256": "84bf3b915af641566b86038b1c695211192a6d711f8e8b21375cf452b23bbd2d",
      "size_in_bytes": 2359
    },
    {
      "_path": "include/dbus-1.0/dbus/dbus-threads.h",
      "path_type": "hardlink",
      "sha256": "2f7dfe9689b1790cf3f975edfd09b60d7ac76f16eb43e7a1270795449af772d6",
      "size_in_bytes": 8507
    },
    {
      "_path": "include/dbus-1.0/dbus/dbus-types.h",
      "path_type": "hardlink",
      "sha256": "86cf3d4e660eec46c80fd2e4dff4a1e133895eed333fc00d92f13dfe38d88760",
      "size_in_bytes": 4145
    },
    {
      "_path": "include/dbus-1.0/dbus/dbus.h",
      "path_type": "hardlink",
      "sha256": "941dc8d883585ba0826e99e469e317f9eb51c79f0f90f7c29de79794b3ebf0e8",
      "size_in_bytes": 3955
    },
    {
      "_path": "lib/cmake/DBus1/DBus1Config.cmake",
      "path_type": "hardlink",
      "sha256": "087c18fcd4da0b8e54398a93144de33ad7a22198006cb2a8930a268922f46694",
      "size_in_bytes": 2098
    },
    {
      "_path": "lib/cmake/DBus1/DBus1ConfigVersion.cmake",
      "path_type": "hardlink",
      "sha256": "88a2f3834817f64f3a9501de578cd4d2c6fc32a08173cdd6764043bcc70586b4",
      "size_in_bytes": 366
    },
    {
      "_path": "lib/dbus-1.0/include/dbus/dbus-arch-deps.h",
      "path_type": "hardlink",
      "sha256": "b8f58dd6b3e4f728964ca45fc4621683fbc6633ced3c6fcebe3fd56a559b026b",
      "size_in_bytes": 2049
    },
    {
      "_path": "lib/libdbus-1.a",
      "file_mode": "binary",
      "path_type": "hardlink",
      "prefix_placeholder": "/tmp/build/80754af9/dbus_1547912161983/_h_env_placehold_placehold_placehold_placehold_placehold_placehold_placehold_placehold_placehold_placehold_placehold_placehold_placehold_placehold_placehold_placehold_placehold_placehold_placehold_placehold_placehold",
      "sha256": "f9383230a650c01b5438d7425de11526d10cd1d6f29f243052950f3970e853c4",
      "size_in_bytes": 922364
    },
    {
      "_path": "lib/libdbus-1.so",
      "path_type": "softlink",
      "sha256": "5617137466ec84ddc2512e69fe584018a9cacc25e4a872ffef3379cadba36f78",
      "size_in_bytes": 409720
    },
    {
      "_path": "lib/libdbus-1.so.3",
      "path_type": "softlink",
      "sha256": "5617137466ec84ddc2512e69fe584018a9cacc25e4a872ffef3379cadba36f78",
      "size_in_bytes": 409720
    },
    {
      "_path": "lib/libdbus-1.so.3.24.0",
      "file_mode": "binary",
      "path_type": "hardlink",
      "prefix_placeholder": "/tmp/build/80754af9/dbus_1547912161983/_h_env_placehold_placehold_placehold_placehold_placehold_placehold_placehold_placehold_placehold_placehold_placehold_placehold_placehold_placehold_placehold_placehold_placehold_placehold_placehold_placehold_placehold",
      "sha256": "5617137466ec84ddc2512e69fe584018a9cacc25e4a872ffef3379cadba36f78",
      "size_in_bytes": 409720
    },
    {
      "_path": "lib/pkgconfig/dbus-1.pc",
      "file_mode": "text",
      "path_type": "hardlink",
      "prefix_placeholder": "/opt/anaconda1anaconda2anaconda3",
      "sha256": "6686ce63ee31b749f027778459050c512c3d33b8e48194ebeeee94a997b19f5b",
      "size_in_bytes": 718
    },
    {
      "_path": "libexec/dbus-daemon-launch-helper",
      "file_mode": "binary",
      "path_type": "hardlink",
      "prefix_placeholder": "/tmp/build/80754af9/dbus_1547912161983/_h_env_placehold_placehold_placehold_placehold_placehold_placehold_placehold_placehold_placehold_placehold_placehold_placehold_placehold_placehold_placehold_placehold_placehold_placehold_placehold_placehold_placehold",
      "sha256": "e1f960e6a8a9ee51b57875ef70a2c3f7bde0146f4c6bd41e85a68bd69b82b4fc",
      "size_in_bytes": 46224
    },
    {
      "_path": "share/dbus-1/session.conf",
      "file_mode": "text",
      "path_type": "hardlink",
      "prefix_placeholder": "/opt/anaconda1anaconda2anaconda3",
      "sha256": "303dd69bf258e861f9e6df0680a3624d8ccd2ef5f881227bb1cddf36bf96713a",
      "size_in_bytes": 3989
    },
    {
      "_path": "share/dbus-1/system.conf",
      "file_mode": "text",
      "path_type": "hardlink",
      "prefix_placeholder": "/opt/anaconda1anaconda2anaconda3",
      "sha256": "61b0ec64b637c2bade4c0d8db0e33e6b94e3421efd2c320f6d85387d5eb11edd",
      "size_in_bytes": 6242
    },
    {
      "_path": "share/doc/dbus/diagram.png",
      "path_type": "hardlink",
      "sha256": "552d5d0582db3aa6f180eae85f97e822eebc6938b07d84e1a2063ab85ff3f3d7",
      "size_in_bytes": 78762
    },
    {
      "_path": "share/doc/dbus/diagram.svg",
      "path_type": "hardlink",
      "sha256": "7f30f1cc7d95526b8627253fac66e3db2748260dcd6a483a6937e6970510004e",
      "size_in_bytes": 33892
    },
    {
      "_path": "share/doc/dbus/examples/GetAllMatchRules.py",
      "path_type": "hardlink",
      "sha256": "c74450ed315eda77216755a229481cf32b4d503af50da5efe9b52dfe502a166c",
      "size_in_bytes": 3924
    },
    {
      "_path": "share/doc/dbus/examples/example-session-disable-stats.conf",
      "file_mode": "text",
      "path_type": "hardlink",
      "prefix_placeholder": "/opt/anaconda1anaconda2anaconda3",
      "sha256": "423389941ae4aaeddb38b9487f3fdb0a938939aa53a9d8fad9ac0dc8c3c3c374",
      "size_in_bytes": 638
    },
    {
      "_path": "share/doc/dbus/examples/example-system-enable-stats.conf",
      "file_mode": "text",
      "path_type": "hardlink",
      "prefix_placeholder": "/opt/anaconda1anaconda2anaconda3",
      "sha256": "9b556bc8dd5076f1a11914dfce0f82b0bad1ec7195892ef95131e1e9a8a63aab",
      "size_in_bytes": 604
    },
    {
      "_path": "share/doc/dbus/system-activation.txt",
      "path_type": "hardlink",
      "sha256": "adf91f1eed77db6e0ea41a0c21da7bf3641e6640dcd0524885e4a53ea3dc6537",
      "size_in_bytes": 3175
    },
    {
      "_path": "share/xml/dbus-1/busconfig.dtd",
      "path_type": "hardlink",
      "sha256": "9403dd9564b4568d62ca9004d40e2d0c1141ad2a1274d50e97bac66f98cc739d",
      "size_in_bytes": 1907
    },
    {
      "_path": "share/xml/dbus-1/introspect.dtd",
      "path_type": "hardlink",
      "sha256": "be73d84e8f764478f78be388385eaa7a3e4c86d314f9d68934f2c7be8b0d25bf",
      "size_in_bytes": 1226
    }
  ],
  "paths_version": 1
}