{
  "paths": [
    {
      "_path": "lib/python3.7/site-packages/beautifulsoup4-4.8.0.dist-info/COPYING.txt",
      "path_type": "hardlink",
      "sha256": "a47ea51236098464fe0b4f559743590b533056d9e00f49ecbf80299fab47e231",
      "size_in_bytes": 1315
    },
    {
      "_path": "lib/python3.7/site-packages/beautifulsoup4-4.8.0.dist-info/INSTALLER",
      "path_type": "hardlink",
      "sha256": "d0edee15f91b406f3f99726e44eb990be6e34fd0345b52b910c568e0eef6a2a8",
      "size_in_bytes": 5
    },
    {
      "_path": "lib/python3.7/site-packages/beautifulsoup4-4.8.0.dist-info/LICENSE",
      "path_type": "hardlink",
      "sha256": "ca7227ddb9eed6cc809e157f67b020e78dde063240001d11856f85c49cb6e423",
      "size_in_bytes": 1447
    },
    {
      "_path": "lib/python3.7/site-packages/beautifulsoup4-4.8.0.dist-info/METADATA",
      "path_type": "hardlink",
      "sha256": "f8e4778a4c0086edffafcedb7ccbb72231995859956d44f9b482c36184b50c12",
      "size_in_bytes": 2985
    },
    {
      "_path": "lib/python3.7/site-packages/beautifulsoup4-4.8.0.dist-info/RECORD",
      "path_type": "hardlink",
      "sha256": "4e13a87545548e85db107e57630e604ac0e301f1e3a8aa3076e50c0c79dc1a57",
      "size_in_bytes": 2930
    },
    {
      "_path": "lib/python3.7/site-packages/beautifulsoup4-4.8.0.dist-info/WHEEL",
      "path_type": "hardlink",
      "sha256": "d2b1c339a9dad78873b1ab9ad89d8bed9b64eacb68e363b49e826deced346631",
      "size_in_bytes": 93
    },
    {
      "_path": "lib/python3.7/site-packages/beautifulsoup4-4.8.0.dist-info/top_level.txt",
      "path_type": "hardlink",
      "sha256": "1fc553f88b8f58bcd0ab01bdfde0a18d70c9d73d07f5145e6dd491f740639e4c",
      "size_in_bytes": 4
    },
    {
      "_path": "lib/python3.7/site-packages/bs4/__init__.py",
      "path_type": "hardlink",
      "sha256": "4ad7141d01234c9ddf75c85d14e40d43dbcdde0a5e30fc93270b829cce3bd31c",
      "size_in_bytes": 24338
    },
    {
      "_path": "lib/python3.7/site-packages/bs4/__pycache__/__init__.cpython-37.pyc",
      "path_type": "hardlink",
      "sha256": "677882145a6be65fd3971449f22dee2ef840011ca54efbc1e9033ab4194c2b59",
      "size_in_bytes": 16781
    },
    {
      "_path": "lib/python3.7/site-packages/bs4/__pycache__/dammit.cpython-37.pyc",
      "path_type": "hardlink",
      "sha256": "340773d1e0d1a980203f59a990264c2ae79b9e8dc50083006e819ed385adcf60",
      "size_in_bytes": 18252
    },
    {
      "_path": "lib/python3.7/site-packages/bs4/__pycache__/diagnose.cpython-37.pyc",
      "path_type": "hardlink",
      "sha256": "707057aaac97db1fc63d81621ca8c873590cf51e86b816e7a098841bbcdd9a75",
      "size_in_bytes": 7735
    },
    {
      "_path": "lib/python3.7/site-packages/bs4/__pycache__/element.cpython-37.pyc",
      "path_type": "hardlink",
      "sha256": "9898bdf3723fc9e1ab0b5da2be6d660b479e22da9abc3e3decd12c57569f2e00",
      "size_in_bytes": 41862
    },
    {
      "_path": "lib/python3.7/site-packages/bs4/__pycache__/formatter.cpython-37.pyc",
      "path_type": "hardlink",
      "sha256": "493133122ff3e448c193ccf4af686c48dc8ada1c4485d71a4e11b091e382c003",
      "size_in_bytes": 2946
    },
    {
      "_path": "lib/python3.7/site-packages/bs4/__pycache__/testing.cpython-37.pyc",
      "path_type": "hardlink",
      "sha256": "e4c535b764a8eb190c74663bc51d2d926073e1893cb59e4a6bfb2ef3de2f3d71",
      "size_in_bytes": 42058
    },
    {
      "_path": "lib/python3.7/site-packages/bs4/builder/__init__.py",
      "path_type": "hardlink",
      "sha256": "242d1803aa8df0391bf6f6e32c0653a8b0c713941461728986dc877f10f8d36d",
      "size_in_bytes": 13448
    },
    {
      "_path": "lib/python3.7/site-packages/bs4/builder/__pycache__/__init__.cpython-37.pyc",
      "path_type": "hardlink",
      "sha256": "de8297d50c6539070e34399b03e72ebfe8c6717e59d92a787aa242095b643f4e",
      "size_in_bytes": 10034
    },
    {
      "_path": "lib/python3.7/site-packages/bs4/builder/__pycache__/_html5lib.cpython-37.pyc",
      "path_type": "hardlink",
      "sha256": "68abfe5d128ba6a5402e4b46e53e68214f7246e60548925bb9b409b21d4fe631",
      "size_in_bytes": 11527
    },
    {
      "_path": "lib/python3.7/site-packages/bs4/builder/__pycache__/_htmlparser.cpython-37.pyc",
      "path_type": "hardlink",
      "sha256": "6b275657128b0a0629d5606c97a794e562d88f970171e6e597a7df235ff28851",
      "size_in_bytes": 8886
    },
    {
      "_path": "lib/python3.7/site-packages/bs4/builder/__pycache__/_lxml.cpython-37.pyc",
      "path_type": "hardlink",
      "sha256": "5e5c6d338ee1d6a5769e6f4403500913614fc6ccdf20329515859bce522ab75d",
      "size_in_bytes": 7979
    },
    {
      "_path": "lib/python3.7/site-packages/bs4/builder/_html5lib.py",
      "path_type": "hardlink",
      "sha256": "3e534cb0704da9fc13586b38a9181333521bc00eb0f2e05e72ffb64e86bbac37",
      "size_in_bytes": 16728
    },
    {
      "_path": "lib/python3.7/site-packages/bs4/builder/_htmlparser.py",
      "path_type": "hardlink",
      "sha256": "58ef290b5c641de55f7133c4592422588ac387f2ff123ffbd7e04adaec17a219",
      "size_in_bytes": 13378
    },
    {
      "_path": "lib/python3.7/site-packages/bs4/builder/_lxml.py",
      "path_type": "hardlink",
      "sha256": "0d7ac37e271a82d01ba8e5a01c96b9d2bebfdd1deca80ce43ae6e59de24b742e",
      "size_in_bytes": 10818
    },
    {
      "_path": "lib/python3.7/site-packages/bs4/dammit.py",
      "path_type": "hardlink",
      "sha256": "9112d5b8299ac125494419c13c850a5bf6fde3982adea883f2ef181f95e2fbac",
      "size_in_bytes": 30312
    },
    {
      "_path": "lib/python3.7/site-packages/bs4/diagnose.py",
      "path_type": "hardlink",
      "sha256": "c2f18365fe95363eabc038d4df13accfdd33d8a662056829bbe191a967d1ea2b",
      "size_in_bytes": 6966
    },
    {
      "_path": "lib/python3.7/site-packages/bs4/element.py",
      "path_type": "hardlink",
      "sha256": "699345dab31261c77be1f112cefa8e58461f5e44827bd5b06cf03015e4738f12",
      "size_in_bytes": 58320
    },
    {
      "_path": "lib/python3.7/site-packages/bs4/formatter.py",
      "path_type": "hardlink",
      "sha256": "1b60180518de5f8d38bcb37020f6e3886f0a0e3ba80aaae08bd347b9aea8df83",
      "size_in_bytes": 3199
    },
    {
      "_path": "lib/python3.7/site-packages/bs4/testing.py",
      "path_type": "hardlink",
      "sha256": "301b0defb591a41d59efc634a55ed19706cc5867c453588fc9214a13e2492207",
      "size_in_bytes": 41306
    },
    {
      "_path": "lib/python3.7/site-packages/bs4/tests/__init__.py",
      "path_type": "hardlink",
      "sha256": "6dd5010c4ef9d27eea3447ee7bbfb76b57c1694c4996f64c92f26f65afa56d8b",
      "size_in_bytes": 27
    },
    {
      "_path": "lib/python3.7/site-packages/bs4/tests/__pycache__/__init__.cpython-37.pyc",
      "path_type": "hardlink",
      "sha256": "7a7845fc3767bc674cd82f3e05ace0d603e240785497cb4f0fc299443fa4e3e6",
      "size_in_bytes": 172
    },
    {
      "_path": "lib/python3.7/site-packages/bs4/tests/__pycache__/test_builder_registry.cpython-37.pyc",
      "path_type": "hardlink",
      "sha256": "7232c80ed3ee1baf09e109b1a45202f50c73a8407077a72837ce085a8e70d679",
      "size_in_bytes": 4994
    },
    {
      "_path": "lib/python3.7/site-packages/bs4/tests/__pycache__/test_docs.cpython-37.pyc",
      "path_type": "hardlink",
      "sha256": "c3ae645c3ac69b667e0719f9622bf941d4f848f97c5c4ef654a43cf2345cd907",
      "size_in_bytes": 396
    },
    {
      "_path": "lib/python3.7/site-packages/bs4/tests/__pycache__/test_html5lib.cpython-37.pyc",
      "path_type": "hardlink",
      "sha256": "9ac1926196c91e49ba6e4b9b033a1fca23e2bb3481a998a3500991f1e0a7c248",
      "size_in_bytes": 6635
    },
    {
      "_path": "lib/python3.7/site-packages/bs4/tests/__pycache__/test_htmlparser.cpython-37.pyc",
      "path_type": "hardlink",
      "sha256": "a4c0a9f9765f607c2e8fb879b000324f9816df31442f9c7e32d11aa38444b868",
      "size_in_bytes": 2438
    },
    {
      "_path": "lib/python3.7/site-packages/bs4/tests/__pycache__/test_lxml.cpython-37.pyc",
      "path_type": "hardlink",
      "sha256": "c98b282a0576b695d39f077481d48d0299372f4a5ed85f5f1ea32dbdd729d925",
      "size_in_bytes": 3532
    },
    {
      "_path": "lib/python3.7/site-packages/bs4/tests/__pycache__/test_soup.cpython-37.pyc",
      "path_type": "hardlink",
      "sha256": "48603c7cb929c4bede29e1d7595ae060abcdbbb8747ed4f3f8c84b4c6448fa4c",
      "size_in_bytes": 23741
    },
    {
      "_path": "lib/python3.7/site-packages/bs4/tests/__pycache__/test_tree.cpython-37.pyc",
      "path_type": "hardlink",
      "sha256": "97cd54149f572bff2815a95fdc3d0d64e1e26b73bd35ad3c249ea0825a643f83",
      "size_in_bytes": 91306
    },
    {
      "_path": "lib/python3.7/site-packages/bs4/tests/test_builder_registry.py",
      "path_type": "hardlink",
      "sha256": "a6595f46902b87d4d88638d1522bb5c084ebf51cb2bf8862680b518e28fe9381",
      "size_in_bytes": 5582
    },
    {
      "_path": "lib/python3.7/site-packages/bs4/tests/test_docs.py",
      "path_type": "hardlink",
      "sha256": "1577f3d9b18be177b4aba76ec299a0f61985899b94e035493cd6748536fa687e",
      "size_in_bytes": 1067
    },
    {
      "_path": "lib/python3.7/site-packages/bs4/tests/test_html5lib.py",
      "path_type": "hardlink",
      "sha256": "5cdb24056e4fd7e27b35d45dd412f19f7005b4d03ad7f4d2245537cbdc7f8e1c",
      "size_in_bytes": 5835
    },
    {
      "_path": "lib/python3.7/site-packages/bs4/tests/test_htmlparser.py",
      "path_type": "hardlink",
      "sha256": "fb0c8450943a45c72fedb057d4fc45e9489eede54e9016536086bdfff05c327d",
      "size_in_bytes": 1688
    },
    {
      "_path": "lib/python3.7/site-packages/bs4/tests/test_lxml.py",
      "path_type": "hardlink",
      "sha256": "08471ce8eb74f37fd225d9ab4d2015c740f04686ec1fed773806f8530e0d5734",
      "size_in_bytes": 3434
    },
    {
      "_path": "lib/python3.7/site-packages/bs4/tests/test_soup.py",
      "path_type": "hardlink",
      "sha256": "5e854dd43e956c8ac4dc2b3a267a72fcb9ba5176597cfc7c1a9deeafc0a4af96",
      "size_in_bytes": 23370
    },
    {
      "_path": "lib/python3.7/site-packages/bs4/tests/test_tree.py",
      "path_type": "hardlink",
      "sha256": "d242c1b961f51281ec380f21426c49f073649452b3e2e182b7a6d5cbb0425e13",
      "size_in_bytes": 84515
    }
  ],
  "paths_version": 1
}