{
  "build": "py_0",
  "build_number": 0,
  "channel": "https://repo.anaconda.com/pkgs/main/noarch",
  "constrains": [],
  "depends": [
    "more-itertools",
    "python"
  ],
  "features": "",
  "fn": "zipp-0.6.0-py_0.tar.bz2",
  "license": "MIT",
  "license_family": "MIT",
  "md5": "13d1abc9847d0f0fc9dde2f98729eb97",
  "name": "zipp",
  "noarch": "python",
  "package_type": "noarch_python",
  "sha256": "63ba273870cfed41ba12d3164174370e8dda4a9ea4d2c158958a7647bc2ffd18",
  "size": 8874,
  "subdir": "noarch",
  "timestamp": 1569428262885,
  "track_features": "",
  "url": "https://repo.anaconda.com/pkgs/main/noarch/zipp-0.6.0-py_0.tar.bz2",
  "version": "0.6.0"
}