{
  "build": "py37_0",
  "build_number": 0,
  "channel": "https://repo.anaconda.com/pkgs/main/linux-64",
  "constrains": [],
  "depends": [
    "ipywidgets",
    "jupyterlab",
    "python >=3.7,<3.8.0a0",
    "widgetsnbextension"
  ],
  "extracted_package_dir": "/home/idoye/Study/Devops/python/python_script/anaconda_ide/anaconda3/pkgs/_ipyw_jlab_nb_ext_conf-0.1.0-py37_0",
  "features": "",
  "files": [
    "etc/jupyter/jupyter_notebook_config.json",
    "etc/jupyter/nbconfig/notebook.json"
  ],
  "fn": "_ipyw_jlab_nb_ext_conf-0.1.0-py37_0.conda",
  "legacy_bz2_md5": "de8f33a64b7a425cb62f34567f796a0b",
  "legacy_bz2_size": 3649,
  "license": "BSD",
  "link": {
    "source": "/home/idoye/Study/Devops/python/python_script/anaconda_ide/anaconda3/pkgs/_ipyw_jlab_nb_ext_conf-0.1.0-py37_0",
    "type": 1
  },
  "md5": "25b69eca180f53503693895de426edeb",
  "name": "_ipyw_jlab_nb_ext_conf",
  "package_tarball_full_path": "/home/idoye/Study/Devops/python/python_script/anaconda_ide/anaconda3/pkgs/_ipyw_jlab_nb_ext_conf-0.1.0-py37_0.conda",
  "paths_data": {
    "paths": [],
    "paths_version": 1
  },
  "requested_spec": "_ipyw_jlab_nb_ext_conf==0.1.0=py37_0",
  "sha256": "d084825581a298fbac2a157ee3c632d82d93cd1bf8edd2df22c0bf58c8bd2ddf",
  "size": 4085,
  "subdir": "linux-64",
  "timestamp": 1530735099589,
  "track_features": "",
  "url": "https://repo.anaconda.com/pkgs/main/linux-64/_ipyw_jlab_nb_ext_conf-0.1.0-py37_0.conda",
  "version": "0.1.0"
}