{
  "build": "py_1",
  "build_number": 1,
  "channel": "https://repo.anaconda.com/pkgs/main/noarch",
  "constrains": [],
  "depends": [
    "backports",
    "python"
  ],
  "extracted_package_dir": "/home/idoye/Study/Devops/python/python_script/anaconda_ide/anaconda3/pkgs/backports.weakref-1.0.post1-py_1",
  "features": "",
  "files": [
    "lib/python3.7/site-packages/backports.weakref-1.0.post1-py2.7.egg-info/PKG-INFO",
    "lib/python3.7/site-packages/backports.weakref-1.0.post1-py2.7.egg-info/SOURCES.txt",
    "lib/python3.7/site-packages/backports.weakref-1.0.post1-py2.7.egg-info/dependency_links.txt",
    "lib/python3.7/site-packages/backports.weakref-1.0.post1-py2.7.egg-info/top_level.txt",
    "lib/python3.7/site-packages/backports/weakref.py",
    "lib/python3.7/site-packages/backports/__pycache__/weakref.cpython-37.pyc"
  ],
  "fn": "backports.weakref-1.0.post1-py_1.tar.bz2",
  "license": "Python-2.0",
  "license_family": "PSF",
  "link": {
    "source": "/home/idoye/Study/Devops/python/python_script/anaconda_ide/anaconda3/pkgs/backports.weakref-1.0.post1-py_1",
    "type": 1
  },
  "md5": "0a4cf3e20e439f90fcea9e12b923014c",
  "name": "backports.weakref",
  "noarch": "python",
  "package_tarball_full_path": "/home/idoye/Study/Devops/python/python_script/anaconda_ide/anaconda3/pkgs/backports.weakref-1.0.post1-py_1.tar.bz2",
  "package_type": "noarch_python",
  "paths_data": {
    "paths": [
      {
        "_path": "lib/python3.7/site-packages/backports/__pycache__/weakref.cpython-37.pyc",
        "path_type": "pyc_file"
      }
    ],
    "paths_version": 1
  },
  "requested_spec": "backports.weakref==1.0.post1=py_1",
  "sha256": "26454495d6d3c1c9c1c4335407c5eb649d2a7228d972ad82f39cfab7edaed416",
  "size": 7428,
  "subdir": "noarch",
  "timestamp": 1560422196084,
  "track_features": "",
  "url": "https://repo.anaconda.com/pkgs/main/noarch/backports.weakref-1.0.post1-py_1.tar.bz2",
  "version": "1.0.post1"
}