{
  "build": "py37_0",
  "build_number": 0,
  "channel": "https://repo.anaconda.com/pkgs/main/linux-64",
  "constrains": [],
  "depends": [
    "python >=3.7,<3.8.0a0",
    "setuptools",
    "six",
    "webencodings"
  ],
  "extracted_package_dir": "/home/idoye/Study/Devops/python/python_script/anaconda_ide/anaconda3/pkgs/bleach-3.1.0-py37_0",
  "features": "",
  "files": [
    "lib/python3.7/site-packages/bleach-3.1.0-py3.7.egg-info/PKG-INFO",
    "lib/python3.7/site-packages/bleach-3.1.0-py3.7.egg-info/SOURCES.txt",
    "lib/python3.7/site-packages/bleach-3.1.0-py3.7.egg-info/dependency_links.txt",
    "lib/python3.7/site-packages/bleach-3.1.0-py3.7.egg-info/installed-files.txt",
    "lib/python3.7/site-packages/bleach-3.1.0-py3.7.egg-info/not-zip-safe",
    "lib/python3.7/site-packages/bleach-3.1.0-py3.7.egg-info/requires.txt",
    "lib/python3.7/site-packages/bleach-3.1.0-py3.7.egg-info/top_level.txt",
    "lib/python3.7/site-packages/bleach/__init__.py",
    "lib/python3.7/site-packages/bleach/__pycache__/__init__.cpython-37.pyc",
    "lib/python3.7/site-packages/bleach/__pycache__/callbacks.cpython-37.pyc",
    "lib/python3.7/site-packages/bleach/__pycache__/html5lib_shim.cpython-37.pyc",
    "lib/python3.7/site-packages/bleach/__pycache__/linkifier.cpython-37.pyc",
    "lib/python3.7/site-packages/bleach/__pycache__/sanitizer.cpython-37.pyc",
    "lib/python3.7/site-packages/bleach/__pycache__/utils.cpython-37.pyc",
    "lib/python3.7/site-packages/bleach/_vendor/README.rst",
    "lib/python3.7/site-packages/bleach/_vendor/__init__.py",
    "lib/python3.7/site-packages/bleach/_vendor/__pycache__/__init__.cpython-37.pyc",
    "lib/python3.7/site-packages/bleach/_vendor/html5lib-1.0.1.dist-info/DESCRIPTION.rst",
    "lib/python3.7/site-packages/bleach/_vendor/html5lib-1.0.1.dist-info/INSTALLER",
    "lib/python3.7/site-packages/bleach/_vendor/html5lib-1.0.1.dist-info/LICENSE.txt",
    "lib/python3.7/site-packages/bleach/_vendor/html5lib-1.0.1.dist-info/METADATA",
    "lib/python3.7/site-packages/bleach/_vendor/html5lib-1.0.1.dist-info/RECORD",
    "lib/python3.7/site-packages/bleach/_vendor/html5lib-1.0.1.dist-info/WHEEL",
    "lib/python3.7/site-packages/bleach/_vendor/html5lib-1.0.1.dist-info/metadata.json",
    "lib/python3.7/site-packages/bleach/_vendor/html5lib-1.0.1.dist-info/top_level.txt",
    "lib/python3.7/site-packages/bleach/_vendor/html5lib/__init__.py",
    "lib/python3.7/site-packages/bleach/_vendor/html5lib/__pycache__/__init__.cpython-37.pyc",
    "lib/python3.7/site-packages/bleach/_vendor/html5lib/__pycache__/_ihatexml.cpython-37.pyc",
    "lib/python3.7/site-packages/bleach/_vendor/html5lib/__pycache__/_inputstream.cpython-37.pyc",
    "lib/python3.7/site-packages/bleach/_vendor/html5lib/__pycache__/_tokenizer.cpython-37.pyc",
    "lib/python3.7/site-packages/bleach/_vendor/html5lib/__pycache__/_utils.cpython-37.pyc",
    "lib/python3.7/site-packages/bleach/_vendor/html5lib/__pycache__/constants.cpython-37.pyc",
    "lib/python3.7/site-packages/bleach/_vendor/html5lib/__pycache__/html5parser.cpython-37.pyc",
    "lib/python3.7/site-packages/bleach/_vendor/html5lib/__pycache__/serializer.cpython-37.pyc",
    "lib/python3.7/site-packages/bleach/_vendor/html5lib/_ihatexml.py",
    "lib/python3.7/site-packages/bleach/_vendor/html5lib/_inputstream.py",
    "lib/python3.7/site-packages/bleach/_vendor/html5lib/_tokenizer.py",
    "lib/python3.7/site-packages/bleach/_vendor/html5lib/_trie/__init__.py",
    "lib/python3.7/site-packages/bleach/_vendor/html5lib/_trie/__pycache__/__init__.cpython-37.pyc",
    "lib/python3.7/site-packages/bleach/_vendor/html5lib/_trie/__pycache__/_base.cpython-37.pyc",
    "lib/python3.7/site-packages/bleach/_vendor/html5lib/_trie/__pycache__/datrie.cpython-37.pyc",
    "lib/python3.7/site-packages/bleach/_vendor/html5lib/_trie/__pycache__/py.cpython-37.pyc",
    "lib/python3.7/site-packages/bleach/_vendor/html5lib/_trie/_base.py",
    "lib/python3.7/site-packages/bleach/_vendor/html5lib/_trie/datrie.py",
    "lib/python3.7/site-packages/bleach/_vendor/html5lib/_trie/py.py",
    "lib/python3.7/site-packages/bleach/_vendor/html5lib/_utils.py",
    "lib/python3.7/site-packages/bleach/_vendor/html5lib/constants.py",
    "lib/python3.7/site-packages/bleach/_vendor/html5lib/filters/__init__.py",
    "lib/python3.7/site-packages/bleach/_vendor/html5lib/filters/__pycache__/__init__.cpython-37.pyc",
    "lib/python3.7/site-packages/bleach/_vendor/html5lib/filters/__pycache__/alphabeticalattributes.cpython-37.pyc",
    "lib/python3.7/site-packages/bleach/_vendor/html5lib/filters/__pycache__/base.cpython-37.pyc",
    "lib/python3.7/site-packages/bleach/_vendor/html5lib/filters/__pycache__/inject_meta_charset.cpython-37.pyc",
    "lib/python3.7/site-packages/bleach/_vendor/html5lib/filters/__pycache__/lint.cpython-37.pyc",
    "lib/python3.7/site-packages/bleach/_vendor/html5lib/filters/__pycache__/optionaltags.cpython-37.pyc",
    "lib/python3.7/site-packages/bleach/_vendor/html5lib/filters/__pycache__/sanitizer.cpython-37.pyc",
    "lib/python3.7/site-packages/bleach/_vendor/html5lib/filters/__pycache__/whitespace.cpython-37.pyc",
    "lib/python3.7/site-packages/bleach/_vendor/html5lib/filters/alphabeticalattributes.py",
    "lib/python3.7/site-packages/bleach/_vendor/html5lib/filters/base.py",
    "lib/python3.7/site-packages/bleach/_vendor/html5lib/filters/inject_meta_charset.py",
    "lib/python3.7/site-packages/bleach/_vendor/html5lib/filters/lint.py",
    "lib/python3.7/site-packages/bleach/_vendor/html5lib/filters/optionaltags.py",
    "lib/python3.7/site-packages/bleach/_vendor/html5lib/filters/sanitizer.py",
    "lib/python3.7/site-packages/bleach/_vendor/html5lib/filters/whitespace.py",
    "lib/python3.7/site-packages/bleach/_vendor/html5lib/html5parser.py",
    "lib/python3.7/site-packages/bleach/_vendor/html5lib/serializer.py",
    "lib/python3.7/site-packages/bleach/_vendor/html5lib/treeadapters/__init__.py",
    "lib/python3.7/site-packages/bleach/_vendor/html5lib/treeadapters/__pycache__/__init__.cpython-37.pyc",
    "lib/python3.7/site-packages/bleach/_vendor/html5lib/treeadapters/__pycache__/genshi.cpython-37.pyc",
    "lib/python3.7/site-packages/bleach/_vendor/html5lib/treeadapters/__pycache__/sax.cpython-37.pyc",
    "lib/python3.7/site-packages/bleach/_vendor/html5lib/treeadapters/genshi.py",
    "lib/python3.7/site-packages/bleach/_vendor/html5lib/treeadapters/sax.py",
    "lib/python3.7/site-packages/bleach/_vendor/html5lib/treebuilders/__init__.py",
    "lib/python3.7/site-packages/bleach/_vendor/html5lib/treebuilders/__pycache__/__init__.cpython-37.pyc",
    "lib/python3.7/site-packages/bleach/_vendor/html5lib/treebuilders/__pycache__/base.cpython-37.pyc",
    "lib/python3.7/site-packages/bleach/_vendor/html5lib/treebuilders/__pycache__/dom.cpython-37.pyc",
    "lib/python3.7/site-packages/bleach/_vendor/html5lib/treebuilders/__pycache__/etree.cpython-37.pyc",
    "lib/python3.7/site-packages/bleach/_vendor/html5lib/treebuilders/__pycache__/etree_lxml.cpython-37.pyc",
    "lib/python3.7/site-packages/bleach/_vendor/html5lib/treebuilders/base.py",
    "lib/python3.7/site-packages/bleach/_vendor/html5lib/treebuilders/dom.py",
    "lib/python3.7/site-packages/bleach/_vendor/html5lib/treebuilders/etree.py",
    "lib/python3.7/site-packages/bleach/_vendor/html5lib/treebuilders/etree_lxml.py",
    "lib/python3.7/site-packages/bleach/_vendor/html5lib/treewalkers/__init__.py",
    "lib/python3.7/site-packages/bleach/_vendor/html5lib/treewalkers/__pycache__/__init__.cpython-37.pyc",
    "lib/python3.7/site-packages/bleach/_vendor/html5lib/treewalkers/__pycache__/base.cpython-37.pyc",
    "lib/python3.7/site-packages/bleach/_vendor/html5lib/treewalkers/__pycache__/dom.cpython-37.pyc",
    "lib/python3.7/site-packages/bleach/_vendor/html5lib/treewalkers/__pycache__/etree.cpython-37.pyc",
    "lib/python3.7/site-packages/bleach/_vendor/html5lib/treewalkers/__pycache__/etree_lxml.cpython-37.pyc",
    "lib/python3.7/site-packages/bleach/_vendor/html5lib/treewalkers/__pycache__/genshi.cpython-37.pyc",
    "lib/python3.7/site-packages/bleach/_vendor/html5lib/treewalkers/base.py",
    "lib/python3.7/site-packages/bleach/_vendor/html5lib/treewalkers/dom.py",
    "lib/python3.7/site-packages/bleach/_vendor/html5lib/treewalkers/etree.py",
    "lib/python3.7/site-packages/bleach/_vendor/html5lib/treewalkers/etree_lxml.py",
    "lib/python3.7/site-packages/bleach/_vendor/html5lib/treewalkers/genshi.py",
    "lib/python3.7/site-packages/bleach/_vendor/pip_install_vendor.sh",
    "lib/python3.7/site-packages/bleach/_vendor/vendor.txt",
    "lib/python3.7/site-packages/bleach/callbacks.py",
    "lib/python3.7/site-packages/bleach/html5lib_shim.py",
    "lib/python3.7/site-packages/bleach/linkifier.py",
    "lib/python3.7/site-packages/bleach/sanitizer.py",
    "lib/python3.7/site-packages/bleach/utils.py"
  ],
  "fn": "bleach-3.1.0-py37_0.conda",
  "legacy_bz2_md5": "0722a8b94fbd9ce3ffb276c1f0fbff99",
  "legacy_bz2_size": 229963,
  "license": "Apache-2.0",
  "license_family": "Apache",
  "link": {
    "source": "/home/idoye/Study/Devops/python/python_script/anaconda_ide/anaconda3/pkgs/bleach-3.1.0-py37_0",
    "type": 1
  },
  "md5": "700527178f3790c80abfff645eb3160c",
  "name": "bleach",
  "package_tarball_full_path": "/home/idoye/Study/Devops/python/python_script/anaconda_ide/anaconda3/pkgs/bleach-3.1.0-py37_0.conda",
  "paths_data": {
    "paths": [],
    "paths_version": 1
  },
  "requested_spec": "bleach==3.1.0=py37_0",
  "sha256": "07a9aa3daaf433439f86376326fddd4e1525dac81054abca6ed957839d07283f",
  "size": 225740,
  "subdir": "linux-64",
  "timestamp": 1547747439520,
  "track_features": "",
  "url": "https://repo.anaconda.com/pkgs/main/linux-64/bleach-3.1.0-py37_0.conda",
  "version": "3.1.0"
}