{
  "build": "hd408876_0",
  "build_number": 0,
  "channel": "https://repo.anaconda.com/pkgs/main/linux-64",
  "constrains": [],
  "depends": [
    "libffi >=3.2.1,<4.0a0",
    "libgcc-ng >=7.3.0",
    "libstdcxx-ng >=7.3.0",
    "pcre >=8.42,<9.0a0",
    "zlib >=1.2.11,<1.3.0a0"
  ],
  "extracted_package_dir": "/home/idoye/Study/Devops/python/python_script/anaconda_ide/anaconda3/pkgs/glib-2.56.2-hd408876_0",
  "features": "",
  "files": [
    "bin/gapplication",
    "bin/gdbus",
    "bin/gdbus-codegen",
    "bin/gio",
    "bin/gio-querymodules",
    "bin/glib-compile-resources",
    "bin/glib-compile-schemas",
    "bin/glib-genmarshal",
    "bin/glib-gettextize",
    "bin/glib-mkenums",
    "bin/gobject-query",
    "bin/gresource",
    "bin/gsettings",
    "bin/gtester",
    "bin/gtester-report",
    "include/gio-unix-2.0/gio/gdesktopappinfo.h",
    "include/gio-unix-2.0/gio/gfiledescriptorbased.h",
    "include/gio-unix-2.0/gio/gunixconnection.h",
    "include/gio-unix-2.0/gio/gunixcredentialsmessage.h",
    "include/gio-unix-2.0/gio/gunixfdlist.h",
    "include/gio-unix-2.0/gio/gunixfdmessage.h",
    "include/gio-unix-2.0/gio/gunixinputstream.h",
    "include/gio-unix-2.0/gio/gunixmounts.h",
    "include/gio-unix-2.0/gio/gunixoutputstream.h",
    "include/gio-unix-2.0/gio/gunixsocketaddress.h",
    "include/glib-2.0/gio/gaction.h",
    "include/glib-2.0/gio/gactiongroup.h",
    "include/glib-2.0/gio/gactiongroupexporter.h",
    "include/glib-2.0/gio/gactionmap.h",
    "include/glib-2.0/gio/gappinfo.h",
    "include/glib-2.0/gio/gapplication.h",
    "include/glib-2.0/gio/gapplicationcommandline.h",
    "include/glib-2.0/gio/gasyncinitable.h",
    "include/glib-2.0/gio/gasyncresult.h",
    "include/glib-2.0/gio/gbufferedinputstream.h",
    "include/glib-2.0/gio/gbufferedoutputstream.h",
    "include/glib-2.0/gio/gbytesicon.h",
    "include/glib-2.0/gio/gcancellable.h",
    "include/glib-2.0/gio/gcharsetconverter.h",
    "include/glib-2.0/gio/gcontenttype.h",
    "include/glib-2.0/gio/gconverter.h",
    "include/glib-2.0/gio/gconverterinputstream.h",
    "include/glib-2.0/gio/gconverteroutputstream.h",
    "include/glib-2.0/gio/gcredentials.h",
    "include/glib-2.0/gio/gdatagrambased.h",
    "include/glib-2.0/gio/gdatainputstream.h",
    "include/glib-2.0/gio/gdataoutputstream.h",
    "include/glib-2.0/gio/gdbusactiongroup.h",
    "include/glib-2.0/gio/gdbusaddress.h",
    "include/glib-2.0/gio/gdbusauthobserver.h",
    "include/glib-2.0/gio/gdbusconnection.h",
    "include/glib-2.0/gio/gdbuserror.h",
    "include/glib-2.0/gio/gdbusinterface.h",
    "include/glib-2.0/gio/gdbusinterfaceskeleton.h",
    "include/glib-2.0/gio/gdbusintrospection.h",
    "include/glib-2.0/gio/gdbusmenumodel.h",
    "include/glib-2.0/gio/gdbusmessage.h",
    "include/glib-2.0/gio/gdbusmethodinvocation.h",
    "include/glib-2.0/gio/gdbusnameowning.h",
    "include/glib-2.0/gio/gdbusnamewatching.h",
    "include/glib-2.0/gio/gdbusobject.h",
    "include/glib-2.0/gio/gdbusobjectmanager.h",
    "include/glib-2.0/gio/gdbusobjectmanagerclient.h",
    "include/glib-2.0/gio/gdbusobjectmanagerserver.h",
    "include/glib-2.0/gio/gdbusobjectproxy.h",
    "include/glib-2.0/gio/gdbusobjectskeleton.h",
    "include/glib-2.0/gio/gdbusproxy.h",
    "include/glib-2.0/gio/gdbusserver.h",
    "include/glib-2.0/gio/gdbusutils.h",
    "include/glib-2.0/gio/gdrive.h",
    "include/glib-2.0/gio/gdtlsclientconnection.h",
    "include/glib-2.0/gio/gdtlsconnection.h",
    "include/glib-2.0/gio/gdtlsserverconnection.h",
    "include/glib-2.0/gio/gemblem.h",
    "include/glib-2.0/gio/gemblemedicon.h",
    "include/glib-2.0/gio/gfile.h",
    "include/glib-2.0/gio/gfileattribute.h",
    "include/glib-2.0/gio/gfileenumerator.h",
    "include/glib-2.0/gio/gfileicon.h",
    "include/glib-2.0/gio/gfileinfo.h",
    "include/glib-2.0/gio/gfileinputstream.h",
    "include/glib-2.0/gio/gfileiostream.h",
    "include/glib-2.0/gio/gfilemonitor.h",
    "include/glib-2.0/gio/gfilenamecompleter.h",
    "include/glib-2.0/gio/gfileoutputstream.h",
    "include/glib-2.0/gio/gfilterinputstream.h",
    "include/glib-2.0/gio/gfilteroutputstream.h",
    "include/glib-2.0/gio/gicon.h",
    "include/glib-2.0/gio/ginetaddress.h",
    "include/glib-2.0/gio/ginetaddressmask.h",
    "include/glib-2.0/gio/ginetsocketaddress.h",
    "include/glib-2.0/gio/ginitable.h",
    "include/glib-2.0/gio/ginputstream.h",
    "include/glib-2.0/gio/gio-autocleanups.h",
    "include/glib-2.0/gio/gio.h",
    "include/glib-2.0/gio/gioenums.h",
    "include/glib-2.0/gio/gioenumtypes.h",
    "include/glib-2.0/gio/gioerror.h",
    "include/glib-2.0/gio/giomodule.h",
    "include/glib-2.0/gio/gioscheduler.h",
    "include/glib-2.0/gio/giostream.h",
    "include/glib-2.0/gio/giotypes.h",
    "include/glib-2.0/gio/glistmodel.h",
    "include/glib-2.0/gio/gliststore.h",
    "include/glib-2.0/gio/gloadableicon.h",
    "include/glib-2.0/gio/gmemoryinputstream.h",
    "include/glib-2.0/gio/gmemoryoutputstream.h",
    "include/glib-2.0/gio/gmenu.h",
    "include/glib-2.0/gio/gmenuexporter.h",
    "include/glib-2.0/gio/gmenumodel.h",
    "include/glib-2.0/gio/gmount.h",
    "include/glib-2.0/gio/gmountoperation.h",
    "include/glib-2.0/gio/gnativevolumemonitor.h",
    "include/glib-2.0/gio/gnetworkaddress.h",
    "include/glib-2.0/gio/gnetworking.h",
    "include/glib-2.0/gio/gnetworkmonitor.h",
    "include/glib-2.0/gio/gnetworkservice.h",
    "include/glib-2.0/gio/gnotification.h",
    "include/glib-2.0/gio/goutputstream.h",
    "include/glib-2.0/gio/gpermission.h",
    "include/glib-2.0/gio/gpollableinputstream.h",
    "include/glib-2.0/gio/gpollableoutputstream.h",
    "include/glib-2.0/gio/gpollableutils.h",
    "include/glib-2.0/gio/gpropertyaction.h",
    "include/glib-2.0/gio/gproxy.h",
    "include/glib-2.0/gio/gproxyaddress.h",
    "include/glib-2.0/gio/gproxyaddressenumerator.h",
    "include/glib-2.0/gio/gproxyresolver.h",
    "include/glib-2.0/gio/gremoteactiongroup.h",
    "include/glib-2.0/gio/gresolver.h",
    "include/glib-2.0/gio/gresource.h",
    "include/glib-2.0/gio/gseekable.h",
    "include/glib-2.0/gio/gsettings.h",
    "include/glib-2.0/gio/gsettingsbackend.h",
    "include/glib-2.0/gio/gsettingsschema.h",
    "include/glib-2.0/gio/gsimpleaction.h",
    "include/glib-2.0/gio/gsimpleactiongroup.h",
    "include/glib-2.0/gio/gsimpleasyncresult.h",
    "include/glib-2.0/gio/gsimpleiostream.h",
    "include/glib-2.0/gio/gsimplepermission.h",
    "include/glib-2.0/gio/gsimpleproxyresolver.h",
    "include/glib-2.0/gio/gsocket.h",
    "include/glib-2.0/gio/gsocketaddress.h",
    "include/glib-2.0/gio/gsocketaddressenumerator.h",
    "include/glib-2.0/gio/gsocketclient.h",
    "include/glib-2.0/gio/gsocketconnectable.h",
    "include/glib-2.0/gio/gsocketconnection.h",
    "include/glib-2.0/gio/gsocketcontrolmessage.h",
    "include/glib-2.0/gio/gsocketlistener.h",
    "include/glib-2.0/gio/gsocketservice.h",
    "include/glib-2.0/gio/gsrvtarget.h",
    "include/glib-2.0/gio/gsubprocess.h",
    "include/glib-2.0/gio/gsubprocesslauncher.h",
    "include/glib-2.0/gio/gtask.h",
    "include/glib-2.0/gio/gtcpconnection.h",
    "include/glib-2.0/gio/gtcpwrapperconnection.h",
    "include/glib-2.0/gio/gtestdbus.h",
    "include/glib-2.0/gio/gthemedicon.h",
    "include/glib-2.0/gio/gthreadedsocketservice.h",
    "include/glib-2.0/gio/gtlsbackend.h",
    "include/glib-2.0/gio/gtlscertificate.h",
    "include/glib-2.0/gio/gtlsclientconnection.h",
    "include/glib-2.0/gio/gtlsconnection.h",
    "include/glib-2.0/gio/gtlsdatabase.h",
    "include/glib-2.0/gio/gtlsfiledatabase.h",
    "include/glib-2.0/gio/gtlsinteraction.h",
    "include/glib-2.0/gio/gtlspassword.h",
    "include/glib-2.0/gio/gtlsserverconnection.h",
    "include/glib-2.0/gio/gvfs.h",
    "include/glib-2.0/gio/gvolume.h",
    "include/glib-2.0/gio/gvolumemonitor.h",
    "include/glib-2.0/gio/gzlibcompressor.h",
    "include/glib-2.0/gio/gzlibdecompressor.h",
    "include/glib-2.0/glib-object.h",
    "include/glib-2.0/glib-unix.h",
    "include/glib-2.0/glib.h",
    "include/glib-2.0/glib/deprecated/gallocator.h",
    "include/glib-2.0/glib/deprecated/gcache.h",
    "include/glib-2.0/glib/deprecated/gcompletion.h",
    "include/glib-2.0/glib/deprecated/gmain.h",
    "include/glib-2.0/glib/deprecated/grel.h",
    "include/glib-2.0/glib/deprecated/gthread.h",
    "include/glib-2.0/glib/galloca.h",
    "include/glib-2.0/glib/garray.h",
    "include/glib-2.0/glib/gasyncqueue.h",
    "include/glib-2.0/glib/gatomic.h",
    "include/glib-2.0/glib/gbacktrace.h",
    "include/glib-2.0/glib/gbase64.h",
    "include/glib-2.0/glib/gbitlock.h",
    "include/glib-2.0/glib/gbookmarkfile.h",
    "include/glib-2.0/glib/gbytes.h",
    "include/glib-2.0/glib/gcharset.h",
    "include/glib-2.0/glib/gchecksum.h",
    "include/glib-2.0/glib/gconvert.h",
    "include/glib-2.0/glib/gdataset.h",
    "include/glib-2.0/glib/gdate.h",
    "include/glib-2.0/glib/gdatetime.h",
    "include/glib-2.0/glib/gdir.h",
    "include/glib-2.0/glib/genviron.h",
    "include/glib-2.0/glib/gerror.h",
    "include/glib-2.0/glib/gfileutils.h",
    "include/glib-2.0/glib/ggettext.h",
    "include/glib-2.0/glib/ghash.h",
    "include/glib-2.0/glib/ghmac.h",
    "include/glib-2.0/glib/ghook.h",
    "include/glib-2.0/glib/ghostutils.h",
    "include/glib-2.0/glib/gi18n-lib.h",
    "include/glib-2.0/glib/gi18n.h",
    "include/glib-2.0/glib/giochannel.h",
    "include/glib-2.0/glib/gkeyfile.h",
    "include/glib-2.0/glib/glib-autocleanups.h",
    "include/glib-2.0/glib/glist.h",
    "include/glib-2.0/glib/gmacros.h",
    "include/glib-2.0/glib/gmain.h",
    "include/glib-2.0/glib/gmappedfile.h",
    "include/glib-2.0/glib/gmarkup.h",
    "include/glib-2.0/glib/gmem.h",
    "include/glib-2.0/glib/gmessages.h",
    "include/glib-2.0/glib/gnode.h",
    "include/glib-2.0/glib/goption.h",
    "include/glib-2.0/glib/gpattern.h",
    "include/glib-2.0/glib/gpoll.h",
    "include/glib-2.0/glib/gprimes.h",
    "include/glib-2.0/glib/gprintf.h",
    "include/glib-2.0/glib/gqsort.h",
    "include/glib-2.0/glib/gquark.h",
    "include/glib-2.0/glib/gqueue.h",
    "include/glib-2.0/glib/grand.h",
    "include/glib-2.0/glib/gregex.h",
    "include/glib-2.0/glib/gscanner.h",
    "include/glib-2.0/glib/gsequence.h",
    "include/glib-2.0/glib/gshell.h",
    "include/glib-2.0/glib/gslice.h",
    "include/glib-2.0/glib/gslist.h",
    "include/glib-2.0/glib/gspawn.h",
    "include/glib-2.0/glib/gstdio.h",
    "include/glib-2.0/glib/gstrfuncs.h",
    "include/glib-2.0/glib/gstring.h",
    "include/glib-2.0/glib/gstringchunk.h",
    "include/glib-2.0/glib/gtestutils.h",
    "include/glib-2.0/glib/gthread.h",
    "include/glib-2.0/glib/gthreadpool.h",
    "include/glib-2.0/glib/gtimer.h",
    "include/glib-2.0/glib/gtimezone.h",
    "include/glib-2.0/glib/gtrashstack.h",
    "include/glib-2.0/glib/gtree.h",
    "include/glib-2.0/glib/gtypes.h",
    "include/glib-2.0/glib/gunicode.h",
    "include/glib-2.0/glib/gurifuncs.h",
    "include/glib-2.0/glib/gutils.h",
    "include/glib-2.0/glib/guuid.h",
    "include/glib-2.0/glib/gvariant.h",
    "include/glib-2.0/glib/gvarianttype.h",
    "include/glib-2.0/glib/gversion.h",
    "include/glib-2.0/glib/gversionmacros.h",
    "include/glib-2.0/glib/gwin32.h",
    "include/glib-2.0/gmodule.h",
    "include/glib-2.0/gobject/gbinding.h",
    "include/glib-2.0/gobject/gboxed.h",
    "include/glib-2.0/gobject/gclosure.h",
    "include/glib-2.0/gobject/genums.h",
    "include/glib-2.0/gobject/glib-types.h",
    "include/glib-2.0/gobject/gmarshal.h",
    "include/glib-2.0/gobject/gobject-autocleanups.h",
    "include/glib-2.0/gobject/gobject.h",
    "include/glib-2.0/gobject/gobjectnotifyqueue.c",
    "include/glib-2.0/gobject/gparam.h",
    "include/glib-2.0/gobject/gparamspecs.h",
    "include/glib-2.0/gobject/gsignal.h",
    "include/glib-2.0/gobject/gsourceclosure.h",
    "include/glib-2.0/gobject/gtype.h",
    "include/glib-2.0/gobject/gtypemodule.h",
    "include/glib-2.0/gobject/gtypeplugin.h",
    "include/glib-2.0/gobject/gvalue.h",
    "include/glib-2.0/gobject/gvaluearray.h",
    "include/glib-2.0/gobject/gvaluecollector.h",
    "include/glib-2.0/gobject/gvaluetypes.h",
    "lib/glib-2.0/include/glibconfig.h",
    "lib/libgio-2.0.la",
    "lib/libgio-2.0.so",
    "lib/libgio-2.0.so.0",
    "lib/libgio-2.0.so.0.5600.2",
    "lib/libglib-2.0.la",
    "lib/libglib-2.0.so",
    "lib/libglib-2.0.so.0",
    "lib/libglib-2.0.so.0.5600.2",
    "lib/libgmodule-2.0.la",
    "lib/libgmodule-2.0.so",
    "lib/libgmodule-2.0.so.0",
    "lib/libgmodule-2.0.so.0.5600.2",
    "lib/libgobject-2.0.la",
    "lib/libgobject-2.0.so",
    "lib/libgobject-2.0.so.0",
    "lib/libgobject-2.0.so.0.5600.2",
    "lib/libgthread-2.0.la",
    "lib/libgthread-2.0.so",
    "lib/libgthread-2.0.so.0",
    "lib/libgthread-2.0.so.0.5600.2",
    "lib/pkgconfig/gio-2.0.pc",
    "lib/pkgconfig/gio-unix-2.0.pc",
    "lib/pkgconfig/glib-2.0.pc",
    "lib/pkgconfig/gmodule-2.0.pc",
    "lib/pkgconfig/gmodule-export-2.0.pc",
    "lib/pkgconfig/gmodule-no-export-2.0.pc",
    "lib/pkgconfig/gobject-2.0.pc",
    "lib/pkgconfig/gthread-2.0.pc",
    "share/aclocal/glib-2.0.m4",
    "share/aclocal/glib-gettext.m4",
    "share/aclocal/gsettings.m4",
    "share/bash-completion/completions/gapplication",
    "share/bash-completion/completions/gdbus",
    "share/bash-completion/completions/gresource",
    "share/bash-completion/completions/gsettings",
    "share/gettext/its/gschema.its",
    "share/gettext/its/gschema.loc",
    "share/glib-2.0/codegen/__init__.py",
    "share/glib-2.0/codegen/__pycache__/__init__.cpython-35.pyc",
    "share/glib-2.0/codegen/__pycache__/codegen.cpython-35.pyc",
    "share/glib-2.0/codegen/__pycache__/codegen_docbook.cpython-35.pyc",
    "share/glib-2.0/codegen/__pycache__/codegen_main.cpython-35.pyc",
    "share/glib-2.0/codegen/__pycache__/config.cpython-35.pyc",
    "share/glib-2.0/codegen/__pycache__/dbustypes.cpython-35.pyc",
    "share/glib-2.0/codegen/__pycache__/parser.cpython-35.pyc",
    "share/glib-2.0/codegen/__pycache__/utils.cpython-35.pyc",
    "share/glib-2.0/codegen/codegen.py",
    "share/glib-2.0/codegen/codegen_docbook.py",
    "share/glib-2.0/codegen/codegen_main.py",
    "share/glib-2.0/codegen/config.py",
    "share/glib-2.0/codegen/dbustypes.py",
    "share/glib-2.0/codegen/parser.py",
    "share/glib-2.0/codegen/utils.py",
    "share/glib-2.0/gdb/__pycache__/glib_gdb.cpython-35.pyc",
    "share/glib-2.0/gdb/__pycache__/gobject_gdb.cpython-35.pyc",
    "share/glib-2.0/gdb/glib_gdb.py",
    "share/glib-2.0/gdb/gobject_gdb.py",
    "share/glib-2.0/gettext/po/Makefile.in.in",
    "share/glib-2.0/schemas/gschema.dtd",
    "share/glib-2.0/valgrind/glib.supp",
    "share/gtk-doc/html/gio/GAction.html",
    "share/gtk-doc/html/gio/GActionGroup.html",
    "share/gtk-doc/html/gio/GActionMap.html",
    "share/gtk-doc/html/gio/GAppInfo.html",
    "share/gtk-doc/html/gio/GAppInfoMonitor.html",
    "share/gtk-doc/html/gio/GApplication.html",
    "share/gtk-doc/html/gio/GApplicationCommandLine.html",
    "share/gtk-doc/html/gio/GAsyncInitable.html",
    "share/gtk-doc/html/gio/GAsyncResult.html",
    "share/gtk-doc/html/gio/GBufferedInputStream.html",
    "share/gtk-doc/html/gio/GBufferedOutputStream.html",
    "share/gtk-doc/html/gio/GBytesIcon.html",
    "share/gtk-doc/html/gio/GCancellable.html",
    "share/gtk-doc/html/gio/GCharsetConverter.html",
    "share/gtk-doc/html/gio/GConverter.html",
    "share/gtk-doc/html/gio/GCredentials.html",
    "share/gtk-doc/html/gio/GDBusActionGroup.html",
    "share/gtk-doc/html/gio/GDBusAuthObserver.html",
    "share/gtk-doc/html/gio/GDBusConnection.html",
    "share/gtk-doc/html/gio/GDBusInterface.html",
    "share/gtk-doc/html/gio/GDBusInterfaceSkeleton.html",
    "share/gtk-doc/html/gio/GDBusMenuModel.html",
    "share/gtk-doc/html/gio/GDBusMessage.html",
    "share/gtk-doc/html/gio/GDBusMethodInvocation.html",
    "share/gtk-doc/html/gio/GDBusObject.html",
    "share/gtk-doc/html/gio/GDBusObjectManager.html",
    "share/gtk-doc/html/gio/GDBusObjectManagerClient.html",
    "share/gtk-doc/html/gio/GDBusObjectManagerServer.html",
    "share/gtk-doc/html/gio/GDBusObjectProxy.html",
    "share/gtk-doc/html/gio/GDBusObjectSkeleton.html",
    "share/gtk-doc/html/gio/GDBusProxy.html",
    "share/gtk-doc/html/gio/GDBusServer.html",
    "share/gtk-doc/html/gio/GDataInputStream.html",
    "share/gtk-doc/html/gio/GDataOutputStream.html",
    "share/gtk-doc/html/gio/GDatagramBased.html",
    "share/gtk-doc/html/gio/GDrive.html",
    "share/gtk-doc/html/gio/GDtlsClientConnection.html",
    "share/gtk-doc/html/gio/GDtlsConnection.html",
    "share/gtk-doc/html/gio/GDtlsServerConnection.html",
    "share/gtk-doc/html/gio/GEmblem.html",
    "share/gtk-doc/html/gio/GEmblemedIcon.html",
    "share/gtk-doc/html/gio/GFile.html",
    "share/gtk-doc/html/gio/GFileDescriptorBased.html",
    "share/gtk-doc/html/gio/GFileEnumerator.html",
    "share/gtk-doc/html/gio/GFileIOStream.html",
    "share/gtk-doc/html/gio/GFileIcon.html",
    "share/gtk-doc/html/gio/GFileInfo.html",
    "share/gtk-doc/html/gio/GFileInputStream.html",
    "share/gtk-doc/html/gio/GFileMonitor.html",
    "share/gtk-doc/html/gio/GFileOutputStream.html",
    "share/gtk-doc/html/gio/GFilenameCompleter.html",
    "share/gtk-doc/html/gio/GFilterInputStream.html",
    "share/gtk-doc/html/gio/GFilterOutputStream.html",
    "share/gtk-doc/html/gio/GIOModule.html",
    "share/gtk-doc/html/gio/GIOStream.html",
    "share/gtk-doc/html/gio/GIcon.html",
    "share/gtk-doc/html/gio/GInetAddress.html",
    "share/gtk-doc/html/gio/GInetAddressMask.html",
    "share/gtk-doc/html/gio/GInetSocketAddress.html",
    "share/gtk-doc/html/gio/GInitable.html",
    "share/gtk-doc/html/gio/GInputStream.html",
    "share/gtk-doc/html/gio/GListModel.html",
    "share/gtk-doc/html/gio/GListStore.html",
    "share/gtk-doc/html/gio/GLoadableIcon.html",
    "share/gtk-doc/html/gio/GMemoryInputStream.html",
    "share/gtk-doc/html/gio/GMemoryOutputStream.html",
    "share/gtk-doc/html/gio/GMenu.html",
    "share/gtk-doc/html/gio/GMenuModel.html",
    "share/gtk-doc/html/gio/GMount.html",
    "share/gtk-doc/html/gio/GMountOperation.html",
    "share/gtk-doc/html/gio/GNetworkAddress.html",
    "share/gtk-doc/html/gio/GNetworkMonitor.html",
    "share/gtk-doc/html/gio/GNetworkService.html",
    "share/gtk-doc/html/gio/GNotification.html",
    "share/gtk-doc/html/gio/GOutputStream.html",
    "share/gtk-doc/html/gio/GPermission.html",
    "share/gtk-doc/html/gio/GPollableInputStream.html",
    "share/gtk-doc/html/gio/GPollableOutputStream.html",
    "share/gtk-doc/html/gio/GPropertyAction.html",
    "share/gtk-doc/html/gio/GProxy.html",
    "share/gtk-doc/html/gio/GProxyAddress.html",
    "share/gtk-doc/html/gio/GProxyAddressEnumerator.html",
    "share/gtk-doc/html/gio/GProxyResolver.html",
    "share/gtk-doc/html/gio/GRemoteActionGroup.html",
    "share/gtk-doc/html/gio/GResolver.html",
    "share/gtk-doc/html/gio/GResource.html",
    "share/gtk-doc/html/gio/GSeekable.html",
    "share/gtk-doc/html/gio/GSettings.html",
    "share/gtk-doc/html/gio/GSettingsBackend.html",
    "share/gtk-doc/html/gio/GSimpleAction.html",
    "share/gtk-doc/html/gio/GSimpleActionGroup.html",
    "share/gtk-doc/html/gio/GSimpleAsyncResult.html",
    "share/gtk-doc/html/gio/GSimpleIOStream.html",
    "share/gtk-doc/html/gio/GSimplePermission.html",
    "share/gtk-doc/html/gio/GSimpleProxyResolver.html",
    "share/gtk-doc/html/gio/GSocket.html",
    "share/gtk-doc/html/gio/GSocketAddress.html",
    "share/gtk-doc/html/gio/GSocketAddressEnumerator.html",
    "share/gtk-doc/html/gio/GSocketClient.html",
    "share/gtk-doc/html/gio/GSocketConnectable.html",
    "share/gtk-doc/html/gio/GSocketConnection.html",
    "share/gtk-doc/html/gio/GSocketControlMessage.html",
    "share/gtk-doc/html/gio/GSocketListener.html",
    "share/gtk-doc/html/gio/GSocketService.html",
    "share/gtk-doc/html/gio/GSrvTarget.html",
    "share/gtk-doc/html/gio/GSubprocess.html",
    "share/gtk-doc/html/gio/GSubprocessLauncher.html",
    "share/gtk-doc/html/gio/GTask.html",
    "share/gtk-doc/html/gio/GTcpConnection.html",
    "share/gtk-doc/html/gio/GTcpWrapperConnection.html",
    "share/gtk-doc/html/gio/GTestDBus.html",
    "share/gtk-doc/html/gio/GThemedIcon.html",
    "share/gtk-doc/html/gio/GThreadedSocketService.html",
    "share/gtk-doc/html/gio/GTlsBackend.html",
    "share/gtk-doc/html/gio/GTlsCertificate.html",
    "share/gtk-doc/html/gio/GTlsClientConnection.html",
    "share/gtk-doc/html/gio/GTlsConnection.html",
    "share/gtk-doc/html/gio/GTlsDatabase.html",
    "share/gtk-doc/html/gio/GTlsFileDatabase.html",
    "share/gtk-doc/html/gio/GTlsInteraction.html",
    "share/gtk-doc/html/gio/GTlsPassword.html",
    "share/gtk-doc/html/gio/GTlsServerConnection.html",
    "share/gtk-doc/html/gio/GUnixConnection.html",
    "share/gtk-doc/html/gio/GUnixCredentialsMessage.html",
    "share/gtk-doc/html/gio/GUnixFDList.html",
    "share/gtk-doc/html/gio/GUnixFDMessage.html",
    "share/gtk-doc/html/gio/GUnixInputStream.html",
    "share/gtk-doc/html/gio/GUnixOutputStream.html",
    "share/gtk-doc/html/gio/GUnixSocketAddress.html",
    "share/gtk-doc/html/gio/GVfs.html",
    "share/gtk-doc/html/gio/GVolume.html",
    "share/gtk-doc/html/gio/GVolumeMonitor.html",
    "share/gtk-doc/html/gio/GZlibCompressor.html",
    "share/gtk-doc/html/gio/GZlibDecompressor.html",
    "share/gtk-doc/html/gio/annotation-glossary.html",
    "share/gtk-doc/html/gio/api-index-full.html",
    "share/gtk-doc/html/gio/application.html",
    "share/gtk-doc/html/gio/async.html",
    "share/gtk-doc/html/gio/ch01.html",
    "share/gtk-doc/html/gio/ch02.html",
    "share/gtk-doc/html/gio/ch03.html",
    "share/gtk-doc/html/gio/ch32.html",
    "share/gtk-doc/html/gio/ch33.html",
    "share/gtk-doc/html/gio/ch33s02.html",
    "share/gtk-doc/html/gio/ch33s03.html",
    "share/gtk-doc/html/gio/ch34.html",
    "share/gtk-doc/html/gio/ch34s02.html",
    "share/gtk-doc/html/gio/ch34s03.html",
    "share/gtk-doc/html/gio/ch34s04.html",
    "share/gtk-doc/html/gio/ch34s05.html",
    "share/gtk-doc/html/gio/ch34s06.html",
    "share/gtk-doc/html/gio/ch34s07.html",
    "share/gtk-doc/html/gio/ch35.html",
    "share/gtk-doc/html/gio/ch35s02.html",
    "share/gtk-doc/html/gio/ch35s03.html",
    "share/gtk-doc/html/gio/ch35s04.html",
    "share/gtk-doc/html/gio/conversion.html",
    "share/gtk-doc/html/gio/data-models.html",
    "share/gtk-doc/html/gio/extending-gio.html",
    "share/gtk-doc/html/gio/extending.html",
    "share/gtk-doc/html/gio/failable_initialization.html",
    "share/gtk-doc/html/gio/file_mon.html",
    "share/gtk-doc/html/gio/file_ops.html",
    "share/gtk-doc/html/gio/gapplication-tool.html",
    "share/gtk-doc/html/gio/gdbus-codegen.html",
    "share/gtk-doc/html/gio/gdbus-convenience.html",
    "share/gtk-doc/html/gio/gdbus-example-gdbus-codegen.html",
    "share/gtk-doc/html/gio/gdbus-lowlevel.html",
    "share/gtk-doc/html/gio/gdbus.html",
    "share/gtk-doc/html/gio/gio-D-Bus-Addresses.html",
    "share/gtk-doc/html/gio/gio-D-Bus-Introspection-Data.html",
    "share/gtk-doc/html/gio/gio-D-Bus-Utilities.html",
    "share/gtk-doc/html/gio/gio-Desktop-file-based-GAppInfo.html",
    "share/gtk-doc/html/gio/gio-Extension-Points.html",
    "share/gtk-doc/html/gio/gio-GActionGroup-exporter.html",
    "share/gtk-doc/html/gio/gio-GContentType.html",
    "share/gtk-doc/html/gio/gio-GConverterInputstream.html",
    "share/gtk-doc/html/gio/gio-GConverterOutputstream.html",
    "share/gtk-doc/html/gio/gio-GDBusError.html",
    "share/gtk-doc/html/gio/gio-GFileAttribute.html",
    "share/gtk-doc/html/gio/gio-GIOError.html",
    "share/gtk-doc/html/gio/gio-GIOScheduler.html",
    "share/gtk-doc/html/gio/gio-GMenuModel-exporter.html",
    "share/gtk-doc/html/gio/gio-GSettingsSchema-GSettingsSchemaSource.html",
    "share/gtk-doc/html/gio/gio-GWin32InputStream.html",
    "share/gtk-doc/html/gio/gio-GWin32OutputStream.html",
    "share/gtk-doc/html/gio/gio-GWin32RegistryKey.html",
    "share/gtk-doc/html/gio/gio-Owning-Bus-Names.html",
    "share/gtk-doc/html/gio/gio-TLS-Overview.html",
    "share/gtk-doc/html/gio/gio-Unix-Mounts.html",
    "share/gtk-doc/html/gio/gio-Watching-Bus-Names.html",
    "share/gtk-doc/html/gio/gio-gnetworking.h.html",
    "share/gtk-doc/html/gio/gio-gpollableutils.html",
    "share/gtk-doc/html/gio/gio-hierarchy.html",
    "share/gtk-doc/html/gio/gio-querymodules.html",
    "share/gtk-doc/html/gio/gio.devhelp2",
    "share/gtk-doc/html/gio/gio.html",
    "share/gtk-doc/html/gio/glib-compile-resources.html",
    "share/gtk-doc/html/gio/glib-compile-schemas.html",
    "share/gtk-doc/html/gio/gresource-tool.html",
    "share/gtk-doc/html/gio/gsettings-tool.html",
    "share/gtk-doc/html/gio/gvfs-overview.png",
    "share/gtk-doc/html/gio/highlevel-socket.html",
    "share/gtk-doc/html/gio/home.png",
    "share/gtk-doc/html/gio/icons.html",
    "share/gtk-doc/html/gio/index.html",
    "share/gtk-doc/html/gio/left-insensitive.png",
    "share/gtk-doc/html/gio/left.png",
    "share/gtk-doc/html/gio/menu-example.png",
    "share/gtk-doc/html/gio/menu-model.png",
    "share/gtk-doc/html/gio/migrating.html",
    "share/gtk-doc/html/gio/networking.html",
    "share/gtk-doc/html/gio/permissions.html",
    "share/gtk-doc/html/gio/pt01.html",
    "share/gtk-doc/html/gio/pt02.html",
    "share/gtk-doc/html/gio/registry.html",
    "share/gtk-doc/html/gio/resolver.html",
    "share/gtk-doc/html/gio/resources.html",
    "share/gtk-doc/html/gio/right-insensitive.png",
    "share/gtk-doc/html/gio/right.png",
    "share/gtk-doc/html/gio/running-gio-apps.html",
    "share/gtk-doc/html/gio/settings.html",
    "share/gtk-doc/html/gio/streaming.html",
    "share/gtk-doc/html/gio/style.css",
    "share/gtk-doc/html/gio/subprocesses.html",
    "share/gtk-doc/html/gio/testing.html",
    "share/gtk-doc/html/gio/tls.html",
    "share/gtk-doc/html/gio/tools.html",
    "share/gtk-doc/html/gio/types.html",
    "share/gtk-doc/html/gio/up-insensitive.png",
    "share/gtk-doc/html/gio/up.png",
    "share/gtk-doc/html/gio/utils.html",
    "share/gtk-doc/html/gio/volume_mon.html",
    "share/gtk-doc/html/glib/Sorted_binary_tree_breadth-first_traversal.svg",
    "share/gtk-doc/html/glib/Sorted_binary_tree_inorder.svg",
    "share/gtk-doc/html/glib/Sorted_binary_tree_postorder.svg",
    "share/gtk-doc/html/glib/Sorted_binary_tree_preorder.svg",
    "share/gtk-doc/html/glib/annotation-glossary.html",
    "share/gtk-doc/html/glib/api-index-full.html",
    "share/gtk-doc/html/glib/deprecated.html",
    "share/gtk-doc/html/glib/file-name-encodings.png",
    "share/gtk-doc/html/glib/glib-Arrays.html",
    "share/gtk-doc/html/glib/glib-Asynchronous-Queues.html",
    "share/gtk-doc/html/glib/glib-Atomic-Operations.html",
    "share/gtk-doc/html/glib/glib-Automatic-String-Completion.html",
    "share/gtk-doc/html/glib/glib-Balanced-Binary-Trees.html",
    "share/gtk-doc/html/glib/glib-Base64-Encoding.html",
    "share/gtk-doc/html/glib/glib-Basic-Types.html",
    "share/gtk-doc/html/glib/glib-Bookmark-file-parser.html",
    "share/gtk-doc/html/glib/glib-Bounds-checked-integer-arithmetic.html",
    "share/gtk-doc/html/glib/glib-Byte-Arrays.html",
    "share/gtk-doc/html/glib/glib-Byte-Order-Macros.html",
    "share/gtk-doc/html/glib/glib-Caches.html",
    "share/gtk-doc/html/glib/glib-Character-Set-Conversion.html",
    "share/gtk-doc/html/glib/glib-Commandline-option-parser.html",
    "share/gtk-doc/html/glib/glib-Data-Checksums.html",
    "share/gtk-doc/html/glib/glib-Data-HMACs.html",
    "share/gtk-doc/html/glib/glib-Datasets.html",
    "share/gtk-doc/html/glib/glib-Date-and-Time-Functions.html",
    "share/gtk-doc/html/glib/glib-Deprecated-Thread-APIs.html",
    "share/gtk-doc/html/glib/glib-Double-ended-Queues.html",
    "share/gtk-doc/html/glib/glib-Doubly-Linked-Lists.html",
    "share/gtk-doc/html/glib/glib-Dynamic-Loading-of-Modules.html",
    "share/gtk-doc/html/glib/glib-Error-Reporting.html",
    "share/gtk-doc/html/glib/glib-File-Utilities.html",
    "share/gtk-doc/html/glib/glib-GDateTime.html",
    "share/gtk-doc/html/glib/glib-GTimeZone.html",
    "share/gtk-doc/html/glib/glib-GUuid.html",
    "share/gtk-doc/html/glib/glib-GVariant.html",
    "share/gtk-doc/html/glib/glib-GVariantType.html",
    "share/gtk-doc/html/glib/glib-Glob-style-pattern-matching.html",
    "share/gtk-doc/html/glib/glib-Hash-Tables.html",
    "share/gtk-doc/html/glib/glib-Hook-Functions.html",
    "share/gtk-doc/html/glib/glib-Hostname-Utilities.html",
    "share/gtk-doc/html/glib/glib-I18N.html",
    "share/gtk-doc/html/glib/glib-IO-Channels.html",
    "share/gtk-doc/html/glib/glib-Key-value-file-parser.html",
    "share/gtk-doc/html/glib/glib-Keyed-Data-Lists.html",
    "share/gtk-doc/html/glib/glib-Lexical-Scanner.html",
    "share/gtk-doc/html/glib/glib-Memory-Allocation.html",
    "share/gtk-doc/html/glib/glib-Memory-Slices.html",
    "share/gtk-doc/html/glib/glib-Message-Logging.html",
    "share/gtk-doc/html/glib/glib-Miscellaneous-Macros.html",
    "share/gtk-doc/html/glib/glib-Miscellaneous-Utility-Functions.html",
    "share/gtk-doc/html/glib/glib-N-ary-Trees.html",
    "share/gtk-doc/html/glib/glib-Numerical-Definitions.html",
    "share/gtk-doc/html/glib/glib-Perl-compatible-regular-expressions.html",
    "share/gtk-doc/html/glib/glib-Pointer-Arrays.html",
    "share/gtk-doc/html/glib/glib-Quarks.html",
    "share/gtk-doc/html/glib/glib-Random-Numbers.html",
    "share/gtk-doc/html/glib/glib-Relations-and-Tuples.html",
    "share/gtk-doc/html/glib/glib-Sequences.html",
    "share/gtk-doc/html/glib/glib-Shell-related-Utilities.html",
    "share/gtk-doc/html/glib/glib-Simple-XML-Subset-Parser.html",
    "share/gtk-doc/html/glib/glib-Singly-Linked-Lists.html",
    "share/gtk-doc/html/glib/glib-Spawning-Processes.html",
    "share/gtk-doc/html/glib/glib-Standard-Macros.html",
    "share/gtk-doc/html/glib/glib-String-Chunks.html",
    "share/gtk-doc/html/glib/glib-String-Utility-Functions.html",
    "share/gtk-doc/html/glib/glib-Strings.html",
    "share/gtk-doc/html/glib/glib-Testing.html",
    "share/gtk-doc/html/glib/glib-The-Main-Event-Loop.html",
    "share/gtk-doc/html/glib/glib-Thread-Pools.html",
    "share/gtk-doc/html/glib/glib-Threads.html",
    "share/gtk-doc/html/glib/glib-Timers.html",
    "share/gtk-doc/html/glib/glib-Trash-Stacks.html",
    "share/gtk-doc/html/glib/glib-Type-Conversion-Macros.html",
    "share/gtk-doc/html/glib/glib-UNIX-specific-utilities-and-integration.html",
    "share/gtk-doc/html/glib/glib-URI-Functions.html",
    "share/gtk-doc/html/glib/glib-Unicode-Manipulation.html",
    "share/gtk-doc/html/glib/glib-Version-Information.html",
    "share/gtk-doc/html/glib/glib-Warnings-and-Assertions.html",
    "share/gtk-doc/html/glib/glib-Windows-Compatibility-Functions.html",
    "share/gtk-doc/html/glib/glib-building.html",
    "share/gtk-doc/html/glib/glib-changes.html",
    "share/gtk-doc/html/glib/glib-compiling.html",
    "share/gtk-doc/html/glib/glib-core.html",
    "share/gtk-doc/html/glib/glib-cross-compiling.html",
    "share/gtk-doc/html/glib/glib-data-types.html",
    "share/gtk-doc/html/glib/glib-fundamentals.html",
    "share/gtk-doc/html/glib/glib-gettextize.html",
    "share/gtk-doc/html/glib/glib-programming.html",
    "share/gtk-doc/html/glib/glib-regex-syntax.html",
    "share/gtk-doc/html/glib/glib-resources.html",
    "share/gtk-doc/html/glib/glib-running.html",
    "share/gtk-doc/html/glib/glib-utilities.html",
    "share/gtk-doc/html/glib/glib.devhelp2",
    "share/gtk-doc/html/glib/glib.html",
    "share/gtk-doc/html/glib/gtester-report.html",
    "share/gtk-doc/html/glib/gtester.html",
    "share/gtk-doc/html/glib/gvariant-format-strings.html",
    "share/gtk-doc/html/glib/gvariant-text.html",
    "share/gtk-doc/html/glib/home.png",
    "share/gtk-doc/html/glib/index.html",
    "share/gtk-doc/html/glib/left-insensitive.png",
    "share/gtk-doc/html/glib/left.png",
    "share/gtk-doc/html/glib/mainloop-states.gif",
    "share/gtk-doc/html/glib/right-insensitive.png",
    "share/gtk-doc/html/glib/right.png",
    "share/gtk-doc/html/glib/style.css",
    "share/gtk-doc/html/glib/tools.html",
    "share/gtk-doc/html/glib/up-insensitive.png",
    "share/gtk-doc/html/glib/up.png",
    "share/gtk-doc/html/gobject/GBinding.html",
    "share/gtk-doc/html/gobject/GTypeModule.html",
    "share/gtk-doc/html/gobject/GTypePlugin.html",
    "share/gtk-doc/html/gobject/annotation-glossary.html",
    "share/gtk-doc/html/gobject/api-index-full.html",
    "share/gtk-doc/html/gobject/ch01s02.html",
    "share/gtk-doc/html/gobject/chapter-gobject.html",
    "share/gtk-doc/html/gobject/chapter-gtype.html",
    "share/gtk-doc/html/gobject/chapter-intro.html",
    "share/gtk-doc/html/gobject/chapter-signal.html",
    "share/gtk-doc/html/gobject/glib-genmarshal.html",
    "share/gtk-doc/html/gobject/glib-mkenums.html",
    "share/gtk-doc/html/gobject/glue.png",
    "share/gtk-doc/html/gobject/gobject-Boxed-Types.html",
    "share/gtk-doc/html/gobject/gobject-Closures.html",
    "share/gtk-doc/html/gobject/gobject-Enumeration-and-Flag-Types.html",
    "share/gtk-doc/html/gobject/gobject-GParamSpec.html",
    "share/gtk-doc/html/gobject/gobject-Generic-values.html",
    "share/gtk-doc/html/gobject/gobject-Signals.html",
    "share/gtk-doc/html/gobject/gobject-Standard-Parameter-and-Value-Types.html",
    "share/gtk-doc/html/gobject/gobject-The-Base-Object-Type.html",
    "share/gtk-doc/html/gobject/gobject-Type-Information.html",
    "share/gtk-doc/html/gobject/gobject-Value-arrays.html",
    "share/gtk-doc/html/gobject/gobject-Varargs-Value-Collection.html",
    "share/gtk-doc/html/gobject/gobject-memory.html",
    "share/gtk-doc/html/gobject/gobject-properties.html",
    "share/gtk-doc/html/gobject/gobject-query.html",
    "share/gtk-doc/html/gobject/gobject.devhelp2",
    "share/gtk-doc/html/gobject/gtype-conventions.html",
    "share/gtk-doc/html/gobject/gtype-instantiable-classed.html",
    "share/gtk-doc/html/gobject/gtype-non-instantiable-classed.html",
    "share/gtk-doc/html/gobject/gtype-non-instantiable.html",
    "share/gtk-doc/html/gobject/home.png",
    "share/gtk-doc/html/gobject/howto-gobject-chainup.html",
    "share/gtk-doc/html/gobject/howto-gobject-code.html",
    "share/gtk-doc/html/gobject/howto-gobject-construction.html",
    "share/gtk-doc/html/gobject/howto-gobject-destruction.html",
    "share/gtk-doc/html/gobject/howto-gobject-methods.html",
    "share/gtk-doc/html/gobject/howto-gobject.html",
    "share/gtk-doc/html/gobject/howto-interface-implement.html",
    "share/gtk-doc/html/gobject/howto-interface-override.html",
    "share/gtk-doc/html/gobject/howto-interface-prerequisite.html",
    "share/gtk-doc/html/gobject/howto-interface-properties.html",
    "share/gtk-doc/html/gobject/howto-interface.html",
    "share/gtk-doc/html/gobject/howto-signals.html",
    "share/gtk-doc/html/gobject/index.html",
    "share/gtk-doc/html/gobject/left-insensitive.png",
    "share/gtk-doc/html/gobject/left.png",
    "share/gtk-doc/html/gobject/pr01.html",
    "share/gtk-doc/html/gobject/pt01.html",
    "share/gtk-doc/html/gobject/pt02.html",
    "share/gtk-doc/html/gobject/pt03.html",
    "share/gtk-doc/html/gobject/right-insensitive.png",
    "share/gtk-doc/html/gobject/right.png",
    "share/gtk-doc/html/gobject/rn01.html",
    "share/gtk-doc/html/gobject/rn02.html",
    "share/gtk-doc/html/gobject/signal.html",
    "share/gtk-doc/html/gobject/style.css",
    "share/gtk-doc/html/gobject/tools-ginspector.html",
    "share/gtk-doc/html/gobject/tools-gob.html",
    "share/gtk-doc/html/gobject/tools-gtkdoc.html",
    "share/gtk-doc/html/gobject/tools-refdb.html",
    "share/gtk-doc/html/gobject/tools-vala.html",
    "share/gtk-doc/html/gobject/up-insensitive.png",
    "share/gtk-doc/html/gobject/up.png",
    "share/locale/af/LC_MESSAGES/glib20.mo",
    "share/locale/am/LC_MESSAGES/glib20.mo",
    "share/locale/an/LC_MESSAGES/glib20.mo",
    "share/locale/ar/LC_MESSAGES/glib20.mo",
    "share/locale/as/LC_MESSAGES/glib20.mo",
    "share/locale/ast/LC_MESSAGES/glib20.mo",
    "share/locale/az/LC_MESSAGES/glib20.mo",
    "share/locale/be/LC_MESSAGES/glib20.mo",
    "share/locale/be@latin/LC_MESSAGES/glib20.mo",
    "share/locale/bg/LC_MESSAGES/glib20.mo",
    "share/locale/bn/LC_MESSAGES/glib20.mo",
    "share/locale/bn_IN/LC_MESSAGES/glib20.mo",
    "share/locale/bs/LC_MESSAGES/glib20.mo",
    "share/locale/ca/LC_MESSAGES/glib20.mo",
    "share/locale/ca@valencia/LC_MESSAGES/glib20.mo",
    "share/locale/cs/LC_MESSAGES/glib20.mo",
    "share/locale/cy/LC_MESSAGES/glib20.mo",
    "share/locale/da/LC_MESSAGES/glib20.mo",
    "share/locale/de/LC_MESSAGES/glib20.mo",
    "share/locale/dz/LC_MESSAGES/glib20.mo",
    "share/locale/el/LC_MESSAGES/glib20.mo",
    "share/locale/en@shaw/LC_MESSAGES/glib20.mo",
    "share/locale/en_CA/LC_MESSAGES/glib20.mo",
    "share/locale/en_GB/LC_MESSAGES/glib20.mo",
    "share/locale/eo/LC_MESSAGES/glib20.mo",
    "share/locale/es/LC_MESSAGES/glib20.mo",
    "share/locale/et/LC_MESSAGES/glib20.mo",
    "share/locale/eu/LC_MESSAGES/glib20.mo",
    "share/locale/fa/LC_MESSAGES/glib20.mo",
    "share/locale/fi/LC_MESSAGES/glib20.mo",
    "share/locale/fr/LC_MESSAGES/glib20.mo",
    "share/locale/fur/LC_MESSAGES/glib20.mo",
    "share/locale/ga/LC_MESSAGES/glib20.mo",
    "share/locale/gd/LC_MESSAGES/glib20.mo",
    "share/locale/gl/LC_MESSAGES/glib20.mo",
    "share/locale/gu/LC_MESSAGES/glib20.mo",
    "share/locale/he/LC_MESSAGES/glib20.mo",
    "share/locale/hi/LC_MESSAGES/glib20.mo",
    "share/locale/hr/LC_MESSAGES/glib20.mo",
    "share/locale/hu/LC_MESSAGES/glib20.mo",
    "share/locale/hy/LC_MESSAGES/glib20.mo",
    "share/locale/id/LC_MESSAGES/glib20.mo",
    "share/locale/is/LC_MESSAGES/glib20.mo",
    "share/locale/it/LC_MESSAGES/glib20.mo",
    "share/locale/ja/LC_MESSAGES/glib20.mo",
    "share/locale/ka/LC_MESSAGES/glib20.mo",
    "share/locale/kk/LC_MESSAGES/glib20.mo",
    "share/locale/kn/LC_MESSAGES/glib20.mo",
    "share/locale/ko/LC_MESSAGES/glib20.mo",
    "share/locale/ku/LC_MESSAGES/glib20.mo",
    "share/locale/lt/LC_MESSAGES/glib20.mo",
    "share/locale/lv/LC_MESSAGES/glib20.mo",
    "share/locale/mai/LC_MESSAGES/glib20.mo",
    "share/locale/mg/LC_MESSAGES/glib20.mo",
    "share/locale/mk/LC_MESSAGES/glib20.mo",
    "share/locale/ml/LC_MESSAGES/glib20.mo",
    "share/locale/mn/LC_MESSAGES/glib20.mo",
    "share/locale/mr/LC_MESSAGES/glib20.mo",
    "share/locale/ms/LC_MESSAGES/glib20.mo",
    "share/locale/nb/LC_MESSAGES/glib20.mo",
    "share/locale/nds/LC_MESSAGES/glib20.mo",
    "share/locale/ne/LC_MESSAGES/glib20.mo",
    "share/locale/nl/LC_MESSAGES/glib20.mo",
    "share/locale/nn/LC_MESSAGES/glib20.mo",
    "share/locale/oc/LC_MESSAGES/glib20.mo",
    "share/locale/or/LC_MESSAGES/glib20.mo",
    "share/locale/pa/LC_MESSAGES/glib20.mo",
    "share/locale/pl/LC_MESSAGES/glib20.mo",
    "share/locale/ps/LC_MESSAGES/glib20.mo",
    "share/locale/pt/LC_MESSAGES/glib20.mo",
    "share/locale/pt_BR/LC_MESSAGES/glib20.mo",
    "share/locale/ro/LC_MESSAGES/glib20.mo",
    "share/locale/ru/LC_MESSAGES/glib20.mo",
    "share/locale/rw/LC_MESSAGES/glib20.mo",
    "share/locale/si/LC_MESSAGES/glib20.mo",
    "share/locale/sk/LC_MESSAGES/glib20.mo",
    "share/locale/sl/LC_MESSAGES/glib20.mo",
    "share/locale/sq/LC_MESSAGES/glib20.mo",
    "share/locale/sr/LC_MESSAGES/glib20.mo",
    "share/locale/sr@ije/LC_MESSAGES/glib20.mo",
    "share/locale/sr@latin/LC_MESSAGES/glib20.mo",
    "share/locale/sv/LC_MESSAGES/glib20.mo",
    "share/locale/ta/LC_MESSAGES/glib20.mo",
    "share/locale/te/LC_MESSAGES/glib20.mo",
    "share/locale/tg/LC_MESSAGES/glib20.mo",
    "share/locale/th/LC_MESSAGES/glib20.mo",
    "share/locale/tl/LC_MESSAGES/glib20.mo",
    "share/locale/tr/LC_MESSAGES/glib20.mo",
    "share/locale/tt/LC_MESSAGES/glib20.mo",
    "share/locale/ug/LC_MESSAGES/glib20.mo",
    "share/locale/uk/LC_MESSAGES/glib20.mo",
    "share/locale/vi/LC_MESSAGES/glib20.mo",
    "share/locale/wa/LC_MESSAGES/glib20.mo",
    "share/locale/xh/LC_MESSAGES/glib20.mo",
    "share/locale/yi/LC_MESSAGES/glib20.mo",
    "share/locale/zh_CN/LC_MESSAGES/glib20.mo",
    "share/locale/zh_HK/LC_MESSAGES/glib20.mo",
    "share/locale/zh_TW/LC_MESSAGES/glib20.mo"
  ],
  "fn": "glib-2.56.2-hd408876_0.conda",
  "legacy_bz2_md5": "00d5c0ac884e6176dd740e4b40ba612a",
  "legacy_bz2_size": 5227073,
  "license": "LGPL-2.1",
  "link": {
    "source": "/home/idoye/Study/Devops/python/python_script/anaconda_ide/anaconda3/pkgs/glib-2.56.2-hd408876_0",
    "type": 1
  },
  "md5": "75b3b8b4aad0571868d8122e89f5dfdc",
  "name": "glib",
  "package_tarball_full_path": "/home/idoye/Study/Devops/python/python_script/anaconda_ide/anaconda3/pkgs/glib-2.56.2-hd408876_0.conda",
  "paths_data": {
    "paths": [
      {
        "_path": "bin/gapplication",
        "file_mode": "binary",
        "path_type": "hardlink",
        "prefix_placeholder": "/tmp/build/80754af9/glib_1535475653755/_h_env_placehold_placehold_placehold_placehold_placehold_placehold_placehold_placehold_placehold_placehold_placehold_placehold_placehold_placehold_placehold_placehold_placehold_placehold_placehold_placehold_placehold",
        "sha256": "fe31b74da44432e132f7591843325db5b7f0263d95f1acb6ccb0ea40c3c4ec3b",
        "sha256_in_prefix": "94afd0498b914c508816bad6d74ed0617b6dc7d4b4a6376f00cdc73773fd3b39",
        "size_in_bytes": 26416
      },
      {
        "_path": "bin/gdbus",
        "file_mode": "binary",
        "path_type": "hardlink",
        "prefix_placeholder": "/tmp/build/80754af9/glib_1535475653755/_h_env_placehold_placehold_placehold_placehold_placehold_placehold_placehold_placehold_placehold_placehold_placehold_placehold_placehold_placehold_placehold_placehold_placehold_placehold_placehold_placehold_placehold",
        "sha256": "4b5d532c8253458fe3e398c40f138ef7d96637e990a2d7558c3ddde9f19944d2",
        "sha256_in_prefix": "c732a8121b3526a6d971f9547df47fb867685079b5638dec1768ee2be1f53d9f",
        "size_in_bytes": 59688
      },
      {
        "_path": "bin/gdbus-codegen",
        "file_mode": "text",
        "path_type": "hardlink",
        "prefix_placeholder": "/opt/anaconda1anaconda2anaconda3",
        "sha256": "efbd3b2012f9333d625932993f2c3cfff7cbcc1d3de74ea39fd3605844064847",
        "sha256_in_prefix": "7df65b893a5ce4b1b1348b76943a8de8e085f59333736b3f9485d194fa5a2c89",
        "size_in_bytes": 2093
      },
      {
        "_path": "bin/gio",
        "file_mode": "binary",
        "path_type": "hardlink",
        "prefix_placeholder": "/tmp/build/80754af9/glib_1535475653755/_h_env_placehold_placehold_placehold_placehold_placehold_placehold_placehold_placehold_placehold_placehold_placehold_placehold_placehold_placehold_placehold_placehold_placehold_placehold_placehold_placehold_placehold",
        "sha256": "62f029f939f6808543b9bec3f56b7dc9605ea349c83c2332876a0ae49bf751b6",
        "sha256_in_prefix": "bbcf532eee3cfe86d2bfaddfb62a9f756ab33358da638af577a985b2c86db34e",
        "size_in_bytes": 104832
      },
      {
        "_path": "bin/glib-compile-resources",
        "file_mode": "binary",
        "path_type": "hardlink",
        "prefix_placeholder": "/tmp/build/80754af9/glib_1535475653755/_h_env_placehold_placehold_placehold_placehold_placehold_placehold_placehold_placehold_placehold_placehold_placehold_placehold_placehold_placehold_placehold_placehold_placehold_placehold_placehold_placehold_placehold",
        "sha256": "0ebc8d2e27b23fef5369e17f51bf40dce23d7a3555f488270f063b81b51711d5",
        "sha256_in_prefix": "24772d3e5ba42aa747b8cea2590fa2080c7b7d504e2578e24014e985fc0e4952",
        "size_in_bytes": 50904
      },
      {
        "_path": "bin/glib-compile-schemas",
        "file_mode": "binary",
        "path_type": "hardlink",
        "prefix_placeholder": "/tmp/build/80754af9/glib_1535475653755/_h_env_placehold_placehold_placehold_placehold_placehold_placehold_placehold_placehold_placehold_placehold_placehold_placehold_placehold_placehold_placehold_placehold_placehold_placehold_placehold_placehold_placehold",
        "sha256": "2116e44dc811530037b717536d0006249291517dca90400416fa60d93b44bb9c",
        "sha256_in_prefix": "1a9b64655867f9d4bfbef788fba76f02f6e312bdbcdeef5a73792e413a3e8f44",
        "size_in_bytes": 59592
      },
      {
        "_path": "bin/glib-genmarshal",
        "file_mode": "text",
        "path_type": "hardlink",
        "prefix_placeholder": "/opt/anaconda1anaconda2anaconda3",
        "sha256": "cbfd32d328458c6a939f4a25601822aa976c0911856f2a7b6ecc4cc6b11d7e41",
        "sha256_in_prefix": "3a1cdef10abfe7b8b4392ba383c172062469c597efd5e951564b4019d9647dff",
        "size_in_bytes": 40939
      },
      {
        "_path": "bin/glib-gettextize",
        "file_mode": "text",
        "path_type": "hardlink",
        "prefix_placeholder": "/opt/anaconda1anaconda2anaconda3",
        "sha256": "45a136d156dd6dd1885d9d09adfbaf404509026bdc5b65d30078d11522aca56c",
        "sha256_in_prefix": "47777527fc64ada89f7da9b6c5c5fe4b8aff2680abb8b029233e8928c7646665",
        "size_in_bytes": 5403
      },
      {
        "_path": "bin/glib-mkenums",
        "file_mode": "text",
        "path_type": "hardlink",
        "prefix_placeholder": "/opt/anaconda1anaconda2anaconda3",
        "sha256": "ab533b0e5e558400488c2e2b2ac1eb3b8c7dde74ed9b3c846c7c6103eb493676",
        "sha256_in_prefix": "9eb6d193d3cf3117e5898f8ca2eb3d0aac5dd9ed483d2b599366889c8fd6ec5a",
        "size_in_bytes": 27814
      },
      {
        "_path": "bin/gresource",
        "file_mode": "binary",
        "path_type": "hardlink",
        "prefix_placeholder": "/tmp/build/80754af9/glib_1535475653755/_h_env_placehold_placehold_placehold_placehold_placehold_placehold_placehold_placehold_placehold_placehold_placehold_placehold_placehold_placehold_placehold_placehold_placehold_placehold_placehold_placehold_placehold",
        "sha256": "a26ab08860fba202e9553d34cfc4732492a7de225e36dbeb7f372dcdf32528ae",
        "sha256_in_prefix": "2c916fe0d4c38992bdb3178cca43e704f6498f2ff28b2a3c60000b9157706710",
        "size_in_bytes": 25576
      },
      {
        "_path": "bin/gsettings",
        "file_mode": "binary",
        "path_type": "hardlink",
        "prefix_placeholder": "/tmp/build/80754af9/glib_1535475653755/_h_env_placehold_placehold_placehold_placehold_placehold_placehold_placehold_placehold_placehold_placehold_placehold_placehold_placehold_placehold_placehold_placehold_placehold_placehold_placehold_placehold_placehold",
        "sha256": "72cc7284743ce452c9bedc96a22d73a657e05af86cfa7e04b5d0fb123c5a1b7b",
        "sha256_in_prefix": "fc12243576f1e8fff485f80cbe0005639dbecc891f88f82aa7864e22571f6f42",
        "size_in_bytes": 36416
      },
      {
        "_path": "bin/gtester-report",
        "file_mode": "text",
        "path_type": "hardlink",
        "prefix_placeholder": "/opt/anaconda1anaconda2anaconda3",
        "sha256": "1799cc41ecd4fc9bea85a2fb8c2c557bad27c1bbeefb1dfbcbf042aa25da8771",
        "sha256_in_prefix": "d556e7bea2ece67fa58633c2bb0488c542d168d29f72bc609ec9c7356a1c4f01",
        "size_in_bytes": 18858
      },
      {
        "_path": "lib/libgio-2.0.la",
        "file_mode": "text",
        "path_type": "hardlink",
        "prefix_placeholder": "/opt/anaconda1anaconda2anaconda3",
        "sha256": "598ff79d1b427ea1739e681ee9d0ed4634586068e4940029c9a2eb8c78f22b20",
        "sha256_in_prefix": "bb5756cd83fcb4c621912f5abdfafa6a25aca7d04f775dcd2182b89960647c1a",
        "size_in_bytes": 1285
      },
      {
        "_path": "lib/libgio-2.0.so.0.5600.2",
        "file_mode": "binary",
        "path_type": "hardlink",
        "prefix_placeholder": "/tmp/build/80754af9/glib_1535475653755/_h_env_placehold_placehold_placehold_placehold_placehold_placehold_placehold_placehold_placehold_placehold_placehold_placehold_placehold_placehold_placehold_placehold_placehold_placehold_placehold_placehold_placehold",
        "sha256": "49dcaade2a57cec3e552da54f1931f9921b81d6bbb3efdc9554c432c027351c9",
        "sha256_in_prefix": "0e73c3cb666a9a738c38b33729ec8a9a0bebcd8099dcce4bca621e14c7e14c6e",
        "size_in_bytes": 2156304
      },
      {
        "_path": "lib/libglib-2.0.la",
        "file_mode": "text",
        "path_type": "hardlink",
        "prefix_placeholder": "/opt/anaconda1anaconda2anaconda3",
        "sha256": "80beb9d6d98e76053166d3ef6273d90a000e20bd2a656049c45e507bcfa1f41e",
        "sha256_in_prefix": "b712d2f9ad4c6afa39f65511c81b846a493a74e928a9fd6264cadd973bf3120b",
        "size_in_bytes": 1064
      },
      {
        "_path": "lib/libglib-2.0.so.0.5600.2",
        "file_mode": "binary",
        "path_type": "hardlink",
        "prefix_placeholder": "/tmp/build/80754af9/glib_1535475653755/_h_env_placehold_placehold_placehold_placehold_placehold_placehold_placehold_placehold_placehold_placehold_placehold_placehold_placehold_placehold_placehold_placehold_placehold_placehold_placehold_placehold_placehold",
        "sha256": "ab348ea6abf0344b9bf790ad746d24dd27ec74a703d22b6d4681776031325d6c",
        "sha256_in_prefix": "234494238b56cf4808f5a8a1553a94000572eaf9a32d68d056ad4999305033e1",
        "size_in_bytes": 1321984
      },
      {
        "_path": "lib/libgmodule-2.0.la",
        "file_mode": "text",
        "path_type": "hardlink",
        "prefix_placeholder": "/opt/anaconda1anaconda2anaconda3",
        "sha256": "6e6ca8f959ee55a8cacf350826e0ed2af79fe6ab4016e46e2a6ed2a9540cc768",
        "sha256_in_prefix": "275aff3835f213632ba45f221125ed49a4e9a95f1801dfe3497fcaa19a32751c",
        "size_in_bytes": 1139
      },
      {
        "_path": "lib/libgobject-2.0.la",
        "file_mode": "text",
        "path_type": "hardlink",
        "prefix_placeholder": "/opt/anaconda1anaconda2anaconda3",
        "sha256": "4e3faa97d3775d32486d7f8f3e63f9f60685be83ebcb393808e8546971bc98d1",
        "sha256_in_prefix": "fd6465495efee32b67dc03575e57f9fcfdb7761f649bc49fb593becfb00d6f02",
        "size_in_bytes": 1181
      },
      {
        "_path": "lib/libgthread-2.0.la",
        "file_mode": "text",
        "path_type": "hardlink",
        "prefix_placeholder": "/opt/anaconda1anaconda2anaconda3",
        "sha256": "0b2ac7801b47bd665ab79ab94c0f2fd3d248e1a05591925a2271842d304e1693",
        "sha256_in_prefix": "b8e5183dc531826490e1e2e9f173faa9e867f925cd7dad8ab343924f5eed8d58",
        "size_in_bytes": 1134
      },
      {
        "_path": "lib/pkgconfig/gio-2.0.pc",
        "file_mode": "text",
        "path_type": "hardlink",
        "prefix_placeholder": "/opt/anaconda1anaconda2anaconda3",
        "sha256": "1a1175deaf726acd123900122bf849c422a937beb4d5ef1797f5f32d38ad0440",
        "sha256_in_prefix": "0a06cca1ce6a0ce686f85a15e443729b5a6f4d8f972af5fe7c713fa55b11d765",
        "size_in_bytes": 504
      },
      {
        "_path": "lib/pkgconfig/gio-unix-2.0.pc",
        "file_mode": "text",
        "path_type": "hardlink",
        "prefix_placeholder": "/opt/anaconda1anaconda2anaconda3",
        "sha256": "6dd0f1480c73cb4e3d99d3745e52e2b3a6c5f4e71753cd980dcb0be666fb1299",
        "sha256_in_prefix": "ec9bc0f1e8e2813cf311c2b490061af67ff1792caf9a764679400426edae50b1",
        "size_in_bytes": 315
      },
      {
        "_path": "lib/pkgconfig/glib-2.0.pc",
        "file_mode": "text",
        "path_type": "hardlink",
        "prefix_placeholder": "/opt/anaconda1anaconda2anaconda3",
        "sha256": "d58ccd891725ca1c81f472327e25468f10ebe63ffe94fb959b72d5685faa3e56",
        "sha256_in_prefix": "7e3148d2d32c9ac09230c07e9a063fef8dafd8f20b83d7a589aa8e81b960fa4f",
        "size_in_bytes": 461
      },
      {
        "_path": "lib/pkgconfig/gmodule-2.0.pc",
        "file_mode": "text",
        "path_type": "hardlink",
        "prefix_placeholder": "/opt/anaconda1anaconda2anaconda3",
        "sha256": "01d2553c5bc05e3f382e1c74d8926a8b5e781cba4b044ffd4d83a118eeb34ecb",
        "sha256_in_prefix": "804a5d182a8d148d4786013ef7ca17ed5a9ab0775467460395935b3aaae3b1c0",
        "size_in_bytes": 338
      },
      {
        "_path": "lib/pkgconfig/gmodule-export-2.0.pc",
        "file_mode": "text",
        "path_type": "hardlink",
        "prefix_placeholder": "/opt/anaconda1anaconda2anaconda3",
        "sha256": "01d2553c5bc05e3f382e1c74d8926a8b5e781cba4b044ffd4d83a118eeb34ecb",
        "sha256_in_prefix": "804a5d182a8d148d4786013ef7ca17ed5a9ab0775467460395935b3aaae3b1c0",
        "size_in_bytes": 338
      },
      {
        "_path": "lib/pkgconfig/gmodule-no-export-2.0.pc",
        "file_mode": "text",
        "path_type": "hardlink",
        "prefix_placeholder": "/opt/anaconda1anaconda2anaconda3",
        "sha256": "9b177c6b2da50c269680819a81b327f92c85e8ef2fafe1da4130a355c40c694b",
        "sha256_in_prefix": "31bad0daf9a33ef2a987795f592e11b71b7804e8289732f507d56a71880e22ff",
        "size_in_bytes": 317
      },
      {
        "_path": "lib/pkgconfig/gobject-2.0.pc",
        "file_mode": "text",
        "path_type": "hardlink",
        "prefix_placeholder": "/opt/anaconda1anaconda2anaconda3",
        "sha256": "4cd2ef50d23cb8c58f4b6df5a21a43c063a59a9aadff3f72d2b1018ae057437f",
        "sha256_in_prefix": "3885c8f894faca7d3206cc54949c59f9728eef8daa3e1d084cad3b10d74bcf75",
        "size_in_bytes": 327
      },
      {
        "_path": "lib/pkgconfig/gthread-2.0.pc",
        "file_mode": "text",
        "path_type": "hardlink",
        "prefix_placeholder": "/opt/anaconda1anaconda2anaconda3",
        "sha256": "d30f9c4db787a686a5e801339012887db49719cf22c159f7120416b994465911",
        "sha256_in_prefix": "3928617b7e5d36671aefbb7e05b0753ab6b46c973c0b6b43d35d650b95996f45",
        "size_in_bytes": 267
      }
    ],
    "paths_version": 1
  },
  "requested_spec": "glib==2.56.2=hd408876_0",
  "sha256": "6a1e7272fbdcad167109c201d932e12d6c7911ba9140223f628aa5c7a7f1aba9",
  "size": 4141875,
  "subdir": "linux-64",
  "timestamp": 1535475913016,
  "track_features": "",
  "url": "https://repo.anaconda.com/pkgs/main/linux-64/glib-2.56.2-hd408876_0.conda",
  "version": "2.56.2"
}