{
  "build": "py37h7b6447c_0",
  "build_number": 0,
  "channel": "https://repo.anaconda.com/pkgs/main/linux-64",
  "constrains": [],
  "depends": [
    "libgcc-ng >=7.3.0",
    "python >=3.7,<3.8.0a0"
  ],
  "extracted_package_dir": "/home/idoye/Study/Devops/python/python_script/anaconda_ide/anaconda3/pkgs/greenlet-0.4.15-py37h7b6447c_0",
  "features": "",
  "files": [
    "include/python3.7m/greenlet/greenlet.h",
    "lib/python3.7/site-packages/greenlet-0.4.15.dist-info/INSTALLER",
    "lib/python3.7/site-packages/greenlet-0.4.15.dist-info/METADATA",
    "lib/python3.7/site-packages/greenlet-0.4.15.dist-info/RECORD",
    "lib/python3.7/site-packages/greenlet-0.4.15.dist-info/WHEEL",
    "lib/python3.7/site-packages/greenlet-0.4.15.dist-info/top_level.txt",
    "lib/python3.7/site-packages/greenlet.cpython-37m-x86_64-linux-gnu.so"
  ],
  "fn": "greenlet-0.4.15-py37h7b6447c_0.conda",
  "legacy_bz2_md5": "d0acec415aaa40517b031945940a0f10",
  "legacy_bz2_size": 20316,
  "license": "MIT",
  "license_family": "MIT",
  "link": {
    "source": "/home/idoye/Study/Devops/python/python_script/anaconda_ide/anaconda3/pkgs/greenlet-0.4.15-py37h7b6447c_0",
    "type": 1
  },
  "md5": "a36c48c9957cab70f819d28c97f4b28a",
  "name": "greenlet",
  "package_tarball_full_path": "/home/idoye/Study/Devops/python/python_script/anaconda_ide/anaconda3/pkgs/greenlet-0.4.15-py37h7b6447c_0.conda",
  "paths_data": {
    "paths": [],
    "paths_version": 1
  },
  "requested_spec": "greenlet==0.4.15=py37h7b6447c_0",
  "sha256": "2f1cf2267f419c1ed96008a134963728f19c746a64dbba62fe2800d4486870e3",
  "size": 20250,
  "subdir": "linux-64",
  "timestamp": 1536700046535,
  "track_features": "",
  "url": "https://repo.anaconda.com/pkgs/main/linux-64/greenlet-0.4.15-py37h7b6447c_0.conda",
  "version": "0.4.15"
}