{
  "build": "hbbd80ab_1",
  "build_number": 1,
  "channel": "https://repo.anaconda.com/pkgs/main/linux-64",
  "constrains": [],
  "depends": [
    "glib >=2.56.1,<2.57.0a0",
    "gstreamer >=1.14.0,<2.0a0",
    "libgcc-ng >=7.2.0",
    "libstdcxx-ng >=7.2.0",
    "libxcb >=1.13,<2.0a0",
    "xz >=5.2.3,<6.0a0",
    "zlib >=1.2.11,<1.3.0a0"
  ],
  "extracted_package_dir": "/home/idoye/Study/Devops/python/python_script/anaconda_ide/anaconda3/pkgs/gst-plugins-base-1.14.0-hbbd80ab_1",
  "features": "",
  "files": [
    "bin/gst-device-monitor-1.0",
    "bin/gst-discoverer-1.0",
    "bin/gst-play-1.0",
    "include/gstreamer-1.0/gst/allocators/allocators-prelude.h",
    "include/gstreamer-1.0/gst/allocators/allocators.h",
    "include/gstreamer-1.0/gst/allocators/gstdmabuf.h",
    "include/gstreamer-1.0/gst/allocators/gstfdmemory.h",
    "include/gstreamer-1.0/gst/allocators/gstphysmemory.h",
    "include/gstreamer-1.0/gst/app/app-enumtypes.h",
    "include/gstreamer-1.0/gst/app/app-prelude.h",
    "include/gstreamer-1.0/gst/app/app.h",
    "include/gstreamer-1.0/gst/app/gstappsink.h",
    "include/gstreamer-1.0/gst/app/gstappsrc.h",
    "include/gstreamer-1.0/gst/audio/audio-channel-mixer.h",
    "include/gstreamer-1.0/gst/audio/audio-channels.h",
    "include/gstreamer-1.0/gst/audio/audio-converter.h",
    "include/gstreamer-1.0/gst/audio/audio-enumtypes.h",
    "include/gstreamer-1.0/gst/audio/audio-format.h",
    "include/gstreamer-1.0/gst/audio/audio-info.h",
    "include/gstreamer-1.0/gst/audio/audio-prelude.h",
    "include/gstreamer-1.0/gst/audio/audio-quantize.h",
    "include/gstreamer-1.0/gst/audio/audio-resampler.h",
    "include/gstreamer-1.0/gst/audio/audio.h",
    "include/gstreamer-1.0/gst/audio/gstaudioaggregator.h",
    "include/gstreamer-1.0/gst/audio/gstaudiobasesink.h",
    "include/gstreamer-1.0/gst/audio/gstaudiobasesrc.h",
    "include/gstreamer-1.0/gst/audio/gstaudiocdsrc.h",
    "include/gstreamer-1.0/gst/audio/gstaudioclock.h",
    "include/gstreamer-1.0/gst/audio/gstaudiodecoder.h",
    "include/gstreamer-1.0/gst/audio/gstaudioencoder.h",
    "include/gstreamer-1.0/gst/audio/gstaudiofilter.h",
    "include/gstreamer-1.0/gst/audio/gstaudioiec61937.h",
    "include/gstreamer-1.0/gst/audio/gstaudiometa.h",
    "include/gstreamer-1.0/gst/audio/gstaudioringbuffer.h",
    "include/gstreamer-1.0/gst/audio/gstaudiosink.h",
    "include/gstreamer-1.0/gst/audio/gstaudiosrc.h",
    "include/gstreamer-1.0/gst/audio/gstaudiostreamalign.h",
    "include/gstreamer-1.0/gst/audio/streamvolume.h",
    "include/gstreamer-1.0/gst/fft/fft-prelude.h",
    "include/gstreamer-1.0/gst/fft/fft.h",
    "include/gstreamer-1.0/gst/fft/gstfft.h",
    "include/gstreamer-1.0/gst/fft/gstfftf32.h",
    "include/gstreamer-1.0/gst/fft/gstfftf64.h",
    "include/gstreamer-1.0/gst/fft/gstffts16.h",
    "include/gstreamer-1.0/gst/fft/gstffts32.h",
    "include/gstreamer-1.0/gst/gl/gl-prelude.h",
    "include/gstreamer-1.0/gst/gl/gl.h",
    "include/gstreamer-1.0/gst/gl/glprototypes/all_functions.h",
    "include/gstreamer-1.0/gst/gl/glprototypes/base.h",
    "include/gstreamer-1.0/gst/gl/glprototypes/blending.h",
    "include/gstreamer-1.0/gst/gl/glprototypes/buffers.h",
    "include/gstreamer-1.0/gst/gl/glprototypes/debug.h",
    "include/gstreamer-1.0/gst/gl/glprototypes/eglimage.h",
    "include/gstreamer-1.0/gst/gl/glprototypes/fbo.h",
    "include/gstreamer-1.0/gst/gl/glprototypes/fixedfunction.h",
    "include/gstreamer-1.0/gst/gl/glprototypes/gles.h",
    "include/gstreamer-1.0/gst/gl/glprototypes/gstgl_compat.h",
    "include/gstreamer-1.0/gst/gl/glprototypes/gstgl_gles2compat.h",
    "include/gstreamer-1.0/gst/gl/glprototypes/opengl.h",
    "include/gstreamer-1.0/gst/gl/glprototypes/query.h",
    "include/gstreamer-1.0/gst/gl/glprototypes/shaders.h",
    "include/gstreamer-1.0/gst/gl/glprototypes/sync.h",
    "include/gstreamer-1.0/gst/gl/glprototypes/vao.h",
    "include/gstreamer-1.0/gst/gl/gstgl_enums.h",
    "include/gstreamer-1.0/gst/gl/gstgl_fwd.h",
    "include/gstreamer-1.0/gst/gl/gstglapi.h",
    "include/gstreamer-1.0/gst/gl/gstglbasefilter.h",
    "include/gstreamer-1.0/gst/gl/gstglbasememory.h",
    "include/gstreamer-1.0/gst/gl/gstglbuffer.h",
    "include/gstreamer-1.0/gst/gl/gstglbufferpool.h",
    "include/gstreamer-1.0/gst/gl/gstglcolorconvert.h",
    "include/gstreamer-1.0/gst/gl/gstglcontext.h",
    "include/gstreamer-1.0/gst/gl/gstgldebug.h",
    "include/gstreamer-1.0/gst/gl/gstgldisplay.h",
    "include/gstreamer-1.0/gst/gl/gstglfeature.h",
    "include/gstreamer-1.0/gst/gl/gstglfilter.h",
    "include/gstreamer-1.0/gst/gl/gstglformat.h",
    "include/gstreamer-1.0/gst/gl/gstglframebuffer.h",
    "include/gstreamer-1.0/gst/gl/gstglfuncs.h",
    "include/gstreamer-1.0/gst/gl/gstglmemory.h",
    "include/gstreamer-1.0/gst/gl/gstglmemorypbo.h",
    "include/gstreamer-1.0/gst/gl/gstgloverlaycompositor.h",
    "include/gstreamer-1.0/gst/gl/gstglquery.h",
    "include/gstreamer-1.0/gst/gl/gstglrenderbuffer.h",
    "include/gstreamer-1.0/gst/gl/gstglshader.h",
    "include/gstreamer-1.0/gst/gl/gstglshaderstrings.h",
    "include/gstreamer-1.0/gst/gl/gstglsl.h",
    "include/gstreamer-1.0/gst/gl/gstglslstage.h",
    "include/gstreamer-1.0/gst/gl/gstglsyncmeta.h",
    "include/gstreamer-1.0/gst/gl/gstglupload.h",
    "include/gstreamer-1.0/gst/gl/gstglutils.h",
    "include/gstreamer-1.0/gst/gl/gstglviewconvert.h",
    "include/gstreamer-1.0/gst/gl/gstglwindow.h",
    "include/gstreamer-1.0/gst/gl/x11/gstgldisplay_x11.h",
    "include/gstreamer-1.0/gst/pbutils/codec-utils.h",
    "include/gstreamer-1.0/gst/pbutils/descriptions.h",
    "include/gstreamer-1.0/gst/pbutils/encoding-profile.h",
    "include/gstreamer-1.0/gst/pbutils/encoding-target.h",
    "include/gstreamer-1.0/gst/pbutils/gstaudiovisualizer.h",
    "include/gstreamer-1.0/gst/pbutils/gstdiscoverer.h",
    "include/gstreamer-1.0/gst/pbutils/gstpluginsbaseversion.h",
    "include/gstreamer-1.0/gst/pbutils/install-plugins.h",
    "include/gstreamer-1.0/gst/pbutils/missing-plugins.h",
    "include/gstreamer-1.0/gst/pbutils/pbutils-enumtypes.h",
    "include/gstreamer-1.0/gst/pbutils/pbutils-prelude.h",
    "include/gstreamer-1.0/gst/pbutils/pbutils.h",
    "include/gstreamer-1.0/gst/riff/riff-ids.h",
    "include/gstreamer-1.0/gst/riff/riff-media.h",
    "include/gstreamer-1.0/gst/riff/riff-prelude.h",
    "include/gstreamer-1.0/gst/riff/riff-read.h",
    "include/gstreamer-1.0/gst/riff/riff.h",
    "include/gstreamer-1.0/gst/rtp/gstrtcpbuffer.h",
    "include/gstreamer-1.0/gst/rtp/gstrtp-enumtypes.h",
    "include/gstreamer-1.0/gst/rtp/gstrtpbaseaudiopayload.h",
    "include/gstreamer-1.0/gst/rtp/gstrtpbasedepayload.h",
    "include/gstreamer-1.0/gst/rtp/gstrtpbasepayload.h",
    "include/gstreamer-1.0/gst/rtp/gstrtpbuffer.h",
    "include/gstreamer-1.0/gst/rtp/gstrtpdefs.h",
    "include/gstreamer-1.0/gst/rtp/gstrtphdrext.h",
    "include/gstreamer-1.0/gst/rtp/gstrtppayloads.h",
    "include/gstreamer-1.0/gst/rtp/rtp-prelude.h",
    "include/gstreamer-1.0/gst/rtp/rtp.h",
    "include/gstreamer-1.0/gst/rtsp/gstrtsp-enumtypes.h",
    "include/gstreamer-1.0/gst/rtsp/gstrtsp.h",
    "include/gstreamer-1.0/gst/rtsp/gstrtspconnection.h",
    "include/gstreamer-1.0/gst/rtsp/gstrtspdefs.h",
    "include/gstreamer-1.0/gst/rtsp/gstrtspextension.h",
    "include/gstreamer-1.0/gst/rtsp/gstrtspmessage.h",
    "include/gstreamer-1.0/gst/rtsp/gstrtsprange.h",
    "include/gstreamer-1.0/gst/rtsp/gstrtsptransport.h",
    "include/gstreamer-1.0/gst/rtsp/gstrtspurl.h",
    "include/gstreamer-1.0/gst/rtsp/rtsp-prelude.h",
    "include/gstreamer-1.0/gst/rtsp/rtsp.h",
    "include/gstreamer-1.0/gst/sdp/gstmikey.h",
    "include/gstreamer-1.0/gst/sdp/gstsdp.h",
    "include/gstreamer-1.0/gst/sdp/gstsdpmessage.h",
    "include/gstreamer-1.0/gst/sdp/sdp-prelude.h",
    "include/gstreamer-1.0/gst/sdp/sdp.h",
    "include/gstreamer-1.0/gst/tag/gsttagdemux.h",
    "include/gstreamer-1.0/gst/tag/gsttagmux.h",
    "include/gstreamer-1.0/gst/tag/tag-enumtypes.h",
    "include/gstreamer-1.0/gst/tag/tag-prelude.h",
    "include/gstreamer-1.0/gst/tag/tag.h",
    "include/gstreamer-1.0/gst/tag/xmpwriter.h",
    "include/gstreamer-1.0/gst/video/colorbalance.h",
    "include/gstreamer-1.0/gst/video/colorbalancechannel.h",
    "include/gstreamer-1.0/gst/video/gstvideoaffinetransformationmeta.h",
    "include/gstreamer-1.0/gst/video/gstvideodecoder.h",
    "include/gstreamer-1.0/gst/video/gstvideoencoder.h",
    "include/gstreamer-1.0/gst/video/gstvideofilter.h",
    "include/gstreamer-1.0/gst/video/gstvideometa.h",
    "include/gstreamer-1.0/gst/video/gstvideopool.h",
    "include/gstreamer-1.0/gst/video/gstvideosink.h",
    "include/gstreamer-1.0/gst/video/gstvideotimecode.h",
    "include/gstreamer-1.0/gst/video/gstvideoutils.h",
    "include/gstreamer-1.0/gst/video/navigation.h",
    "include/gstreamer-1.0/gst/video/video-blend.h",
    "include/gstreamer-1.0/gst/video/video-chroma.h",
    "include/gstreamer-1.0/gst/video/video-color.h",
    "include/gstreamer-1.0/gst/video/video-converter.h",
    "include/gstreamer-1.0/gst/video/video-dither.h",
    "include/gstreamer-1.0/gst/video/video-enumtypes.h",
    "include/gstreamer-1.0/gst/video/video-event.h",
    "include/gstreamer-1.0/gst/video/video-format.h",
    "include/gstreamer-1.0/gst/video/video-frame.h",
    "include/gstreamer-1.0/gst/video/video-info.h",
    "include/gstreamer-1.0/gst/video/video-multiview.h",
    "include/gstreamer-1.0/gst/video/video-overlay-composition.h",
    "include/gstreamer-1.0/gst/video/video-prelude.h",
    "include/gstreamer-1.0/gst/video/video-resampler.h",
    "include/gstreamer-1.0/gst/video/video-scaler.h",
    "include/gstreamer-1.0/gst/video/video-tile.h",
    "include/gstreamer-1.0/gst/video/video.h",
    "include/gstreamer-1.0/gst/video/videodirection.h",
    "include/gstreamer-1.0/gst/video/videoorientation.h",
    "include/gstreamer-1.0/gst/video/videooverlay.h",
    "lib/gstreamer-1.0/include/gst/gl/gstglconfig.h",
    "lib/gstreamer-1.0/libgstadder.la",
    "lib/gstreamer-1.0/libgstadder.so",
    "lib/gstreamer-1.0/libgstapp.la",
    "lib/gstreamer-1.0/libgstapp.so",
    "lib/gstreamer-1.0/libgstaudioconvert.la",
    "lib/gstreamer-1.0/libgstaudioconvert.so",
    "lib/gstreamer-1.0/libgstaudiomixer.la",
    "lib/gstreamer-1.0/libgstaudiomixer.so",
    "lib/gstreamer-1.0/libgstaudiorate.la",
    "lib/gstreamer-1.0/libgstaudiorate.so",
    "lib/gstreamer-1.0/libgstaudioresample.la",
    "lib/gstreamer-1.0/libgstaudioresample.so",
    "lib/gstreamer-1.0/libgstaudiotestsrc.la",
    "lib/gstreamer-1.0/libgstaudiotestsrc.so",
    "lib/gstreamer-1.0/libgstencoding.la",
    "lib/gstreamer-1.0/libgstencoding.so",
    "lib/gstreamer-1.0/libgstgio.la",
    "lib/gstreamer-1.0/libgstgio.so",
    "lib/gstreamer-1.0/libgstopengl.la",
    "lib/gstreamer-1.0/libgstopengl.so",
    "lib/gstreamer-1.0/libgstpbtypes.la",
    "lib/gstreamer-1.0/libgstpbtypes.so",
    "lib/gstreamer-1.0/libgstplayback.la",
    "lib/gstreamer-1.0/libgstplayback.so",
    "lib/gstreamer-1.0/libgstrawparse.la",
    "lib/gstreamer-1.0/libgstrawparse.so",
    "lib/gstreamer-1.0/libgstsubparse.la",
    "lib/gstreamer-1.0/libgstsubparse.so",
    "lib/gstreamer-1.0/libgsttcp.la",
    "lib/gstreamer-1.0/libgsttcp.so",
    "lib/gstreamer-1.0/libgsttypefindfunctions.la",
    "lib/gstreamer-1.0/libgsttypefindfunctions.so",
    "lib/gstreamer-1.0/libgstvideoconvert.la",
    "lib/gstreamer-1.0/libgstvideoconvert.so",
    "lib/gstreamer-1.0/libgstvideorate.la",
    "lib/gstreamer-1.0/libgstvideorate.so",
    "lib/gstreamer-1.0/libgstvideoscale.la",
    "lib/gstreamer-1.0/libgstvideoscale.so",
    "lib/gstreamer-1.0/libgstvideotestsrc.la",
    "lib/gstreamer-1.0/libgstvideotestsrc.so",
    "lib/gstreamer-1.0/libgstvolume.la",
    "lib/gstreamer-1.0/libgstvolume.so",
    "lib/gstreamer-1.0/libgstximagesink.la",
    "lib/gstreamer-1.0/libgstximagesink.so",
    "lib/libgstallocators-1.0.la",
    "lib/libgstallocators-1.0.so",
    "lib/libgstallocators-1.0.so.0",
    "lib/libgstallocators-1.0.so.0.1400.0",
    "lib/libgstapp-1.0.la",
    "lib/libgstapp-1.0.so",
    "lib/libgstapp-1.0.so.0",
    "lib/libgstapp-1.0.so.0.1400.0",
    "lib/libgstaudio-1.0.la",
    "lib/libgstaudio-1.0.so",
    "lib/libgstaudio-1.0.so.0",
    "lib/libgstaudio-1.0.so.0.1400.0",
    "lib/libgstfft-1.0.la",
    "lib/libgstfft-1.0.so",
    "lib/libgstfft-1.0.so.0",
    "lib/libgstfft-1.0.so.0.1400.0",
    "lib/libgstgl-1.0.la",
    "lib/libgstgl-1.0.so",
    "lib/libgstgl-1.0.so.0",
    "lib/libgstgl-1.0.so.0.1400.0",
    "lib/libgstpbutils-1.0.la",
    "lib/libgstpbutils-1.0.so",
    "lib/libgstpbutils-1.0.so.0",
    "lib/libgstpbutils-1.0.so.0.1400.0",
    "lib/libgstriff-1.0.la",
    "lib/libgstriff-1.0.so",
    "lib/libgstriff-1.0.so.0",
    "lib/libgstriff-1.0.so.0.1400.0",
    "lib/libgstrtp-1.0.la",
    "lib/libgstrtp-1.0.so",
    "lib/libgstrtp-1.0.so.0",
    "lib/libgstrtp-1.0.so.0.1400.0",
    "lib/libgstrtsp-1.0.la",
    "lib/libgstrtsp-1.0.so",
    "lib/libgstrtsp-1.0.so.0",
    "lib/libgstrtsp-1.0.so.0.1400.0",
    "lib/libgstsdp-1.0.la",
    "lib/libgstsdp-1.0.so",
    "lib/libgstsdp-1.0.so.0",
    "lib/libgstsdp-1.0.so.0.1400.0",
    "lib/libgsttag-1.0.la",
    "lib/libgsttag-1.0.so",
    "lib/libgsttag-1.0.so.0",
    "lib/libgsttag-1.0.so.0.1400.0",
    "lib/libgstvideo-1.0.la",
    "lib/libgstvideo-1.0.so",
    "lib/libgstvideo-1.0.so.0",
    "lib/libgstvideo-1.0.so.0.1400.0",
    "lib/pkgconfig/gstreamer-allocators-1.0.pc",
    "lib/pkgconfig/gstreamer-app-1.0.pc",
    "lib/pkgconfig/gstreamer-audio-1.0.pc",
    "lib/pkgconfig/gstreamer-fft-1.0.pc",
    "lib/pkgconfig/gstreamer-gl-1.0.pc",
    "lib/pkgconfig/gstreamer-pbutils-1.0.pc",
    "lib/pkgconfig/gstreamer-plugins-base-1.0.pc",
    "lib/pkgconfig/gstreamer-riff-1.0.pc",
    "lib/pkgconfig/gstreamer-rtp-1.0.pc",
    "lib/pkgconfig/gstreamer-rtsp-1.0.pc",
    "lib/pkgconfig/gstreamer-sdp-1.0.pc",
    "lib/pkgconfig/gstreamer-tag-1.0.pc",
    "lib/pkgconfig/gstreamer-video-1.0.pc"
  ],
  "fn": "gst-plugins-base-1.14.0-hbbd80ab_1.conda",
  "legacy_bz2_md5": "d0d3ac97d7a559d27b9e99959db81207",
  "legacy_bz2_size": 6555655,
  "link": {
    "source": "/home/idoye/Study/Devops/python/python_script/anaconda_ide/anaconda3/pkgs/gst-plugins-base-1.14.0-hbbd80ab_1",
    "type": 1
  },
  "md5": "4461ffa28478fe3ca9d0bea4e3395ed8",
  "name": "gst-plugins-base",
  "package_tarball_full_path": "/home/idoye/Study/Devops/python/python_script/anaconda_ide/anaconda3/pkgs/gst-plugins-base-1.14.0-hbbd80ab_1.conda",
  "paths_data": {
    "paths": [
      {
        "_path": "lib/gstreamer-1.0/libgstadder.la",
        "file_mode": "text",
        "path_type": "hardlink",
        "prefix_placeholder": "/opt/anaconda1anaconda2anaconda3",
        "sha256": "617fdfa5a122903155a7b893d9b5023a1efec9b8b62ba7268e95a99858f5ff53",
        "sha256_in_prefix": "77e603c231e22e2cb7bd5e27ad2772b36ff489ceee3b8d144542fe631a781eb4",
        "size_in_bytes": 1528
      },
      {
        "_path": "lib/gstreamer-1.0/libgstapp.la",
        "file_mode": "text",
        "path_type": "hardlink",
        "prefix_placeholder": "/opt/anaconda1anaconda2anaconda3",
        "sha256": "3a8c45c96b871a99780184cbc6fe30274ddfab5586cb124f426ce05c8eb7b956",
        "sha256_in_prefix": "987dc559c7f639e4e640f95f0da07015def8867baef5b1f642f286db98597a72",
        "size_in_bytes": 1456
      },
      {
        "_path": "lib/gstreamer-1.0/libgstaudioconvert.la",
        "file_mode": "text",
        "path_type": "hardlink",
        "prefix_placeholder": "/opt/anaconda1anaconda2anaconda3",
        "sha256": "87261cc05c94ed2011093181f24728bbaa6d3c1116d32864da4d7adcdb9f2431",
        "sha256_in_prefix": "720e32c48a69007561727763f8c1df85060037bf1f5b7b642623eb93633fa5be",
        "size_in_bytes": 1570
      },
      {
        "_path": "lib/gstreamer-1.0/libgstaudiomixer.la",
        "file_mode": "text",
        "path_type": "hardlink",
        "prefix_placeholder": "/opt/anaconda1anaconda2anaconda3",
        "sha256": "c6802f6ccdb5b67f4b78b0521d9c225b05daed1121ed8d105f428a024929a00c",
        "sha256_in_prefix": "4cf1396465eec9f951c88efc895700a2e2579ea510e0d74e88a44082ede1700d",
        "size_in_bytes": 1558
      },
      {
        "_path": "lib/gstreamer-1.0/libgstaudiorate.la",
        "file_mode": "text",
        "path_type": "hardlink",
        "prefix_placeholder": "/opt/anaconda1anaconda2anaconda3",
        "sha256": "de61c250dbd196ff5e9461f1646aeba290d723c793007a80609193b13c403795",
        "sha256_in_prefix": "6724244a52e3769feb60b6acfb0c7a7a19f00f40f6808a66a900442682552220",
        "size_in_bytes": 1552
      },
      {
        "_path": "lib/gstreamer-1.0/libgstaudioresample.la",
        "file_mode": "text",
        "path_type": "hardlink",
        "prefix_placeholder": "/opt/anaconda1anaconda2anaconda3",
        "sha256": "501a193af96d1d9e3a619a187037e16e8b4565abba1073ac742ed379a4a5a6ba",
        "sha256_in_prefix": "e540e02528d76a40a1b456cd7fb022dba59e0bcf24e96c59e170f4ac6f7ba706",
        "size_in_bytes": 1576
      },
      {
        "_path": "lib/gstreamer-1.0/libgstaudiotestsrc.la",
        "file_mode": "text",
        "path_type": "hardlink",
        "prefix_placeholder": "/opt/anaconda1anaconda2anaconda3",
        "sha256": "84db09f2477c2786f27e36eab128a9785e0090ac0534137e172fd476a37df530",
        "sha256_in_prefix": "f675904ad9151334575bef74890982dfa02916a2560be8eed9c1c6b9ac77e80d",
        "size_in_bytes": 1570
      },
      {
        "_path": "lib/gstreamer-1.0/libgstencoding.la",
        "file_mode": "text",
        "path_type": "hardlink",
        "prefix_placeholder": "/opt/anaconda1anaconda2anaconda3",
        "sha256": "4c1c1d51aaf1ce4d4a4007f1e11bd6afb11e4098a5e01f61aae34cd3e2f860bf",
        "sha256_in_prefix": "046e0510ab4cb87c52757249cb3a5c89379e3462744ee52074cbe8a7f433a969",
        "size_in_bytes": 1660
      },
      {
        "_path": "lib/gstreamer-1.0/libgstgio.la",
        "file_mode": "text",
        "path_type": "hardlink",
        "prefix_placeholder": "/opt/anaconda1anaconda2anaconda3",
        "sha256": "6a40bf83e725671412c4e7bc92ec3016accc8b9e84e72925f9500e8703ae88a2",
        "sha256_in_prefix": "4fd720b78a7476670bdc7fbd60e8ba6b37a8609f69603060647ab267eb20e831",
        "size_in_bytes": 1466
      },
      {
        "_path": "lib/gstreamer-1.0/libgstgio.so",
        "file_mode": "binary",
        "path_type": "hardlink",
        "prefix_placeholder": "/tmp/build/80754af9/gstreamer_and_plugins_1523671021227/_h_env_placehold_placehold_placehold_placehold_placehold_placehold_placehold_placehold_placehold_placehold_placehold_placehold_placehold_placehold_placehold_placehold_placehold_placehold_placehold_pl",
        "sha256": "0681142da7c3ec19524fefea0ce3d5a865a1720e1f9d730bac530c5ef3e64b81",
        "sha256_in_prefix": "7a207e6f0779d2c0607b315ce27196e09dbc29168d18da9a9fe86465da741fdc",
        "size_in_bytes": 272392
      },
      {
        "_path": "lib/gstreamer-1.0/libgstopengl.la",
        "file_mode": "text",
        "path_type": "hardlink",
        "prefix_placeholder": "/opt/anaconda1anaconda2anaconda3",
        "sha256": "9eece6c1e3f583ed1a256f76b387499cd6628e38ccccaa4d2de855981363e41f",
        "sha256_in_prefix": "cebab845c7f78d4e2e05db4dc31e7a8bc7cb5dc6507cf499f64a724f0591851f",
        "size_in_bytes": 1985
      },
      {
        "_path": "lib/gstreamer-1.0/libgstpbtypes.la",
        "file_mode": "text",
        "path_type": "hardlink",
        "prefix_placeholder": "/opt/anaconda1anaconda2anaconda3",
        "sha256": "adf0be808cbbd1c25ed327970e075b17714334a31cefacdb74d57e4cfe8f71fb",
        "sha256_in_prefix": "029850a87a3b95c615c5e05f6f0e69501279cc9512116bb9b84e035a98174ab4",
        "size_in_bytes": 1482
      },
      {
        "_path": "lib/gstreamer-1.0/libgstplayback.la",
        "file_mode": "text",
        "path_type": "hardlink",
        "prefix_placeholder": "/opt/anaconda1anaconda2anaconda3",
        "sha256": "ff810ea8186ff5439a737990887010b28892539255444da13410d528838c8e3d",
        "sha256_in_prefix": "e28d58c7515c3ce73a3f54adc23ba03a064ae9c3c22053292581f588b1aed517",
        "size_in_bytes": 1660
      },
      {
        "_path": "lib/gstreamer-1.0/libgstrawparse.la",
        "file_mode": "text",
        "path_type": "hardlink",
        "prefix_placeholder": "/opt/anaconda1anaconda2anaconda3",
        "sha256": "3aff659ec713e9dbdc754b6583db8fe7b288154cdd8d9fdccfb3a45fd5182a36",
        "sha256_in_prefix": "df58155c28908171eebb686d920068277db945b6be49f091eee4b9e58fec04ae",
        "size_in_bytes": 1602
      },
      {
        "_path": "lib/gstreamer-1.0/libgstsubparse.la",
        "file_mode": "text",
        "path_type": "hardlink",
        "prefix_placeholder": "/opt/anaconda1anaconda2anaconda3",
        "sha256": "4080be56342386aa2d39bb376a2ec7a2c7582b3fa2569ec87b3bd831877da70a",
        "sha256_in_prefix": "0f9082bd51732f48b762ede3b8eb317790dc7615b3985ab423a06bb539668517",
        "size_in_bytes": 1432
      },
      {
        "_path": "lib/gstreamer-1.0/libgsttcp.la",
        "file_mode": "text",
        "path_type": "hardlink",
        "prefix_placeholder": "/opt/anaconda1anaconda2anaconda3",
        "sha256": "3f1cf3a2f18d1c2fc763ed087088829b52966a750f93102375a32980c825e698",
        "sha256_in_prefix": "a11efd561b3a7576ffae92d2694eeeb88d47b074c914e3637107956e70584155",
        "size_in_bytes": 1520
      },
      {
        "_path": "lib/gstreamer-1.0/libgsttypefindfunctions.la",
        "file_mode": "text",
        "path_type": "hardlink",
        "prefix_placeholder": "/opt/anaconda1anaconda2anaconda3",
        "sha256": "2292f1ed91912f08ee0d3c6b889dfe6273810e55c13b4f254daa39266af995ce",
        "sha256_in_prefix": "fd86c25e3174b45b7fac665350d81be8b04c7f9eb0fa229f2300dace42567513",
        "size_in_bytes": 1774
      },
      {
        "_path": "lib/gstreamer-1.0/libgstvideoconvert.la",
        "file_mode": "text",
        "path_type": "hardlink",
        "prefix_placeholder": "/opt/anaconda1anaconda2anaconda3",
        "sha256": "47efea79246485f9416d9aa6693250c39a7316bd5a1f8820b4acab17f7d64a24",
        "sha256_in_prefix": "2eac427e1452112ee192e5ef832694649881fbf502bcfb6dbbe4a2be4d6143da",
        "size_in_bytes": 1512
      },
      {
        "_path": "lib/gstreamer-1.0/libgstvideorate.la",
        "file_mode": "text",
        "path_type": "hardlink",
        "prefix_placeholder": "/opt/anaconda1anaconda2anaconda3",
        "sha256": "1d606a52d9fcef72eea70c29ee5411377b2b693701486a09209c4d36873cb192",
        "sha256_in_prefix": "a32a8bc352d308091618e904038e8f0ea0dfce16f06710c78140a3e71cb1e01b",
        "size_in_bytes": 1494
      },
      {
        "_path": "lib/gstreamer-1.0/libgstvideoscale.la",
        "file_mode": "text",
        "path_type": "hardlink",
        "prefix_placeholder": "/opt/anaconda1anaconda2anaconda3",
        "sha256": "25c6b60eb8f20e781f6b8f8ca15cc5abdaf12a527444950c87a275c2fc1e0328",
        "sha256_in_prefix": "bd48dd135d2fcb0b68a8a8304a271d3508ce968ceaa01847dc51d259e910633e",
        "size_in_bytes": 1500
      },
      {
        "_path": "lib/gstreamer-1.0/libgstvideotestsrc.la",
        "file_mode": "text",
        "path_type": "hardlink",
        "prefix_placeholder": "/opt/anaconda1anaconda2anaconda3",
        "sha256": "264b6aa4a6a5eb86f6b8b979a01dd040e8d8fa5026bc5dc38f217b1579fb2200",
        "sha256_in_prefix": "312ef5a845182342c61360fd14d389c647c0e9407cbea215d485a9660aeed0e2",
        "size_in_bytes": 1512
      },
      {
        "_path": "lib/gstreamer-1.0/libgstvolume.la",
        "file_mode": "text",
        "path_type": "hardlink",
        "prefix_placeholder": "/opt/anaconda1anaconda2anaconda3",
        "sha256": "6f503977d4dbf19256b8e48183d078f19cc7a18a60f0b148bb15dd43b41d513d",
        "sha256_in_prefix": "9f95eb106b2e881dd6a9496e74422cabffe7af1e7887e2ba283d823b4d83ce41",
        "size_in_bytes": 1534
      },
      {
        "_path": "lib/gstreamer-1.0/libgstximagesink.la",
        "file_mode": "text",
        "path_type": "hardlink",
        "prefix_placeholder": "/opt/anaconda1anaconda2anaconda3",
        "sha256": "d529680e569798c78e22ef574fc1dc0958a0a9b88edfecaab186c41ed130ed89",
        "sha256_in_prefix": "2855a10ba84358ac6c8afd312a7e68d79360928602f08452fccdd7a614e1e1eb",
        "size_in_bytes": 1601
      },
      {
        "_path": "lib/libgstallocators-1.0.la",
        "file_mode": "text",
        "path_type": "hardlink",
        "prefix_placeholder": "/opt/anaconda1anaconda2anaconda3",
        "sha256": "136d013969f87c9a3656731015c3877005a76f270113b11c59c9912874311a8c",
        "sha256_in_prefix": "53d6dc3c4f525db14c6e7941b2ba60c0a0815c819793910cbe117eba6c0d77c3",
        "size_in_bytes": 1417
      },
      {
        "_path": "lib/libgstapp-1.0.la",
        "file_mode": "text",
        "path_type": "hardlink",
        "prefix_placeholder": "/opt/anaconda1anaconda2anaconda3",
        "sha256": "d22dd33ecb3005ff84cdbf8b56db61b143f0ae7a2951709c521c15fbdd4f95bc",
        "sha256_in_prefix": "ec6f57a0f6ef521396689159a4f9076f21329eff410b257259e753e4df4c4a30",
        "size_in_bytes": 1430
      },
      {
        "_path": "lib/libgstaudio-1.0.la",
        "file_mode": "text",
        "path_type": "hardlink",
        "prefix_placeholder": "/opt/anaconda1anaconda2anaconda3",
        "sha256": "b1e4c002c0458118a221faf365742892971695bcc610a67d2a96e75217c1f404",
        "sha256_in_prefix": "8935d6b29a559a177657d10d2f30db311c4c8e380062a815f5c5ea1d69afbbb6",
        "size_in_bytes": 1500
      },
      {
        "_path": "lib/libgstfft-1.0.la",
        "file_mode": "text",
        "path_type": "hardlink",
        "prefix_placeholder": "/opt/anaconda1anaconda2anaconda3",
        "sha256": "9a4e5bb4217320ca344406b1e6b5c3ebef4c9c172857f1f58fb7d8f8a54759a4",
        "sha256_in_prefix": "afb83a4cec3fecd6524e684c112478b1f16017b1cf73c67ab8e476880e1e4327",
        "size_in_bytes": 1375
      },
      {
        "_path": "lib/libgstgl-1.0.la",
        "file_mode": "text",
        "path_type": "hardlink",
        "prefix_placeholder": "/opt/anaconda1anaconda2anaconda3",
        "sha256": "2ed35f1d99b5edb5674dcb469209b44b38d7bccc766aa26ba2bb12c7945ac79a",
        "sha256_in_prefix": "e24103341e7734e424a958302e2f3bacd16837095bc67f09006859e75d394974",
        "size_in_bytes": 1703
      },
      {
        "_path": "lib/libgstpbutils-1.0.la",
        "file_mode": "text",
        "path_type": "hardlink",
        "prefix_placeholder": "/opt/anaconda1anaconda2anaconda3",
        "sha256": "e7d5324fe2b82830b28582afc9b8429e8cbdd7bafcb9320111b5b3df090843bb",
        "sha256_in_prefix": "d13d3e15ab1abb28e3170337bcd4fd037c2a4d69973ce9673c58f66da726eb69",
        "size_in_bytes": 1624
      },
      {
        "_path": "lib/libgstpbutils-1.0.so.0.1400.0",
        "file_mode": "binary",
        "path_type": "hardlink",
        "prefix_placeholder": "/tmp/build/80754af9/gstreamer_and_plugins_1523671021227/_h_env_placehold_placehold_placehold_placehold_placehold_placehold_placehold_placehold_placehold_placehold_placehold_placehold_placehold_placehold_placehold_placehold_placehold_placehold_placehold_pl",
        "sha256": "02b8f7d250154e52659d0e26ae6287af0aa5d02d7138b980fbe68cbf6ade76b6",
        "sha256_in_prefix": "a8e875b31a51f63141f25677e05a5ad5740a75d0fa070fdf555e5d4180da5066",
        "size_in_bytes": 891760
      },
      {
        "_path": "lib/libgstriff-1.0.la",
        "file_mode": "text",
        "path_type": "hardlink",
        "prefix_placeholder": "/opt/anaconda1anaconda2anaconda3",
        "sha256": "e6e76be750a13355f07eda8ef1b444033102152ec4a684d469d216de2cef0e1a",
        "sha256_in_prefix": "13d57483bec4b88253c53a251cfcf966f5532f5a103eb31a892f0e5603158772",
        "size_in_bytes": 1550
      },
      {
        "_path": "lib/libgstrtp-1.0.la",
        "file_mode": "text",
        "path_type": "hardlink",
        "prefix_placeholder": "/opt/anaconda1anaconda2anaconda3",
        "sha256": "798da7056e07db9b42533680aa746d02e23bee3f627e7671e7bfb8660c47572e",
        "sha256_in_prefix": "f6480dc1417730a559ad56638ba56e5fef6fad8fd4b676af4cd2e46945730b1a",
        "size_in_bytes": 1430
      },
      {
        "_path": "lib/libgstrtsp-1.0.la",
        "file_mode": "text",
        "path_type": "hardlink",
        "prefix_placeholder": "/opt/anaconda1anaconda2anaconda3",
        "sha256": "bfc49413dbd0dcea3266f75e043b50044143a260fe0ff964cb6fa053b14f6c22",
        "sha256_in_prefix": "69212600fa2c383ed39acef2b837cf57c3542e490f4822c866cea5b7431b6a67",
        "size_in_bytes": 1445
      },
      {
        "_path": "lib/libgstsdp-1.0.la",
        "file_mode": "text",
        "path_type": "hardlink",
        "prefix_placeholder": "/opt/anaconda1anaconda2anaconda3",
        "sha256": "c1db0fac11fc89cb92e8ebd21f960d9d9149d01d578c93dbf46747b07d7bc172",
        "sha256_in_prefix": "2a42a36fd5b1b0d3def73e8ccef91a3cb5567600901348742d85eb06124c0f1b",
        "size_in_bytes": 1548
      },
      {
        "_path": "lib/libgsttag-1.0.la",
        "file_mode": "text",
        "path_type": "hardlink",
        "prefix_placeholder": "/opt/anaconda1anaconda2anaconda3",
        "sha256": "fa91ae03c0a3deba0ff831f94708c107dad44d08a404216d1b9133b4772fb254",
        "sha256_in_prefix": "171548beb079c6b78295c2db5dabd549ea84ba94dad085f6db54745437077378",
        "size_in_bytes": 1434
      },
      {
        "_path": "lib/libgstvideo-1.0.la",
        "file_mode": "text",
        "path_type": "hardlink",
        "prefix_placeholder": "/opt/anaconda1anaconda2anaconda3",
        "sha256": "246c04578336f02b3fa590e2b24b300b17a30fa4ad5a87d3b0c9f486310052a4",
        "sha256_in_prefix": "060a99cb140a5952f8758aed1d1f7d0fcb770fae55722ca067557fd7a07c8a79",
        "size_in_bytes": 1442
      },
      {
        "_path": "lib/pkgconfig/gstreamer-allocators-1.0.pc",
        "file_mode": "text",
        "path_type": "hardlink",
        "prefix_placeholder": "/opt/anaconda1anaconda2anaconda3",
        "sha256": "b669618417bde940d716b75d079ee6cad249d8fbfa1cb531f73ced69bc3797b8",
        "sha256_in_prefix": "ebd6404071b56bfcc0a6ea39201c51783f610071973fefffb3e97b8009e81786",
        "size_in_bytes": 424
      },
      {
        "_path": "lib/pkgconfig/gstreamer-app-1.0.pc",
        "file_mode": "text",
        "path_type": "hardlink",
        "prefix_placeholder": "/opt/anaconda1anaconda2anaconda3",
        "sha256": "ded1520881b595519dc196a8d1c4b70ff44e813da147c1b04132f196ea49a7a9",
        "sha256_in_prefix": "8b051beef32ba284746cd94fa26fbce7a0dafe138a8dafc2ad484e57239650ed",
        "size_in_bytes": 473
      },
      {
        "_path": "lib/pkgconfig/gstreamer-audio-1.0.pc",
        "file_mode": "text",
        "path_type": "hardlink",
        "prefix_placeholder": "/opt/anaconda1anaconda2anaconda3",
        "sha256": "21810f43da30bde270fa213c0f9ffea67ec2de4a25de9188485712e1302b9b3e",
        "sha256_in_prefix": "eb73708c82fa80ec778bc529518bda0732d28f071285802103e237b0a6d9ab59",
        "size_in_bytes": 466
      },
      {
        "_path": "lib/pkgconfig/gstreamer-fft-1.0.pc",
        "file_mode": "text",
        "path_type": "hardlink",
        "prefix_placeholder": "/opt/anaconda1anaconda2anaconda3",
        "sha256": "013da65266f986173fe399d42c9754c4f72f5f8c0fa33b59d905f57fb1519b34",
        "sha256_in_prefix": "a1d34ec4085ef12b337116fac3e1fce14996b1dcc481f5d75d5dce4ec9432ba7",
        "size_in_bytes": 407
      },
      {
        "_path": "lib/pkgconfig/gstreamer-gl-1.0.pc",
        "file_mode": "text",
        "path_type": "hardlink",
        "prefix_placeholder": "/opt/anaconda1anaconda2anaconda3",
        "sha256": "6a4b06b8078082fa88d8f6015b54ffe83f6c3adcc543c2342a827d12462175bc",
        "sha256_in_prefix": "0175ef9597a8865b108c47aa00edd3e066d7c14c2f640c2ce396e50672dfefd9",
        "size_in_bytes": 629
      },
      {
        "_path": "lib/pkgconfig/gstreamer-pbutils-1.0.pc",
        "file_mode": "text",
        "path_type": "hardlink",
        "prefix_placeholder": "/opt/anaconda1anaconda2anaconda3",
        "sha256": "5022a011fc9952f32becb6eac40eb580ac38ca5ee10eca5cf98994bca6f66cc4",
        "sha256_in_prefix": "e60ad3485f03b7bba5eb1e83a97fc038114455d8def9cd508cccf9b7c5265ee4",
        "size_in_bytes": 421
      },
      {
        "_path": "lib/pkgconfig/gstreamer-plugins-base-1.0.pc",
        "file_mode": "text",
        "path_type": "hardlink",
        "prefix_placeholder": "/opt/anaconda1anaconda2anaconda3",
        "sha256": "647267b3225548b6c2260545f5fc51d84274ebb774d2c28e9e2284cee02f371a",
        "sha256_in_prefix": "753e22382e593fcf7a6f23e13f6f8a79cab2ee5bceafc687b1b50a0b56e1aa5a",
        "size_in_bytes": 436
      },
      {
        "_path": "lib/pkgconfig/gstreamer-riff-1.0.pc",
        "file_mode": "text",
        "path_type": "hardlink",
        "prefix_placeholder": "/opt/anaconda1anaconda2anaconda3",
        "sha256": "b92c2702a44656bfb613e9fcddc029a293416e6aaa96f247f67ccefeff4a27d4",
        "sha256_in_prefix": "4fabfb2528654250a8e84d6f8df51cd81bf031ea886e2cb25803d90e8cae8bf0",
        "size_in_bytes": 408
      },
      {
        "_path": "lib/pkgconfig/gstreamer-rtp-1.0.pc",
        "file_mode": "text",
        "path_type": "hardlink",
        "prefix_placeholder": "/opt/anaconda1anaconda2anaconda3",
        "sha256": "8c1b7c868584beac0162add10829dc0e9ad8bf80e912ffc77442697b0c51e6c2",
        "sha256_in_prefix": "dd6b9cd7fcb9dc5e9c4809d4586dcade829ce09c353519df01abbf39646debd6",
        "size_in_bytes": 441
      },
      {
        "_path": "lib/pkgconfig/gstreamer-rtsp-1.0.pc",
        "file_mode": "text",
        "path_type": "hardlink",
        "prefix_placeholder": "/opt/anaconda1anaconda2anaconda3",
        "sha256": "7c32fc69f4db5c334e08e442bedbee3ebc8126af3d5309d54784cbe57f251c02",
        "sha256_in_prefix": "2f0c9bc1d6f52b2c1fca309f9fab182139edc26bbb9b9a915681c2b51d991d87",
        "size_in_bytes": 451
      },
      {
        "_path": "lib/pkgconfig/gstreamer-sdp-1.0.pc",
        "file_mode": "text",
        "path_type": "hardlink",
        "prefix_placeholder": "/opt/anaconda1anaconda2anaconda3",
        "sha256": "a479c6aa4063559799bafd4aa882ab56a8220da7da4ccb1bbd0f5237c1f9c019",
        "sha256_in_prefix": "831090335963377f5651043afdcd740a3c9cec9e06a47eab53c565655c1628f6",
        "size_in_bytes": 426
      },
      {
        "_path": "lib/pkgconfig/gstreamer-tag-1.0.pc",
        "file_mode": "text",
        "path_type": "hardlink",
        "prefix_placeholder": "/opt/anaconda1anaconda2anaconda3",
        "sha256": "757a66228ce6f2bf39b24eabb5199f0118b382894d4bfaf93fddffb513e4cb39",
        "sha256_in_prefix": "264be4ca9b8c41a0c13e232330cb6b53bc2dd58b26b6dbd9c9f70fce7ab52922",
        "size_in_bytes": 479
      },
      {
        "_path": "lib/pkgconfig/gstreamer-video-1.0.pc",
        "file_mode": "text",
        "path_type": "hardlink",
        "prefix_placeholder": "/opt/anaconda1anaconda2anaconda3",
        "sha256": "bd1577483b75bb3bb6d7b33deb25d5a5bb20510fac00b9f6278566d05fc1e819",
        "sha256_in_prefix": "f858353a744afd54e281f109d18c48bfbd63a614bf5b873ff4b3733c8f6d2ed1",
        "size_in_bytes": 466
      }
    ],
    "paths_version": 1
  },
  "requested_spec": "gst-plugins-base==1.14.0=hbbd80ab_1",
  "sha256": "9f9841880835a667d9312eff26fb31d14d53b1d1db193651a087d48d9a90007d",
  "size": 5047785,
  "subdir": "linux-64",
  "timestamp": 1523671420695,
  "track_features": "",
  "url": "https://repo.anaconda.com/pkgs/main/linux-64/gst-plugins-base-1.14.0-hbbd80ab_1.conda",
  "version": "1.14.0"
}