{
  "build": "py37h39e3cac_0",
  "build_number": 0,
  "channel": "https://repo.anaconda.com/pkgs/main/linux-64",
  "constrains": [],
  "depends": [
    "backcall",
    "decorator",
    "jedi >=0.10",
    "pexpect",
    "pickleshare",
    "prompt_toolkit >=2.0.0",
    "pygments",
    "python >=3.7,<3.8.0a0",
    "traitlets >=4.2"
  ],
  "extracted_package_dir": "/home/idoye/Study/Devops/python/python_script/anaconda_ide/anaconda3/pkgs/ipython-7.8.0-py37h39e3cac_0",
  "features": "",
  "files": [
    "bin/iptest",
    "bin/iptest3",
    "bin/ipython",
    "bin/ipython3",
    "lib/python3.7/site-packages/IPython/__init__.py",
    "lib/python3.7/site-packages/IPython/__main__.py",
    "lib/python3.7/site-packages/IPython/__pycache__/__init__.cpython-37.pyc",
    "lib/python3.7/site-packages/IPython/__pycache__/__main__.cpython-37.pyc",
    "lib/python3.7/site-packages/IPython/__pycache__/config.cpython-37.pyc",
    "lib/python3.7/site-packages/IPython/__pycache__/conftest.cpython-37.pyc",
    "lib/python3.7/site-packages/IPython/__pycache__/consoleapp.cpython-37.pyc",
    "lib/python3.7/site-packages/IPython/__pycache__/display.cpython-37.pyc",
    "lib/python3.7/site-packages/IPython/__pycache__/frontend.cpython-37.pyc",
    "lib/python3.7/site-packages/IPython/__pycache__/html.cpython-37.pyc",
    "lib/python3.7/site-packages/IPython/__pycache__/nbconvert.cpython-37.pyc",
    "lib/python3.7/site-packages/IPython/__pycache__/nbformat.cpython-37.pyc",
    "lib/python3.7/site-packages/IPython/__pycache__/parallel.cpython-37.pyc",
    "lib/python3.7/site-packages/IPython/__pycache__/paths.cpython-37.pyc",
    "lib/python3.7/site-packages/IPython/__pycache__/qt.cpython-37.pyc",
    "lib/python3.7/site-packages/IPython/config.py",
    "lib/python3.7/site-packages/IPython/conftest.py",
    "lib/python3.7/site-packages/IPython/consoleapp.py",
    "lib/python3.7/site-packages/IPython/core/__init__.py",
    "lib/python3.7/site-packages/IPython/core/__pycache__/__init__.cpython-37.pyc",
    "lib/python3.7/site-packages/IPython/core/__pycache__/alias.cpython-37.pyc",
    "lib/python3.7/site-packages/IPython/core/__pycache__/application.cpython-37.pyc",
    "lib/python3.7/site-packages/IPython/core/__pycache__/async_helpers.cpython-37.pyc",
    "lib/python3.7/site-packages/IPython/core/__pycache__/autocall.cpython-37.pyc",
    "lib/python3.7/site-packages/IPython/core/__pycache__/builtin_trap.cpython-37.pyc",
    "lib/python3.7/site-packages/IPython/core/__pycache__/compilerop.cpython-37.pyc",
    "lib/python3.7/site-packages/IPython/core/__pycache__/completer.cpython-37.pyc",
    "lib/python3.7/site-packages/IPython/core/__pycache__/completerlib.cpython-37.pyc",
    "lib/python3.7/site-packages/IPython/core/__pycache__/crashhandler.cpython-37.pyc",
    "lib/python3.7/site-packages/IPython/core/__pycache__/debugger.cpython-37.pyc",
    "lib/python3.7/site-packages/IPython/core/__pycache__/display.cpython-37.pyc",
    "lib/python3.7/site-packages/IPython/core/__pycache__/display_trap.cpython-37.pyc",
    "lib/python3.7/site-packages/IPython/core/__pycache__/displayhook.cpython-37.pyc",
    "lib/python3.7/site-packages/IPython/core/__pycache__/displaypub.cpython-37.pyc",
    "lib/python3.7/site-packages/IPython/core/__pycache__/error.cpython-37.pyc",
    "lib/python3.7/site-packages/IPython/core/__pycache__/events.cpython-37.pyc",
    "lib/python3.7/site-packages/IPython/core/__pycache__/excolors.cpython-37.pyc",
    "lib/python3.7/site-packages/IPython/core/__pycache__/extensions.cpython-37.pyc",
    "lib/python3.7/site-packages/IPython/core/__pycache__/formatters.cpython-37.pyc",
    "lib/python3.7/site-packages/IPython/core/__pycache__/getipython.cpython-37.pyc",
    "lib/python3.7/site-packages/IPython/core/__pycache__/history.cpython-37.pyc",
    "lib/python3.7/site-packages/IPython/core/__pycache__/historyapp.cpython-37.pyc",
    "lib/python3.7/site-packages/IPython/core/__pycache__/hooks.cpython-37.pyc",
    "lib/python3.7/site-packages/IPython/core/__pycache__/inputsplitter.cpython-37.pyc",
    "lib/python3.7/site-packages/IPython/core/__pycache__/inputtransformer.cpython-37.pyc",
    "lib/python3.7/site-packages/IPython/core/__pycache__/inputtransformer2.cpython-37.pyc",
    "lib/python3.7/site-packages/IPython/core/__pycache__/interactiveshell.cpython-37.pyc",
    "lib/python3.7/site-packages/IPython/core/__pycache__/latex_symbols.cpython-37.pyc",
    "lib/python3.7/site-packages/IPython/core/__pycache__/logger.cpython-37.pyc",
    "lib/python3.7/site-packages/IPython/core/__pycache__/macro.cpython-37.pyc",
    "lib/python3.7/site-packages/IPython/core/__pycache__/magic.cpython-37.pyc",
    "lib/python3.7/site-packages/IPython/core/__pycache__/magic_arguments.cpython-37.pyc",
    "lib/python3.7/site-packages/IPython/core/__pycache__/oinspect.cpython-37.pyc",
    "lib/python3.7/site-packages/IPython/core/__pycache__/page.cpython-37.pyc",
    "lib/python3.7/site-packages/IPython/core/__pycache__/payload.cpython-37.pyc",
    "lib/python3.7/site-packages/IPython/core/__pycache__/payloadpage.cpython-37.pyc",
    "lib/python3.7/site-packages/IPython/core/__pycache__/prefilter.cpython-37.pyc",
    "lib/python3.7/site-packages/IPython/core/__pycache__/profileapp.cpython-37.pyc",
    "lib/python3.7/site-packages/IPython/core/__pycache__/profiledir.cpython-37.pyc",
    "lib/python3.7/site-packages/IPython/core/__pycache__/prompts.cpython-37.pyc",
    "lib/python3.7/site-packages/IPython/core/__pycache__/pylabtools.cpython-37.pyc",
    "lib/python3.7/site-packages/IPython/core/__pycache__/release.cpython-37.pyc",
    "lib/python3.7/site-packages/IPython/core/__pycache__/shellapp.cpython-37.pyc",
    "lib/python3.7/site-packages/IPython/core/__pycache__/splitinput.cpython-37.pyc",
    "lib/python3.7/site-packages/IPython/core/__pycache__/ultratb.cpython-37.pyc",
    "lib/python3.7/site-packages/IPython/core/__pycache__/usage.cpython-37.pyc",
    "lib/python3.7/site-packages/IPython/core/alias.py",
    "lib/python3.7/site-packages/IPython/core/application.py",
    "lib/python3.7/site-packages/IPython/core/async_helpers.py",
    "lib/python3.7/site-packages/IPython/core/autocall.py",
    "lib/python3.7/site-packages/IPython/core/builtin_trap.py",
    "lib/python3.7/site-packages/IPython/core/compilerop.py",
    "lib/python3.7/site-packages/IPython/core/completer.py",
    "lib/python3.7/site-packages/IPython/core/completerlib.py",
    "lib/python3.7/site-packages/IPython/core/crashhandler.py",
    "lib/python3.7/site-packages/IPython/core/debugger.py",
    "lib/python3.7/site-packages/IPython/core/display.py",
    "lib/python3.7/site-packages/IPython/core/display_trap.py",
    "lib/python3.7/site-packages/IPython/core/displayhook.py",
    "lib/python3.7/site-packages/IPython/core/displaypub.py",
    "lib/python3.7/site-packages/IPython/core/error.py",
    "lib/python3.7/site-packages/IPython/core/events.py",
    "lib/python3.7/site-packages/IPython/core/excolors.py",
    "lib/python3.7/site-packages/IPython/core/extensions.py",
    "lib/python3.7/site-packages/IPython/core/formatters.py",
    "lib/python3.7/site-packages/IPython/core/getipython.py",
    "lib/python3.7/site-packages/IPython/core/history.py",
    "lib/python3.7/site-packages/IPython/core/historyapp.py",
    "lib/python3.7/site-packages/IPython/core/hooks.py",
    "lib/python3.7/site-packages/IPython/core/inputsplitter.py",
    "lib/python3.7/site-packages/IPython/core/inputtransformer.py",
    "lib/python3.7/site-packages/IPython/core/inputtransformer2.py",
    "lib/python3.7/site-packages/IPython/core/interactiveshell.py",
    "lib/python3.7/site-packages/IPython/core/latex_symbols.py",
    "lib/python3.7/site-packages/IPython/core/logger.py",
    "lib/python3.7/site-packages/IPython/core/macro.py",
    "lib/python3.7/site-packages/IPython/core/magic.py",
    "lib/python3.7/site-packages/IPython/core/magic_arguments.py",
    "lib/python3.7/site-packages/IPython/core/magics/__init__.py",
    "lib/python3.7/site-packages/IPython/core/magics/__pycache__/__init__.cpython-37.pyc",
    "lib/python3.7/site-packages/IPython/core/magics/__pycache__/auto.cpython-37.pyc",
    "lib/python3.7/site-packages/IPython/core/magics/__pycache__/basic.cpython-37.pyc",
    "lib/python3.7/site-packages/IPython/core/magics/__pycache__/code.cpython-37.pyc",
    "lib/python3.7/site-packages/IPython/core/magics/__pycache__/config.cpython-37.pyc",
    "lib/python3.7/site-packages/IPython/core/magics/__pycache__/display.cpython-37.pyc",
    "lib/python3.7/site-packages/IPython/core/magics/__pycache__/execution.cpython-37.pyc",
    "lib/python3.7/site-packages/IPython/core/magics/__pycache__/extension.cpython-37.pyc",
    "lib/python3.7/site-packages/IPython/core/magics/__pycache__/history.cpython-37.pyc",
    "lib/python3.7/site-packages/IPython/core/magics/__pycache__/logging.cpython-37.pyc",
    "lib/python3.7/site-packages/IPython/core/magics/__pycache__/namespace.cpython-37.pyc",
    "lib/python3.7/site-packages/IPython/core/magics/__pycache__/osm.cpython-37.pyc",
    "lib/python3.7/site-packages/IPython/core/magics/__pycache__/packaging.cpython-37.pyc",
    "lib/python3.7/site-packages/IPython/core/magics/__pycache__/pylab.cpython-37.pyc",
    "lib/python3.7/site-packages/IPython/core/magics/__pycache__/script.cpython-37.pyc",
    "lib/python3.7/site-packages/IPython/core/magics/auto.py",
    "lib/python3.7/site-packages/IPython/core/magics/basic.py",
    "lib/python3.7/site-packages/IPython/core/magics/code.py",
    "lib/python3.7/site-packages/IPython/core/magics/config.py",
    "lib/python3.7/site-packages/IPython/core/magics/display.py",
    "lib/python3.7/site-packages/IPython/core/magics/execution.py",
    "lib/python3.7/site-packages/IPython/core/magics/extension.py",
    "lib/python3.7/site-packages/IPython/core/magics/history.py",
    "lib/python3.7/site-packages/IPython/core/magics/logging.py",
    "lib/python3.7/site-packages/IPython/core/magics/namespace.py",
    "lib/python3.7/site-packages/IPython/core/magics/osm.py",
    "lib/python3.7/site-packages/IPython/core/magics/packaging.py",
    "lib/python3.7/site-packages/IPython/core/magics/pylab.py",
    "lib/python3.7/site-packages/IPython/core/magics/script.py",
    "lib/python3.7/site-packages/IPython/core/oinspect.py",
    "lib/python3.7/site-packages/IPython/core/page.py",
    "lib/python3.7/site-packages/IPython/core/payload.py",
    "lib/python3.7/site-packages/IPython/core/payloadpage.py",
    "lib/python3.7/site-packages/IPython/core/prefilter.py",
    "lib/python3.7/site-packages/IPython/core/profile/README_STARTUP",
    "lib/python3.7/site-packages/IPython/core/profileapp.py",
    "lib/python3.7/site-packages/IPython/core/profiledir.py",
    "lib/python3.7/site-packages/IPython/core/prompts.py",
    "lib/python3.7/site-packages/IPython/core/pylabtools.py",
    "lib/python3.7/site-packages/IPython/core/release.py",
    "lib/python3.7/site-packages/IPython/core/shellapp.py",
    "lib/python3.7/site-packages/IPython/core/splitinput.py",
    "lib/python3.7/site-packages/IPython/core/tests/2x2.jpg",
    "lib/python3.7/site-packages/IPython/core/tests/2x2.png",
    "lib/python3.7/site-packages/IPython/core/tests/__init__.py",
    "lib/python3.7/site-packages/IPython/core/tests/__pycache__/__init__.cpython-37.pyc",
    "lib/python3.7/site-packages/IPython/core/tests/__pycache__/bad_all.cpython-37.pyc",
    "lib/python3.7/site-packages/IPython/core/tests/__pycache__/nonascii.cpython-37.pyc",
    "lib/python3.7/site-packages/IPython/core/tests/__pycache__/nonascii2.cpython-37.pyc",
    "lib/python3.7/site-packages/IPython/core/tests/__pycache__/print_argv.cpython-37.pyc",
    "lib/python3.7/site-packages/IPython/core/tests/__pycache__/refbug.cpython-37.pyc",
    "lib/python3.7/site-packages/IPython/core/tests/__pycache__/simpleerr.cpython-37.pyc",
    "lib/python3.7/site-packages/IPython/core/tests/__pycache__/tclass.cpython-37.pyc",
    "lib/python3.7/site-packages/IPython/core/tests/__pycache__/test_alias.cpython-37.pyc",
    "lib/python3.7/site-packages/IPython/core/tests/__pycache__/test_application.cpython-37.pyc",
    "lib/python3.7/site-packages/IPython/core/tests/__pycache__/test_async_helpers.cpython-37.pyc",
    "lib/python3.7/site-packages/IPython/core/tests/__pycache__/test_autocall.cpython-37.pyc",
    "lib/python3.7/site-packages/IPython/core/tests/__pycache__/test_compilerop.cpython-37.pyc",
    "lib/python3.7/site-packages/IPython/core/tests/__pycache__/test_completer.cpython-37.pyc",
    "lib/python3.7/site-packages/IPython/core/tests/__pycache__/test_completerlib.cpython-37.pyc",
    "lib/python3.7/site-packages/IPython/core/tests/__pycache__/test_debugger.cpython-37.pyc",
    "lib/python3.7/site-packages/IPython/core/tests/__pycache__/test_display.cpython-37.pyc",
    "lib/python3.7/site-packages/IPython/core/tests/__pycache__/test_displayhook.cpython-37.pyc",
    "lib/python3.7/site-packages/IPython/core/tests/__pycache__/test_events.cpython-37.pyc",
    "lib/python3.7/site-packages/IPython/core/tests/__pycache__/test_extension.cpython-37.pyc",
    "lib/python3.7/site-packages/IPython/core/tests/__pycache__/test_formatters.cpython-37.pyc",
    "lib/python3.7/site-packages/IPython/core/tests/__pycache__/test_handlers.cpython-37.pyc",
    "lib/python3.7/site-packages/IPython/core/tests/__pycache__/test_history.cpython-37.pyc",
    "lib/python3.7/site-packages/IPython/core/tests/__pycache__/test_hooks.cpython-37.pyc",
    "lib/python3.7/site-packages/IPython/core/tests/__pycache__/test_imports.cpython-37.pyc",
    "lib/python3.7/site-packages/IPython/core/tests/__pycache__/test_inputsplitter.cpython-37.pyc",
    "lib/python3.7/site-packages/IPython/core/tests/__pycache__/test_inputtransformer.cpython-37.pyc",
    "lib/python3.7/site-packages/IPython/core/tests/__pycache__/test_inputtransformer2.cpython-37.pyc",
    "lib/python3.7/site-packages/IPython/core/tests/__pycache__/test_inputtransformer2_line.cpython-37.pyc",
    "lib/python3.7/site-packages/IPython/core/tests/__pycache__/test_interactiveshell.cpython-37.pyc",
    "lib/python3.7/site-packages/IPython/core/tests/__pycache__/test_iplib.cpython-37.pyc",
    "lib/python3.7/site-packages/IPython/core/tests/__pycache__/test_logger.cpython-37.pyc",
    "lib/python3.7/site-packages/IPython/core/tests/__pycache__/test_magic.cpython-37.pyc",
    "lib/python3.7/site-packages/IPython/core/tests/__pycache__/test_magic_arguments.cpython-37.pyc",
    "lib/python3.7/site-packages/IPython/core/tests/__pycache__/test_magic_terminal.cpython-37.pyc",
    "lib/python3.7/site-packages/IPython/core/tests/__pycache__/test_oinspect.cpython-37.pyc",
    "lib/python3.7/site-packages/IPython/core/tests/__pycache__/test_page.cpython-37.pyc",
    "lib/python3.7/site-packages/IPython/core/tests/__pycache__/test_paths.cpython-37.pyc",
    "lib/python3.7/site-packages/IPython/core/tests/__pycache__/test_prefilter.cpython-37.pyc",
    "lib/python3.7/site-packages/IPython/core/tests/__pycache__/test_profile.cpython-37.pyc",
    "lib/python3.7/site-packages/IPython/core/tests/__pycache__/test_prompts.cpython-37.pyc",
    "lib/python3.7/site-packages/IPython/core/tests/__pycache__/test_pylabtools.cpython-37.pyc",
    "lib/python3.7/site-packages/IPython/core/tests/__pycache__/test_run.cpython-37.pyc",
    "lib/python3.7/site-packages/IPython/core/tests/__pycache__/test_shellapp.cpython-37.pyc",
    "lib/python3.7/site-packages/IPython/core/tests/__pycache__/test_splitinput.cpython-37.pyc",
    "lib/python3.7/site-packages/IPython/core/tests/__pycache__/test_ultratb.cpython-37.pyc",
    "lib/python3.7/site-packages/IPython/core/tests/bad_all.py",
    "lib/python3.7/site-packages/IPython/core/tests/daft_extension/__pycache__/daft_extension.cpython-37.pyc",
    "lib/python3.7/site-packages/IPython/core/tests/daft_extension/daft_extension.py",
    "lib/python3.7/site-packages/IPython/core/tests/nonascii.py",
    "lib/python3.7/site-packages/IPython/core/tests/nonascii2.py",
    "lib/python3.7/site-packages/IPython/core/tests/print_argv.py",
    "lib/python3.7/site-packages/IPython/core/tests/refbug.py",
    "lib/python3.7/site-packages/IPython/core/tests/simpleerr.py",
    "lib/python3.7/site-packages/IPython/core/tests/tclass.py",
    "lib/python3.7/site-packages/IPython/core/tests/test_alias.py",
    "lib/python3.7/site-packages/IPython/core/tests/test_application.py",
    "lib/python3.7/site-packages/IPython/core/tests/test_async_helpers.py",
    "lib/python3.7/site-packages/IPython/core/tests/test_autocall.py",
    "lib/python3.7/site-packages/IPython/core/tests/test_compilerop.py",
    "lib/python3.7/site-packages/IPython/core/tests/test_completer.py",
    "lib/python3.7/site-packages/IPython/core/tests/test_completerlib.py",
    "lib/python3.7/site-packages/IPython/core/tests/test_debugger.py",
    "lib/python3.7/site-packages/IPython/core/tests/test_display.py",
    "lib/python3.7/site-packages/IPython/core/tests/test_displayhook.py",
    "lib/python3.7/site-packages/IPython/core/tests/test_events.py",
    "lib/python3.7/site-packages/IPython/core/tests/test_extension.py",
    "lib/python3.7/site-packages/IPython/core/tests/test_formatters.py",
    "lib/python3.7/site-packages/IPython/core/tests/test_handlers.py",
    "lib/python3.7/site-packages/IPython/core/tests/test_history.py",
    "lib/python3.7/site-packages/IPython/core/tests/test_hooks.py",
    "lib/python3.7/site-packages/IPython/core/tests/test_imports.py",
    "lib/python3.7/site-packages/IPython/core/tests/test_inputsplitter.py",
    "lib/python3.7/site-packages/IPython/core/tests/test_inputtransformer.py",
    "lib/python3.7/site-packages/IPython/core/tests/test_inputtransformer2.py",
    "lib/python3.7/site-packages/IPython/core/tests/test_inputtransformer2_line.py",
    "lib/python3.7/site-packages/IPython/core/tests/test_interactiveshell.py",
    "lib/python3.7/site-packages/IPython/core/tests/test_iplib.py",
    "lib/python3.7/site-packages/IPython/core/tests/test_logger.py",
    "lib/python3.7/site-packages/IPython/core/tests/test_magic.py",
    "lib/python3.7/site-packages/IPython/core/tests/test_magic_arguments.py",
    "lib/python3.7/site-packages/IPython/core/tests/test_magic_terminal.py",
    "lib/python3.7/site-packages/IPython/core/tests/test_oinspect.py",
    "lib/python3.7/site-packages/IPython/core/tests/test_page.py",
    "lib/python3.7/site-packages/IPython/core/tests/test_paths.py",
    "lib/python3.7/site-packages/IPython/core/tests/test_prefilter.py",
    "lib/python3.7/site-packages/IPython/core/tests/test_profile.py",
    "lib/python3.7/site-packages/IPython/core/tests/test_prompts.py",
    "lib/python3.7/site-packages/IPython/core/tests/test_pylabtools.py",
    "lib/python3.7/site-packages/IPython/core/tests/test_run.py",
    "lib/python3.7/site-packages/IPython/core/tests/test_shellapp.py",
    "lib/python3.7/site-packages/IPython/core/tests/test_splitinput.py",
    "lib/python3.7/site-packages/IPython/core/tests/test_ultratb.py",
    "lib/python3.7/site-packages/IPython/core/ultratb.py",
    "lib/python3.7/site-packages/IPython/core/usage.py",
    "lib/python3.7/site-packages/IPython/display.py",
    "lib/python3.7/site-packages/IPython/extensions/__init__.py",
    "lib/python3.7/site-packages/IPython/extensions/__pycache__/__init__.cpython-37.pyc",
    "lib/python3.7/site-packages/IPython/extensions/__pycache__/autoreload.cpython-37.pyc",
    "lib/python3.7/site-packages/IPython/extensions/__pycache__/cythonmagic.cpython-37.pyc",
    "lib/python3.7/site-packages/IPython/extensions/__pycache__/rmagic.cpython-37.pyc",
    "lib/python3.7/site-packages/IPython/extensions/__pycache__/storemagic.cpython-37.pyc",
    "lib/python3.7/site-packages/IPython/extensions/__pycache__/sympyprinting.cpython-37.pyc",
    "lib/python3.7/site-packages/IPython/extensions/autoreload.py",
    "lib/python3.7/site-packages/IPython/extensions/cythonmagic.py",
    "lib/python3.7/site-packages/IPython/extensions/rmagic.py",
    "lib/python3.7/site-packages/IPython/extensions/storemagic.py",
    "lib/python3.7/site-packages/IPython/extensions/sympyprinting.py",
    "lib/python3.7/site-packages/IPython/extensions/tests/__init__.py",
    "lib/python3.7/site-packages/IPython/extensions/tests/__pycache__/__init__.cpython-37.pyc",
    "lib/python3.7/site-packages/IPython/extensions/tests/__pycache__/test_autoreload.cpython-37.pyc",
    "lib/python3.7/site-packages/IPython/extensions/tests/__pycache__/test_storemagic.cpython-37.pyc",
    "lib/python3.7/site-packages/IPython/extensions/tests/test_autoreload.py",
    "lib/python3.7/site-packages/IPython/extensions/tests/test_storemagic.py",
    "lib/python3.7/site-packages/IPython/external/__init__.py",
    "lib/python3.7/site-packages/IPython/external/__pycache__/__init__.cpython-37.pyc",
    "lib/python3.7/site-packages/IPython/external/__pycache__/mathjax.cpython-37.pyc",
    "lib/python3.7/site-packages/IPython/external/__pycache__/qt_for_kernel.cpython-37.pyc",
    "lib/python3.7/site-packages/IPython/external/__pycache__/qt_loaders.cpython-37.pyc",
    "lib/python3.7/site-packages/IPython/external/decorators/__init__.py",
    "lib/python3.7/site-packages/IPython/external/decorators/__pycache__/__init__.cpython-37.pyc",
    "lib/python3.7/site-packages/IPython/external/decorators/__pycache__/_decorators.cpython-37.pyc",
    "lib/python3.7/site-packages/IPython/external/decorators/__pycache__/_numpy_testing_noseclasses.cpython-37.pyc",
    "lib/python3.7/site-packages/IPython/external/decorators/_decorators.py",
    "lib/python3.7/site-packages/IPython/external/decorators/_numpy_testing_noseclasses.py",
    "lib/python3.7/site-packages/IPython/external/mathjax.py",
    "lib/python3.7/site-packages/IPython/external/qt_for_kernel.py",
    "lib/python3.7/site-packages/IPython/external/qt_loaders.py",
    "lib/python3.7/site-packages/IPython/frontend.py",
    "lib/python3.7/site-packages/IPython/html.py",
    "lib/python3.7/site-packages/IPython/kernel/__init__.py",
    "lib/python3.7/site-packages/IPython/kernel/__main__.py",
    "lib/python3.7/site-packages/IPython/kernel/__pycache__/__init__.cpython-37.pyc",
    "lib/python3.7/site-packages/IPython/kernel/__pycache__/__main__.cpython-37.pyc",
    "lib/python3.7/site-packages/IPython/kernel/__pycache__/adapter.cpython-37.pyc",
    "lib/python3.7/site-packages/IPython/kernel/__pycache__/channels.cpython-37.pyc",
    "lib/python3.7/site-packages/IPython/kernel/__pycache__/channelsabc.cpython-37.pyc",
    "lib/python3.7/site-packages/IPython/kernel/__pycache__/client.cpython-37.pyc",
    "lib/python3.7/site-packages/IPython/kernel/__pycache__/clientabc.cpython-37.pyc",
    "lib/python3.7/site-packages/IPython/kernel/__pycache__/connect.cpython-37.pyc",
    "lib/python3.7/site-packages/IPython/kernel/__pycache__/kernelspec.cpython-37.pyc",
    "lib/python3.7/site-packages/IPython/kernel/__pycache__/kernelspecapp.cpython-37.pyc",
    "lib/python3.7/site-packages/IPython/kernel/__pycache__/launcher.cpython-37.pyc",
    "lib/python3.7/site-packages/IPython/kernel/__pycache__/manager.cpython-37.pyc",
    "lib/python3.7/site-packages/IPython/kernel/__pycache__/managerabc.cpython-37.pyc",
    "lib/python3.7/site-packages/IPython/kernel/__pycache__/multikernelmanager.cpython-37.pyc",
    "lib/python3.7/site-packages/IPython/kernel/__pycache__/restarter.cpython-37.pyc",
    "lib/python3.7/site-packages/IPython/kernel/__pycache__/threaded.cpython-37.pyc",
    "lib/python3.7/site-packages/IPython/kernel/adapter.py",
    "lib/python3.7/site-packages/IPython/kernel/channels.py",
    "lib/python3.7/site-packages/IPython/kernel/channelsabc.py",
    "lib/python3.7/site-packages/IPython/kernel/client.py",
    "lib/python3.7/site-packages/IPython/kernel/clientabc.py",
    "lib/python3.7/site-packages/IPython/kernel/connect.py",
    "lib/python3.7/site-packages/IPython/kernel/kernelspec.py",
    "lib/python3.7/site-packages/IPython/kernel/kernelspecapp.py",
    "lib/python3.7/site-packages/IPython/kernel/launcher.py",
    "lib/python3.7/site-packages/IPython/kernel/manager.py",
    "lib/python3.7/site-packages/IPython/kernel/managerabc.py",
    "lib/python3.7/site-packages/IPython/kernel/multikernelmanager.py",
    "lib/python3.7/site-packages/IPython/kernel/restarter.py",
    "lib/python3.7/site-packages/IPython/kernel/threaded.py",
    "lib/python3.7/site-packages/IPython/lib/__init__.py",
    "lib/python3.7/site-packages/IPython/lib/__pycache__/__init__.cpython-37.pyc",
    "lib/python3.7/site-packages/IPython/lib/__pycache__/backgroundjobs.cpython-37.pyc",
    "lib/python3.7/site-packages/IPython/lib/__pycache__/clipboard.cpython-37.pyc",
    "lib/python3.7/site-packages/IPython/lib/__pycache__/deepreload.cpython-37.pyc",
    "lib/python3.7/site-packages/IPython/lib/__pycache__/demo.cpython-37.pyc",
    "lib/python3.7/site-packages/IPython/lib/__pycache__/display.cpython-37.pyc",
    "lib/python3.7/site-packages/IPython/lib/__pycache__/editorhooks.cpython-37.pyc",
    "lib/python3.7/site-packages/IPython/lib/__pycache__/guisupport.cpython-37.pyc",
    "lib/python3.7/site-packages/IPython/lib/__pycache__/inputhook.cpython-37.pyc",
    "lib/python3.7/site-packages/IPython/lib/__pycache__/inputhookglut.cpython-37.pyc",
    "lib/python3.7/site-packages/IPython/lib/__pycache__/inputhookgtk.cpython-37.pyc",
    "lib/python3.7/site-packages/IPython/lib/__pycache__/inputhookgtk3.cpython-37.pyc",
    "lib/python3.7/site-packages/IPython/lib/__pycache__/inputhookpyglet.cpython-37.pyc",
    "lib/python3.7/site-packages/IPython/lib/__pycache__/inputhookqt4.cpython-37.pyc",
    "lib/python3.7/site-packages/IPython/lib/__pycache__/inputhookwx.cpython-37.pyc",
    "lib/python3.7/site-packages/IPython/lib/__pycache__/kernel.cpython-37.pyc",
    "lib/python3.7/site-packages/IPython/lib/__pycache__/latextools.cpython-37.pyc",
    "lib/python3.7/site-packages/IPython/lib/__pycache__/lexers.cpython-37.pyc",
    "lib/python3.7/site-packages/IPython/lib/__pycache__/pretty.cpython-37.pyc",
    "lib/python3.7/site-packages/IPython/lib/__pycache__/security.cpython-37.pyc",
    "lib/python3.7/site-packages/IPython/lib/backgroundjobs.py",
    "lib/python3.7/site-packages/IPython/lib/clipboard.py",
    "lib/python3.7/site-packages/IPython/lib/deepreload.py",
    "lib/python3.7/site-packages/IPython/lib/demo.py",
    "lib/python3.7/site-packages/IPython/lib/display.py",
    "lib/python3.7/site-packages/IPython/lib/editorhooks.py",
    "lib/python3.7/site-packages/IPython/lib/guisupport.py",
    "lib/python3.7/site-packages/IPython/lib/inputhook.py",
    "lib/python3.7/site-packages/IPython/lib/inputhookglut.py",
    "lib/python3.7/site-packages/IPython/lib/inputhookgtk.py",
    "lib/python3.7/site-packages/IPython/lib/inputhookgtk3.py",
    "lib/python3.7/site-packages/IPython/lib/inputhookpyglet.py",
    "lib/python3.7/site-packages/IPython/lib/inputhookqt4.py",
    "lib/python3.7/site-packages/IPython/lib/inputhookwx.py",
    "lib/python3.7/site-packages/IPython/lib/kernel.py",
    "lib/python3.7/site-packages/IPython/lib/latextools.py",
    "lib/python3.7/site-packages/IPython/lib/lexers.py",
    "lib/python3.7/site-packages/IPython/lib/pretty.py",
    "lib/python3.7/site-packages/IPython/lib/security.py",
    "lib/python3.7/site-packages/IPython/lib/tests/__init__.py",
    "lib/python3.7/site-packages/IPython/lib/tests/__pycache__/__init__.cpython-37.pyc",
    "lib/python3.7/site-packages/IPython/lib/tests/__pycache__/test_backgroundjobs.cpython-37.pyc",
    "lib/python3.7/site-packages/IPython/lib/tests/__pycache__/test_clipboard.cpython-37.pyc",
    "lib/python3.7/site-packages/IPython/lib/tests/__pycache__/test_deepreload.cpython-37.pyc",
    "lib/python3.7/site-packages/IPython/lib/tests/__pycache__/test_display.cpython-37.pyc",
    "lib/python3.7/site-packages/IPython/lib/tests/__pycache__/test_editorhooks.cpython-37.pyc",
    "lib/python3.7/site-packages/IPython/lib/tests/__pycache__/test_imports.cpython-37.pyc",
    "lib/python3.7/site-packages/IPython/lib/tests/__pycache__/test_latextools.cpython-37.pyc",
    "lib/python3.7/site-packages/IPython/lib/tests/__pycache__/test_lexers.cpython-37.pyc",
    "lib/python3.7/site-packages/IPython/lib/tests/__pycache__/test_pretty.cpython-37.pyc",
    "lib/python3.7/site-packages/IPython/lib/tests/__pycache__/test_security.cpython-37.pyc",
    "lib/python3.7/site-packages/IPython/lib/tests/test.wav",
    "lib/python3.7/site-packages/IPython/lib/tests/test_backgroundjobs.py",
    "lib/python3.7/site-packages/IPython/lib/tests/test_clipboard.py",
    "lib/python3.7/site-packages/IPython/lib/tests/test_deepreload.py",
    "lib/python3.7/site-packages/IPython/lib/tests/test_display.py",
    "lib/python3.7/site-packages/IPython/lib/tests/test_editorhooks.py",
    "lib/python3.7/site-packages/IPython/lib/tests/test_imports.py",
    "lib/python3.7/site-packages/IPython/lib/tests/test_latextools.py",
    "lib/python3.7/site-packages/IPython/lib/tests/test_lexers.py",
    "lib/python3.7/site-packages/IPython/lib/tests/test_pretty.py",
    "lib/python3.7/site-packages/IPython/lib/tests/test_security.py",
    "lib/python3.7/site-packages/IPython/nbconvert.py",
    "lib/python3.7/site-packages/IPython/nbformat.py",
    "lib/python3.7/site-packages/IPython/parallel.py",
    "lib/python3.7/site-packages/IPython/paths.py",
    "lib/python3.7/site-packages/IPython/qt.py",
    "lib/python3.7/site-packages/IPython/sphinxext/__init__.py",
    "lib/python3.7/site-packages/IPython/sphinxext/__pycache__/__init__.cpython-37.pyc",
    "lib/python3.7/site-packages/IPython/sphinxext/__pycache__/custom_doctests.cpython-37.pyc",
    "lib/python3.7/site-packages/IPython/sphinxext/__pycache__/ipython_console_highlighting.cpython-37.pyc",
    "lib/python3.7/site-packages/IPython/sphinxext/__pycache__/ipython_directive.cpython-37.pyc",
    "lib/python3.7/site-packages/IPython/sphinxext/custom_doctests.py",
    "lib/python3.7/site-packages/IPython/sphinxext/ipython_console_highlighting.py",
    "lib/python3.7/site-packages/IPython/sphinxext/ipython_directive.py",
    "lib/python3.7/site-packages/IPython/terminal/__init__.py",
    "lib/python3.7/site-packages/IPython/terminal/__pycache__/__init__.cpython-37.pyc",
    "lib/python3.7/site-packages/IPython/terminal/__pycache__/console.cpython-37.pyc",
    "lib/python3.7/site-packages/IPython/terminal/__pycache__/debugger.cpython-37.pyc",
    "lib/python3.7/site-packages/IPython/terminal/__pycache__/embed.cpython-37.pyc",
    "lib/python3.7/site-packages/IPython/terminal/__pycache__/interactiveshell.cpython-37.pyc",
    "lib/python3.7/site-packages/IPython/terminal/__pycache__/ipapp.cpython-37.pyc",
    "lib/python3.7/site-packages/IPython/terminal/__pycache__/magics.cpython-37.pyc",
    "lib/python3.7/site-packages/IPython/terminal/__pycache__/prompts.cpython-37.pyc",
    "lib/python3.7/site-packages/IPython/terminal/__pycache__/ptshell.cpython-37.pyc",
    "lib/python3.7/site-packages/IPython/terminal/__pycache__/ptutils.cpython-37.pyc",
    "lib/python3.7/site-packages/IPython/terminal/__pycache__/shortcuts.cpython-37.pyc",
    "lib/python3.7/site-packages/IPython/terminal/console.py",
    "lib/python3.7/site-packages/IPython/terminal/debugger.py",
    "lib/python3.7/site-packages/IPython/terminal/embed.py",
    "lib/python3.7/site-packages/IPython/terminal/interactiveshell.py",
    "lib/python3.7/site-packages/IPython/terminal/ipapp.py",
    "lib/python3.7/site-packages/IPython/terminal/magics.py",
    "lib/python3.7/site-packages/IPython/terminal/prompts.py",
    "lib/python3.7/site-packages/IPython/terminal/pt_inputhooks/__init__.py",
    "lib/python3.7/site-packages/IPython/terminal/pt_inputhooks/__pycache__/__init__.cpython-37.pyc",
    "lib/python3.7/site-packages/IPython/terminal/pt_inputhooks/__pycache__/glut.cpython-37.pyc",
    "lib/python3.7/site-packages/IPython/terminal/pt_inputhooks/__pycache__/gtk.cpython-37.pyc",
    "lib/python3.7/site-packages/IPython/terminal/pt_inputhooks/__pycache__/gtk3.cpython-37.pyc",
    "lib/python3.7/site-packages/IPython/terminal/pt_inputhooks/__pycache__/osx.cpython-37.pyc",
    "lib/python3.7/site-packages/IPython/terminal/pt_inputhooks/__pycache__/pyglet.cpython-37.pyc",
    "lib/python3.7/site-packages/IPython/terminal/pt_inputhooks/__pycache__/qt.cpython-37.pyc",
    "lib/python3.7/site-packages/IPython/terminal/pt_inputhooks/__pycache__/tk.cpython-37.pyc",
    "lib/python3.7/site-packages/IPython/terminal/pt_inputhooks/__pycache__/wx.cpython-37.pyc",
    "lib/python3.7/site-packages/IPython/terminal/pt_inputhooks/glut.py",
    "lib/python3.7/site-packages/IPython/terminal/pt_inputhooks/gtk.py",
    "lib/python3.7/site-packages/IPython/terminal/pt_inputhooks/gtk3.py",
    "lib/python3.7/site-packages/IPython/terminal/pt_inputhooks/osx.py",
    "lib/python3.7/site-packages/IPython/terminal/pt_inputhooks/pyglet.py",
    "lib/python3.7/site-packages/IPython/terminal/pt_inputhooks/qt.py",
    "lib/python3.7/site-packages/IPython/terminal/pt_inputhooks/tk.py",
    "lib/python3.7/site-packages/IPython/terminal/pt_inputhooks/wx.py",
    "lib/python3.7/site-packages/IPython/terminal/ptshell.py",
    "lib/python3.7/site-packages/IPython/terminal/ptutils.py",
    "lib/python3.7/site-packages/IPython/terminal/shortcuts.py",
    "lib/python3.7/site-packages/IPython/terminal/tests/__init__.py",
    "lib/python3.7/site-packages/IPython/terminal/tests/__pycache__/__init__.cpython-37.pyc",
    "lib/python3.7/site-packages/IPython/terminal/tests/__pycache__/test_debug_magic.cpython-37.pyc",
    "lib/python3.7/site-packages/IPython/terminal/tests/__pycache__/test_embed.cpython-37.pyc",
    "lib/python3.7/site-packages/IPython/terminal/tests/__pycache__/test_help.cpython-37.pyc",
    "lib/python3.7/site-packages/IPython/terminal/tests/__pycache__/test_interactivshell.cpython-37.pyc",
    "lib/python3.7/site-packages/IPython/terminal/tests/test_debug_magic.py",
    "lib/python3.7/site-packages/IPython/terminal/tests/test_embed.py",
    "lib/python3.7/site-packages/IPython/terminal/tests/test_help.py",
    "lib/python3.7/site-packages/IPython/terminal/tests/test_interactivshell.py",
    "lib/python3.7/site-packages/IPython/testing/__init__.py",
    "lib/python3.7/site-packages/IPython/testing/__main__.py",
    "lib/python3.7/site-packages/IPython/testing/__pycache__/__init__.cpython-37.pyc",
    "lib/python3.7/site-packages/IPython/testing/__pycache__/__main__.cpython-37.pyc",
    "lib/python3.7/site-packages/IPython/testing/__pycache__/decorators.cpython-37.pyc",
    "lib/python3.7/site-packages/IPython/testing/__pycache__/globalipapp.cpython-37.pyc",
    "lib/python3.7/site-packages/IPython/testing/__pycache__/iptest.cpython-37.pyc",
    "lib/python3.7/site-packages/IPython/testing/__pycache__/iptestcontroller.cpython-37.pyc",
    "lib/python3.7/site-packages/IPython/testing/__pycache__/ipunittest.cpython-37.pyc",
    "lib/python3.7/site-packages/IPython/testing/__pycache__/skipdoctest.cpython-37.pyc",
    "lib/python3.7/site-packages/IPython/testing/__pycache__/tools.cpython-37.pyc",
    "lib/python3.7/site-packages/IPython/testing/decorators.py",
    "lib/python3.7/site-packages/IPython/testing/globalipapp.py",
    "lib/python3.7/site-packages/IPython/testing/iptest.py",
    "lib/python3.7/site-packages/IPython/testing/iptestcontroller.py",
    "lib/python3.7/site-packages/IPython/testing/ipunittest.py",
    "lib/python3.7/site-packages/IPython/testing/plugin/README.txt",
    "lib/python3.7/site-packages/IPython/testing/plugin/__init__.py",
    "lib/python3.7/site-packages/IPython/testing/plugin/__pycache__/__init__.cpython-37.pyc",
    "lib/python3.7/site-packages/IPython/testing/plugin/__pycache__/dtexample.cpython-37.pyc",
    "lib/python3.7/site-packages/IPython/testing/plugin/__pycache__/ipdoctest.cpython-37.pyc",
    "lib/python3.7/site-packages/IPython/testing/plugin/__pycache__/iptest.cpython-37.pyc",
    "lib/python3.7/site-packages/IPython/testing/plugin/__pycache__/setup.cpython-37.pyc",
    "lib/python3.7/site-packages/IPython/testing/plugin/__pycache__/show_refs.cpython-37.pyc",
    "lib/python3.7/site-packages/IPython/testing/plugin/__pycache__/simple.cpython-37.pyc",
    "lib/python3.7/site-packages/IPython/testing/plugin/__pycache__/simplevars.cpython-37.pyc",
    "lib/python3.7/site-packages/IPython/testing/plugin/__pycache__/test_ipdoctest.cpython-37.pyc",
    "lib/python3.7/site-packages/IPython/testing/plugin/__pycache__/test_refs.cpython-37.pyc",
    "lib/python3.7/site-packages/IPython/testing/plugin/dtexample.py",
    "lib/python3.7/site-packages/IPython/testing/plugin/ipdoctest.py",
    "lib/python3.7/site-packages/IPython/testing/plugin/iptest.py",
    "lib/python3.7/site-packages/IPython/testing/plugin/setup.py",
    "lib/python3.7/site-packages/IPython/testing/plugin/show_refs.py",
    "lib/python3.7/site-packages/IPython/testing/plugin/simple.py",
    "lib/python3.7/site-packages/IPython/testing/plugin/simplevars.py",
    "lib/python3.7/site-packages/IPython/testing/plugin/test_combo.txt",
    "lib/python3.7/site-packages/IPython/testing/plugin/test_example.txt",
    "lib/python3.7/site-packages/IPython/testing/plugin/test_exampleip.txt",
    "lib/python3.7/site-packages/IPython/testing/plugin/test_ipdoctest.py",
    "lib/python3.7/site-packages/IPython/testing/plugin/test_refs.py",
    "lib/python3.7/site-packages/IPython/testing/skipdoctest.py",
    "lib/python3.7/site-packages/IPython/testing/tests/__init__.py",
    "lib/python3.7/site-packages/IPython/testing/tests/__pycache__/__init__.cpython-37.pyc",
    "lib/python3.7/site-packages/IPython/testing/tests/__pycache__/test_decorators.cpython-37.pyc",
    "lib/python3.7/site-packages/IPython/testing/tests/__pycache__/test_ipunittest.cpython-37.pyc",
    "lib/python3.7/site-packages/IPython/testing/tests/__pycache__/test_tools.cpython-37.pyc",
    "lib/python3.7/site-packages/IPython/testing/tests/test_decorators.py",
    "lib/python3.7/site-packages/IPython/testing/tests/test_ipunittest.py",
    "lib/python3.7/site-packages/IPython/testing/tests/test_tools.py",
    "lib/python3.7/site-packages/IPython/testing/tools.py",
    "lib/python3.7/site-packages/IPython/utils/PyColorize.py",
    "lib/python3.7/site-packages/IPython/utils/__init__.py",
    "lib/python3.7/site-packages/IPython/utils/__pycache__/PyColorize.cpython-37.pyc",
    "lib/python3.7/site-packages/IPython/utils/__pycache__/__init__.cpython-37.pyc",
    "lib/python3.7/site-packages/IPython/utils/__pycache__/_process_cli.cpython-37.pyc",
    "lib/python3.7/site-packages/IPython/utils/__pycache__/_process_common.cpython-37.pyc",
    "lib/python3.7/site-packages/IPython/utils/__pycache__/_process_posix.cpython-37.pyc",
    "lib/python3.7/site-packages/IPython/utils/__pycache__/_process_win32.cpython-37.pyc",
    "lib/python3.7/site-packages/IPython/utils/__pycache__/_process_win32_controller.cpython-37.pyc",
    "lib/python3.7/site-packages/IPython/utils/__pycache__/_sysinfo.cpython-37.pyc",
    "lib/python3.7/site-packages/IPython/utils/__pycache__/capture.cpython-37.pyc",
    "lib/python3.7/site-packages/IPython/utils/__pycache__/colorable.cpython-37.pyc",
    "lib/python3.7/site-packages/IPython/utils/__pycache__/coloransi.cpython-37.pyc",
    "lib/python3.7/site-packages/IPython/utils/__pycache__/contexts.cpython-37.pyc",
    "lib/python3.7/site-packages/IPython/utils/__pycache__/daemonize.cpython-37.pyc",
    "lib/python3.7/site-packages/IPython/utils/__pycache__/data.cpython-37.pyc",
    "lib/python3.7/site-packages/IPython/utils/__pycache__/decorators.cpython-37.pyc",
    "lib/python3.7/site-packages/IPython/utils/__pycache__/dir2.cpython-37.pyc",
    "lib/python3.7/site-packages/IPython/utils/__pycache__/encoding.cpython-37.pyc",
    "lib/python3.7/site-packages/IPython/utils/__pycache__/eventful.cpython-37.pyc",
    "lib/python3.7/site-packages/IPython/utils/__pycache__/frame.cpython-37.pyc",
    "lib/python3.7/site-packages/IPython/utils/__pycache__/generics.cpython-37.pyc",
    "lib/python3.7/site-packages/IPython/utils/__pycache__/importstring.cpython-37.pyc",
    "lib/python3.7/site-packages/IPython/utils/__pycache__/io.cpython-37.pyc",
    "lib/python3.7/site-packages/IPython/utils/__pycache__/ipstruct.cpython-37.pyc",
    "lib/python3.7/site-packages/IPython/utils/__pycache__/jsonutil.cpython-37.pyc",
    "lib/python3.7/site-packages/IPython/utils/__pycache__/localinterfaces.cpython-37.pyc",
    "lib/python3.7/site-packages/IPython/utils/__pycache__/log.cpython-37.pyc",
    "lib/python3.7/site-packages/IPython/utils/__pycache__/module_paths.cpython-37.pyc",
    "lib/python3.7/site-packages/IPython/utils/__pycache__/openpy.cpython-37.pyc",
    "lib/python3.7/site-packages/IPython/utils/__pycache__/path.cpython-37.pyc",
    "lib/python3.7/site-packages/IPython/utils/__pycache__/pickleutil.cpython-37.pyc",
    "lib/python3.7/site-packages/IPython/utils/__pycache__/process.cpython-37.pyc",
    "lib/python3.7/site-packages/IPython/utils/__pycache__/py3compat.cpython-37.pyc",
    "lib/python3.7/site-packages/IPython/utils/__pycache__/sentinel.cpython-37.pyc",
    "lib/python3.7/site-packages/IPython/utils/__pycache__/shimmodule.cpython-37.pyc",
    "lib/python3.7/site-packages/IPython/utils/__pycache__/signatures.cpython-37.pyc",
    "lib/python3.7/site-packages/IPython/utils/__pycache__/strdispatch.cpython-37.pyc",
    "lib/python3.7/site-packages/IPython/utils/__pycache__/sysinfo.cpython-37.pyc",
    "lib/python3.7/site-packages/IPython/utils/__pycache__/syspathcontext.cpython-37.pyc",
    "lib/python3.7/site-packages/IPython/utils/__pycache__/tempdir.cpython-37.pyc",
    "lib/python3.7/site-packages/IPython/utils/__pycache__/terminal.cpython-37.pyc",
    "lib/python3.7/site-packages/IPython/utils/__pycache__/text.cpython-37.pyc",
    "lib/python3.7/site-packages/IPython/utils/__pycache__/timing.cpython-37.pyc",
    "lib/python3.7/site-packages/IPython/utils/__pycache__/tokenutil.cpython-37.pyc",
    "lib/python3.7/site-packages/IPython/utils/__pycache__/traitlets.cpython-37.pyc",
    "lib/python3.7/site-packages/IPython/utils/__pycache__/tz.cpython-37.pyc",
    "lib/python3.7/site-packages/IPython/utils/__pycache__/ulinecache.cpython-37.pyc",
    "lib/python3.7/site-packages/IPython/utils/__pycache__/version.cpython-37.pyc",
    "lib/python3.7/site-packages/IPython/utils/__pycache__/wildcard.cpython-37.pyc",
    "lib/python3.7/site-packages/IPython/utils/_process_cli.py",
    "lib/python3.7/site-packages/IPython/utils/_process_common.py",
    "lib/python3.7/site-packages/IPython/utils/_process_posix.py",
    "lib/python3.7/site-packages/IPython/utils/_process_win32.py",
    "lib/python3.7/site-packages/IPython/utils/_process_win32_controller.py",
    "lib/python3.7/site-packages/IPython/utils/_sysinfo.py",
    "lib/python3.7/site-packages/IPython/utils/capture.py",
    "lib/python3.7/site-packages/IPython/utils/colorable.py",
    "lib/python3.7/site-packages/IPython/utils/coloransi.py",
    "lib/python3.7/site-packages/IPython/utils/contexts.py",
    "lib/python3.7/site-packages/IPython/utils/daemonize.py",
    "lib/python3.7/site-packages/IPython/utils/data.py",
    "lib/python3.7/site-packages/IPython/utils/decorators.py",
    "lib/python3.7/site-packages/IPython/utils/dir2.py",
    "lib/python3.7/site-packages/IPython/utils/encoding.py",
    "lib/python3.7/site-packages/IPython/utils/eventful.py",
    "lib/python3.7/site-packages/IPython/utils/frame.py",
    "lib/python3.7/site-packages/IPython/utils/generics.py",
    "lib/python3.7/site-packages/IPython/utils/importstring.py",
    "lib/python3.7/site-packages/IPython/utils/io.py",
    "lib/python3.7/site-packages/IPython/utils/ipstruct.py",
    "lib/python3.7/site-packages/IPython/utils/jsonutil.py",
    "lib/python3.7/site-packages/IPython/utils/localinterfaces.py",
    "lib/python3.7/site-packages/IPython/utils/log.py",
    "lib/python3.7/site-packages/IPython/utils/module_paths.py",
    "lib/python3.7/site-packages/IPython/utils/openpy.py",
    "lib/python3.7/site-packages/IPython/utils/path.py",
    "lib/python3.7/site-packages/IPython/utils/pickleutil.py",
    "lib/python3.7/site-packages/IPython/utils/process.py",
    "lib/python3.7/site-packages/IPython/utils/py3compat.py",
    "lib/python3.7/site-packages/IPython/utils/sentinel.py",
    "lib/python3.7/site-packages/IPython/utils/shimmodule.py",
    "lib/python3.7/site-packages/IPython/utils/signatures.py",
    "lib/python3.7/site-packages/IPython/utils/strdispatch.py",
    "lib/python3.7/site-packages/IPython/utils/sysinfo.py",
    "lib/python3.7/site-packages/IPython/utils/syspathcontext.py",
    "lib/python3.7/site-packages/IPython/utils/tempdir.py",
    "lib/python3.7/site-packages/IPython/utils/terminal.py",
    "lib/python3.7/site-packages/IPython/utils/tests/__init__.py",
    "lib/python3.7/site-packages/IPython/utils/tests/__pycache__/__init__.cpython-37.pyc",
    "lib/python3.7/site-packages/IPython/utils/tests/__pycache__/test_capture.cpython-37.pyc",
    "lib/python3.7/site-packages/IPython/utils/tests/__pycache__/test_decorators.cpython-37.pyc",
    "lib/python3.7/site-packages/IPython/utils/tests/__pycache__/test_dir2.cpython-37.pyc",
    "lib/python3.7/site-packages/IPython/utils/tests/__pycache__/test_imports.cpython-37.pyc",
    "lib/python3.7/site-packages/IPython/utils/tests/__pycache__/test_importstring.cpython-37.pyc",
    "lib/python3.7/site-packages/IPython/utils/tests/__pycache__/test_io.cpython-37.pyc",
    "lib/python3.7/site-packages/IPython/utils/tests/__pycache__/test_module_paths.cpython-37.pyc",
    "lib/python3.7/site-packages/IPython/utils/tests/__pycache__/test_openpy.cpython-37.pyc",
    "lib/python3.7/site-packages/IPython/utils/tests/__pycache__/test_path.cpython-37.pyc",
    "lib/python3.7/site-packages/IPython/utils/tests/__pycache__/test_process.cpython-37.pyc",
    "lib/python3.7/site-packages/IPython/utils/tests/__pycache__/test_pycolorize.cpython-37.pyc",
    "lib/python3.7/site-packages/IPython/utils/tests/__pycache__/test_shimmodule.cpython-37.pyc",
    "lib/python3.7/site-packages/IPython/utils/tests/__pycache__/test_sysinfo.cpython-37.pyc",
    "lib/python3.7/site-packages/IPython/utils/tests/__pycache__/test_tempdir.cpython-37.pyc",
    "lib/python3.7/site-packages/IPython/utils/tests/__pycache__/test_text.cpython-37.pyc",
    "lib/python3.7/site-packages/IPython/utils/tests/__pycache__/test_tokenutil.cpython-37.pyc",
    "lib/python3.7/site-packages/IPython/utils/tests/__pycache__/test_wildcard.cpython-37.pyc",
    "lib/python3.7/site-packages/IPython/utils/tests/test_capture.py",
    "lib/python3.7/site-packages/IPython/utils/tests/test_decorators.py",
    "lib/python3.7/site-packages/IPython/utils/tests/test_dir2.py",
    "lib/python3.7/site-packages/IPython/utils/tests/test_imports.py",
    "lib/python3.7/site-packages/IPython/utils/tests/test_importstring.py",
    "lib/python3.7/site-packages/IPython/utils/tests/test_io.py",
    "lib/python3.7/site-packages/IPython/utils/tests/test_module_paths.py",
    "lib/python3.7/site-packages/IPython/utils/tests/test_openpy.py",
    "lib/python3.7/site-packages/IPython/utils/tests/test_path.py",
    "lib/python3.7/site-packages/IPython/utils/tests/test_process.py",
    "lib/python3.7/site-packages/IPython/utils/tests/test_pycolorize.py",
    "lib/python3.7/site-packages/IPython/utils/tests/test_shimmodule.py",
    "lib/python3.7/site-packages/IPython/utils/tests/test_sysinfo.py",
    "lib/python3.7/site-packages/IPython/utils/tests/test_tempdir.py",
    "lib/python3.7/site-packages/IPython/utils/tests/test_text.py",
    "lib/python3.7/site-packages/IPython/utils/tests/test_tokenutil.py",
    "lib/python3.7/site-packages/IPython/utils/tests/test_wildcard.py",
    "lib/python3.7/site-packages/IPython/utils/text.py",
    "lib/python3.7/site-packages/IPython/utils/timing.py",
    "lib/python3.7/site-packages/IPython/utils/tokenutil.py",
    "lib/python3.7/site-packages/IPython/utils/traitlets.py",
    "lib/python3.7/site-packages/IPython/utils/tz.py",
    "lib/python3.7/site-packages/IPython/utils/ulinecache.py",
    "lib/python3.7/site-packages/IPython/utils/version.py",
    "lib/python3.7/site-packages/IPython/utils/wildcard.py",
    "lib/python3.7/site-packages/ipython-7.8.0.dist-info/INSTALLER",
    "lib/python3.7/site-packages/ipython-7.8.0.dist-info/LICENSE",
    "lib/python3.7/site-packages/ipython-7.8.0.dist-info/METADATA",
    "lib/python3.7/site-packages/ipython-7.8.0.dist-info/RECORD",
    "lib/python3.7/site-packages/ipython-7.8.0.dist-info/WHEEL",
    "lib/python3.7/site-packages/ipython-7.8.0.dist-info/entry_points.txt",
    "lib/python3.7/site-packages/ipython-7.8.0.dist-info/top_level.txt",
    "share/man/man1/ipython.1"
  ],
  "fn": "ipython-7.8.0-py37h39e3cac_0.conda",
  "legacy_bz2_md5": "cec5026ad52b66a64df1202f23790ca5",
  "legacy_bz2_size": 1160542,
  "license": "BSD-3-Clause",
  "license_family": "BSD",
  "link": {
    "source": "/home/idoye/Study/Devops/python/python_script/anaconda_ide/anaconda3/pkgs/ipython-7.8.0-py37h39e3cac_0",
    "type": 1
  },
  "md5": "1e5d41235a82aca63ebaf464e97183db",
  "name": "ipython",
  "package_tarball_full_path": "/home/idoye/Study/Devops/python/python_script/anaconda_ide/anaconda3/pkgs/ipython-7.8.0-py37h39e3cac_0.conda",
  "paths_data": {
    "paths": [
      {
        "_path": "bin/iptest",
        "file_mode": "text",
        "path_type": "hardlink",
        "prefix_placeholder": "/opt/anaconda1anaconda2anaconda3",
        "sha256": "0cc2ee892798e75778af88924b3b033f5e561717fc2ce8351b06bd8a3afd640a",
        "sha256_in_prefix": "af3b68079e3171f853025560d74c451766f66b5ceac8ff1ca081ca1dfcac9517",
        "size_in_bytes": 262
      },
      {
        "_path": "bin/iptest3",
        "file_mode": "text",
        "path_type": "hardlink",
        "prefix_placeholder": "/opt/anaconda1anaconda2anaconda3",
        "sha256": "0cc2ee892798e75778af88924b3b033f5e561717fc2ce8351b06bd8a3afd640a",
        "sha256_in_prefix": "af3b68079e3171f853025560d74c451766f66b5ceac8ff1ca081ca1dfcac9517",
        "size_in_bytes": 262
      },
      {
        "_path": "bin/ipython",
        "file_mode": "text",
        "path_type": "hardlink",
        "prefix_placeholder": "/opt/anaconda1anaconda2anaconda3",
        "sha256": "9123c8909867ddb75a5b949ba68450790e883ee772a604fbb783036745a6aec8",
        "sha256_in_prefix": "62991a5bed903042fd98369e5dbca471da3f4b0da72ebf8429db525e2ef30225",
        "size_in_bytes": 255
      },
      {
        "_path": "bin/ipython3",
        "file_mode": "text",
        "path_type": "hardlink",
        "prefix_placeholder": "/opt/anaconda1anaconda2anaconda3",
        "sha256": "9123c8909867ddb75a5b949ba68450790e883ee772a604fbb783036745a6aec8",
        "sha256_in_prefix": "62991a5bed903042fd98369e5dbca471da3f4b0da72ebf8429db525e2ef30225",
        "size_in_bytes": 255
      }
    ],
    "paths_version": 1
  },
  "requested_spec": "ipython==7.8.0=py37h39e3cac_0",
  "sha256": "4fea60c3c22965ddff407124ee9a96ca6eeaba17423dbcd9b50a12ddcabfd373",
  "size": 1008652,
  "subdir": "linux-64",
  "timestamp": 1567191119747,
  "track_features": "",
  "url": "https://repo.anaconda.com/pkgs/main/linux-64/ipython-7.8.0-py37h39e3cac_0.conda",
  "version": "7.8.0"
}