{
  "build": "py_0",
  "build_number": 0,
  "channel": "https://repo.anaconda.com/pkgs/main/noarch",
  "constrains": [],
  "depends": [
    "python"
  ],
  "extracted_package_dir": "/home/idoye/Study/Devops/python/python_script/anaconda_ide/anaconda3/pkgs/json5-0.8.5-py_0",
  "features": "",
  "files": [
    "lib/python3.7/site-packages/README.md",
    "lib/python3.7/site-packages/json5-0.8.5.dist-info/INSTALLER",
    "lib/python3.7/site-packages/json5-0.8.5.dist-info/METADATA",
    "lib/python3.7/site-packages/json5-0.8.5.dist-info/RECORD",
    "lib/python3.7/site-packages/json5-0.8.5.dist-info/WHEEL",
    "lib/python3.7/site-packages/json5-0.8.5.dist-info/entry_points.txt",
    "lib/python3.7/site-packages/json5-0.8.5.dist-info/top_level.txt",
    "lib/python3.7/site-packages/json5/__init__.py",
    "lib/python3.7/site-packages/json5/__main__.py",
    "lib/python3.7/site-packages/json5/arg_parser.py",
    "lib/python3.7/site-packages/json5/host.py",
    "lib/python3.7/site-packages/json5/lib.py",
    "lib/python3.7/site-packages/json5/parser.py",
    "lib/python3.7/site-packages/json5/tool.py",
    "lib/python3.7/site-packages/json5/version.py",
    "lib/python3.7/site-packages/tests/__init__.py",
    "lib/python3.7/site-packages/tests/host_fake.py",
    "lib/python3.7/site-packages/tests/host_test.py",
    "lib/python3.7/site-packages/tests/lib_test.py",
    "lib/python3.7/site-packages/tests/tool_test.py",
    "lib/python3.7/site-packages/json5/__pycache__/__init__.cpython-37.pyc",
    "lib/python3.7/site-packages/json5/__pycache__/__main__.cpython-37.pyc",
    "lib/python3.7/site-packages/json5/__pycache__/arg_parser.cpython-37.pyc",
    "lib/python3.7/site-packages/json5/__pycache__/host.cpython-37.pyc",
    "lib/python3.7/site-packages/json5/__pycache__/lib.cpython-37.pyc",
    "lib/python3.7/site-packages/json5/__pycache__/parser.cpython-37.pyc",
    "lib/python3.7/site-packages/json5/__pycache__/tool.cpython-37.pyc",
    "lib/python3.7/site-packages/json5/__pycache__/version.cpython-37.pyc",
    "lib/python3.7/site-packages/tests/__pycache__/__init__.cpython-37.pyc",
    "lib/python3.7/site-packages/tests/__pycache__/host_fake.cpython-37.pyc",
    "lib/python3.7/site-packages/tests/__pycache__/host_test.cpython-37.pyc",
    "lib/python3.7/site-packages/tests/__pycache__/lib_test.cpython-37.pyc",
    "lib/python3.7/site-packages/tests/__pycache__/tool_test.cpython-37.pyc",
    "bin/pyjson5"
  ],
  "fn": "json5-0.8.5-py_0.tar.bz2",
  "license": "Apache-2.0",
  "license_family": "Apache",
  "link": {
    "source": "/home/idoye/Study/Devops/python/python_script/anaconda_ide/anaconda3/pkgs/json5-0.8.5-py_0",
    "type": 1
  },
  "md5": "83ad1e980816215bab33f7a0c4b8c8da",
  "name": "json5",
  "noarch": "python",
  "package_tarball_full_path": "/home/idoye/Study/Devops/python/python_script/anaconda_ide/anaconda3/pkgs/json5-0.8.5-py_0.tar.bz2",
  "package_type": "noarch_python",
  "paths_data": {
    "paths": [
      {
        "_path": "lib/python3.7/site-packages/json5/__pycache__/__init__.cpython-37.pyc",
        "path_type": "pyc_file"
      },
      {
        "_path": "lib/python3.7/site-packages/json5/__pycache__/__main__.cpython-37.pyc",
        "path_type": "pyc_file"
      },
      {
        "_path": "lib/python3.7/site-packages/json5/__pycache__/arg_parser.cpython-37.pyc",
        "path_type": "pyc_file"
      },
      {
        "_path": "lib/python3.7/site-packages/json5/__pycache__/host.cpython-37.pyc",
        "path_type": "pyc_file"
      },
      {
        "_path": "lib/python3.7/site-packages/json5/__pycache__/lib.cpython-37.pyc",
        "path_type": "pyc_file"
      },
      {
        "_path": "lib/python3.7/site-packages/json5/__pycache__/parser.cpython-37.pyc",
        "path_type": "pyc_file"
      },
      {
        "_path": "lib/python3.7/site-packages/json5/__pycache__/tool.cpython-37.pyc",
        "path_type": "pyc_file"
      },
      {
        "_path": "lib/python3.7/site-packages/json5/__pycache__/version.cpython-37.pyc",
        "path_type": "pyc_file"
      },
      {
        "_path": "lib/python3.7/site-packages/tests/__pycache__/__init__.cpython-37.pyc",
        "path_type": "pyc_file"
      },
      {
        "_path": "lib/python3.7/site-packages/tests/__pycache__/host_fake.cpython-37.pyc",
        "path_type": "pyc_file"
      },
      {
        "_path": "lib/python3.7/site-packages/tests/__pycache__/host_test.cpython-37.pyc",
        "path_type": "pyc_file"
      },
      {
        "_path": "lib/python3.7/site-packages/tests/__pycache__/lib_test.cpython-37.pyc",
        "path_type": "pyc_file"
      },
      {
        "_path": "lib/python3.7/site-packages/tests/__pycache__/tool_test.cpython-37.pyc",
        "path_type": "pyc_file"
      },
      {
        "_path": "bin/pyjson5",
        "path_type": "unix_python_entry_point"
      }
    ],
    "paths_version": 1
  },
  "requested_spec": "json5==0.8.5=py_0",
  "sha256": "52657ae3595a06c74e94f347ccb6363d702bd38854d4b945e700913328574ccb",
  "size": 25614,
  "subdir": "noarch",
  "timestamp": 1565189350008,
  "track_features": "",
  "url": "https://repo.anaconda.com/pkgs/main/noarch/json5-0.8.5-py_0.tar.bz2",
  "version": "0.8.5"
}