{
  "build": "py37_1",
  "build_number": 1,
  "channel": "https://repo.anaconda.com/pkgs/main/linux-64",
  "constrains": [],
  "depends": [
    "jupyter_core",
    "python >=3.7,<3.8.0a0",
    "python-dateutil >=2.1",
    "pyzmq >=13",
    "tornado >=4.1",
    "traitlets"
  ],
  "extracted_package_dir": "/home/idoye/Study/Devops/python/python_script/anaconda_ide/anaconda3/pkgs/jupyter_client-5.3.3-py37_1",
  "features": "",
  "files": [
    "bin/jupyter-kernel",
    "bin/jupyter-kernelspec",
    "bin/jupyter-run",
    "lib/python3.7/site-packages/jupyter_client-5.3.3.dist-info/COPYING.md",
    "lib/python3.7/site-packages/jupyter_client-5.3.3.dist-info/INSTALLER",
    "lib/python3.7/site-packages/jupyter_client-5.3.3.dist-info/METADATA",
    "lib/python3.7/site-packages/jupyter_client-5.3.3.dist-info/RECORD",
    "lib/python3.7/site-packages/jupyter_client-5.3.3.dist-info/WHEEL",
    "lib/python3.7/site-packages/jupyter_client-5.3.3.dist-info/entry_points.txt",
    "lib/python3.7/site-packages/jupyter_client-5.3.3.dist-info/top_level.txt",
    "lib/python3.7/site-packages/jupyter_client/__init__.py",
    "lib/python3.7/site-packages/jupyter_client/__pycache__/__init__.cpython-37.pyc",
    "lib/python3.7/site-packages/jupyter_client/__pycache__/_version.cpython-37.pyc",
    "lib/python3.7/site-packages/jupyter_client/__pycache__/adapter.cpython-37.pyc",
    "lib/python3.7/site-packages/jupyter_client/__pycache__/channels.cpython-37.pyc",
    "lib/python3.7/site-packages/jupyter_client/__pycache__/channelsabc.cpython-37.pyc",
    "lib/python3.7/site-packages/jupyter_client/__pycache__/client.cpython-37.pyc",
    "lib/python3.7/site-packages/jupyter_client/__pycache__/clientabc.cpython-37.pyc",
    "lib/python3.7/site-packages/jupyter_client/__pycache__/connect.cpython-37.pyc",
    "lib/python3.7/site-packages/jupyter_client/__pycache__/consoleapp.cpython-37.pyc",
    "lib/python3.7/site-packages/jupyter_client/__pycache__/jsonutil.cpython-37.pyc",
    "lib/python3.7/site-packages/jupyter_client/__pycache__/kernelapp.cpython-37.pyc",
    "lib/python3.7/site-packages/jupyter_client/__pycache__/kernelspec.cpython-37.pyc",
    "lib/python3.7/site-packages/jupyter_client/__pycache__/kernelspecapp.cpython-37.pyc",
    "lib/python3.7/site-packages/jupyter_client/__pycache__/launcher.cpython-37.pyc",
    "lib/python3.7/site-packages/jupyter_client/__pycache__/localinterfaces.cpython-37.pyc",
    "lib/python3.7/site-packages/jupyter_client/__pycache__/manager.cpython-37.pyc",
    "lib/python3.7/site-packages/jupyter_client/__pycache__/managerabc.cpython-37.pyc",
    "lib/python3.7/site-packages/jupyter_client/__pycache__/multikernelmanager.cpython-37.pyc",
    "lib/python3.7/site-packages/jupyter_client/__pycache__/restarter.cpython-37.pyc",
    "lib/python3.7/site-packages/jupyter_client/__pycache__/runapp.cpython-37.pyc",
    "lib/python3.7/site-packages/jupyter_client/__pycache__/session.cpython-37.pyc",
    "lib/python3.7/site-packages/jupyter_client/__pycache__/threaded.cpython-37.pyc",
    "lib/python3.7/site-packages/jupyter_client/__pycache__/win_interrupt.cpython-37.pyc",
    "lib/python3.7/site-packages/jupyter_client/_version.py",
    "lib/python3.7/site-packages/jupyter_client/adapter.py",
    "lib/python3.7/site-packages/jupyter_client/blocking/__init__.py",
    "lib/python3.7/site-packages/jupyter_client/blocking/__pycache__/__init__.cpython-37.pyc",
    "lib/python3.7/site-packages/jupyter_client/blocking/__pycache__/channels.cpython-37.pyc",
    "lib/python3.7/site-packages/jupyter_client/blocking/__pycache__/client.cpython-37.pyc",
    "lib/python3.7/site-packages/jupyter_client/blocking/channels.py",
    "lib/python3.7/site-packages/jupyter_client/blocking/client.py",
    "lib/python3.7/site-packages/jupyter_client/channels.py",
    "lib/python3.7/site-packages/jupyter_client/channelsabc.py",
    "lib/python3.7/site-packages/jupyter_client/client.py",
    "lib/python3.7/site-packages/jupyter_client/clientabc.py",
    "lib/python3.7/site-packages/jupyter_client/connect.py",
    "lib/python3.7/site-packages/jupyter_client/consoleapp.py",
    "lib/python3.7/site-packages/jupyter_client/ioloop/__init__.py",
    "lib/python3.7/site-packages/jupyter_client/ioloop/__pycache__/__init__.cpython-37.pyc",
    "lib/python3.7/site-packages/jupyter_client/ioloop/__pycache__/manager.cpython-37.pyc",
    "lib/python3.7/site-packages/jupyter_client/ioloop/__pycache__/restarter.cpython-37.pyc",
    "lib/python3.7/site-packages/jupyter_client/ioloop/manager.py",
    "lib/python3.7/site-packages/jupyter_client/ioloop/restarter.py",
    "lib/python3.7/site-packages/jupyter_client/jsonutil.py",
    "lib/python3.7/site-packages/jupyter_client/kernelapp.py",
    "lib/python3.7/site-packages/jupyter_client/kernelspec.py",
    "lib/python3.7/site-packages/jupyter_client/kernelspecapp.py",
    "lib/python3.7/site-packages/jupyter_client/launcher.py",
    "lib/python3.7/site-packages/jupyter_client/localinterfaces.py",
    "lib/python3.7/site-packages/jupyter_client/manager.py",
    "lib/python3.7/site-packages/jupyter_client/managerabc.py",
    "lib/python3.7/site-packages/jupyter_client/multikernelmanager.py",
    "lib/python3.7/site-packages/jupyter_client/restarter.py",
    "lib/python3.7/site-packages/jupyter_client/runapp.py",
    "lib/python3.7/site-packages/jupyter_client/session.py",
    "lib/python3.7/site-packages/jupyter_client/tests/__init__.py",
    "lib/python3.7/site-packages/jupyter_client/tests/__pycache__/__init__.cpython-37.pyc",
    "lib/python3.7/site-packages/jupyter_client/tests/__pycache__/signalkernel.cpython-37.pyc",
    "lib/python3.7/site-packages/jupyter_client/tests/__pycache__/test_adapter.cpython-37.pyc",
    "lib/python3.7/site-packages/jupyter_client/tests/__pycache__/test_client.cpython-37.pyc",
    "lib/python3.7/site-packages/jupyter_client/tests/__pycache__/test_connect.cpython-37.pyc",
    "lib/python3.7/site-packages/jupyter_client/tests/__pycache__/test_jsonutil.cpython-37.pyc",
    "lib/python3.7/site-packages/jupyter_client/tests/__pycache__/test_kernelapp.cpython-37.pyc",
    "lib/python3.7/site-packages/jupyter_client/tests/__pycache__/test_kernelmanager.cpython-37.pyc",
    "lib/python3.7/site-packages/jupyter_client/tests/__pycache__/test_kernelspec.cpython-37.pyc",
    "lib/python3.7/site-packages/jupyter_client/tests/__pycache__/test_localinterfaces.cpython-37.pyc",
    "lib/python3.7/site-packages/jupyter_client/tests/__pycache__/test_multikernelmanager.cpython-37.pyc",
    "lib/python3.7/site-packages/jupyter_client/tests/__pycache__/test_public_api.cpython-37.pyc",
    "lib/python3.7/site-packages/jupyter_client/tests/__pycache__/test_session.cpython-37.pyc",
    "lib/python3.7/site-packages/jupyter_client/tests/__pycache__/utils.cpython-37.pyc",
    "lib/python3.7/site-packages/jupyter_client/tests/signalkernel.py",
    "lib/python3.7/site-packages/jupyter_client/tests/test_adapter.py",
    "lib/python3.7/site-packages/jupyter_client/tests/test_client.py",
    "lib/python3.7/site-packages/jupyter_client/tests/test_connect.py",
    "lib/python3.7/site-packages/jupyter_client/tests/test_jsonutil.py",
    "lib/python3.7/site-packages/jupyter_client/tests/test_kernelapp.py",
    "lib/python3.7/site-packages/jupyter_client/tests/test_kernelmanager.py",
    "lib/python3.7/site-packages/jupyter_client/tests/test_kernelspec.py",
    "lib/python3.7/site-packages/jupyter_client/tests/test_localinterfaces.py",
    "lib/python3.7/site-packages/jupyter_client/tests/test_multikernelmanager.py",
    "lib/python3.7/site-packages/jupyter_client/tests/test_public_api.py",
    "lib/python3.7/site-packages/jupyter_client/tests/test_session.py",
    "lib/python3.7/site-packages/jupyter_client/tests/utils.py",
    "lib/python3.7/site-packages/jupyter_client/threaded.py",
    "lib/python3.7/site-packages/jupyter_client/win_interrupt.py"
  ],
  "fn": "jupyter_client-5.3.3-py37_1.tar.bz2",
  "license": "BSD 3-clause",
  "link": {
    "source": "/home/idoye/Study/Devops/python/python_script/anaconda_ide/anaconda3/pkgs/jupyter_client-5.3.3-py37_1",
    "type": 1
  },
  "md5": "2b47763bbb6db038c56736eceae2cb37",
  "name": "jupyter_client",
  "package_tarball_full_path": "/home/idoye/Study/Devops/python/python_script/anaconda_ide/anaconda3/pkgs/jupyter_client-5.3.3-py37_1.tar.bz2",
  "paths_data": {
    "paths": [
      {
        "_path": "bin/jupyter-kernel",
        "file_mode": "text",
        "path_type": "hardlink",
        "prefix_placeholder": "/opt/anaconda1anaconda2anaconda3",
        "sha256": "52b2f3cd4b4dea519f3cd55c4f0e367baba72c66f2558dfd41db0f81e6c3f523",
        "sha256_in_prefix": "8aa875e296403515c45505502f2e9e67e9fe078027b7d5524f6d1b44481f69f9",
        "size_in_bytes": 254
      },
      {
        "_path": "bin/jupyter-kernelspec",
        "file_mode": "text",
        "path_type": "hardlink",
        "prefix_placeholder": "/opt/anaconda1anaconda2anaconda3",
        "sha256": "edbcdbdae9b214426bec6ecc2c195c76726b57428eb88ec838529646a3977360",
        "sha256_in_prefix": "95ff3ecbd6b5a66e1d499529549a63461ebebf27c159fd96236ce1cb086c4f17",
        "size_in_bytes": 292
      },
      {
        "_path": "bin/jupyter-run",
        "file_mode": "text",
        "path_type": "hardlink",
        "prefix_placeholder": "/opt/anaconda1anaconda2anaconda3",
        "sha256": "ee56438c057b7d4271966cdc0dda56123ade17035d5db7ad63f50f71287cf29d",
        "sha256_in_prefix": "cfa81cfefa39cf6a81e84c2d337db17ad81bec5952f5853ef88af8271bfaa5f2",
        "size_in_bytes": 251
      }
    ],
    "paths_version": 1
  },
  "requested_spec": "jupyter_client==5.3.3=py37_1",
  "sha256": "22d71e42d8f0fcfba9d4ce546f7d991b696bd7e50bb607ae4a8e25c05d6b608d",
  "size": 140123,
  "subdir": "linux-64",
  "timestamp": 1569448156654,
  "track_features": "",
  "url": "https://repo.anaconda.com/pkgs/main/linux-64/jupyter_client-5.3.3-py37_1.tar.bz2",
  "version": "5.3.3"
}