{
  "build": "hbc83047_0",
  "build_number": 0,
  "channel": "https://repo.anaconda.com/pkgs/main/linux-64",
  "constrains": [],
  "depends": [
    "libgcc-ng >=7.3.0",
    "zlib >=1.2.11,<1.3.0a0"
  ],
  "extracted_package_dir": "/home/idoye/Study/Devops/python/python_script/anaconda_ide/anaconda3/pkgs/libpng-1.6.37-hbc83047_0",
  "features": "",
  "files": [
    "bin/libpng-config",
    "bin/libpng16-config",
    "bin/png-fix-itxt",
    "bin/pngfix",
    "include/libpng16/png.h",
    "include/libpng16/pngconf.h",
    "include/libpng16/pnglibconf.h",
    "include/png.h",
    "include/pngconf.h",
    "include/pnglibconf.h",
    "lib/libpng.a",
    "lib/libpng.so",
    "lib/libpng16.a",
    "lib/libpng16.so",
    "lib/libpng16.so.16",
    "lib/libpng16.so.16.37.0",
    "lib/pkgconfig/libpng.pc",
    "lib/pkgconfig/libpng16.pc",
    "share/man/man3/libpng.3",
    "share/man/man3/libpngpf.3",
    "share/man/man5/png.5"
  ],
  "fn": "libpng-1.6.37-hbc83047_0.conda",
  "legacy_bz2_md5": "9cb85601944ca7383b1769bff74b94e8",
  "legacy_bz2_size": 372914,
  "license": "zlib/libpng",
  "link": {
    "source": "/home/idoye/Study/Devops/python/python_script/anaconda_ide/anaconda3/pkgs/libpng-1.6.37-hbc83047_0",
    "type": 1
  },
  "md5": "689f903925dcf6c5ab7bc1de0f58b67b",
  "name": "libpng",
  "package_tarball_full_path": "/home/idoye/Study/Devops/python/python_script/anaconda_ide/anaconda3/pkgs/libpng-1.6.37-hbc83047_0.conda",
  "paths_data": {
    "paths": [
      {
        "_path": "bin/libpng16-config",
        "file_mode": "text",
        "path_type": "hardlink",
        "prefix_placeholder": "/opt/anaconda1anaconda2anaconda3",
        "sha256": "5ee8287ea322bfa64a457ccd32ed2556528a43c891b587527173856ae1ed9e34",
        "sha256_in_prefix": "97e024b47882a6288badcde9dd84098524fd25318728ce7ad0e1d715f92f9fef",
        "size_in_bytes": 2349
      },
      {
        "_path": "lib/pkgconfig/libpng16.pc",
        "file_mode": "text",
        "path_type": "hardlink",
        "prefix_placeholder": "/opt/anaconda1anaconda2anaconda3",
        "sha256": "dbcb1357d66f3d55d44641dbb2a7ce77dddebb64ae79805b74bca80d7eda6ae2",
        "sha256_in_prefix": "3fda5b669957b3b2b373a4ce87d1ef09ae5f486ee68a3e4365550924dd9548a4",
        "size_in_bytes": 287
      }
    ],
    "paths_version": 1
  },
  "requested_spec": "libpng==1.6.37=hbc83047_0",
  "sha256": "4f99638c8da0abe841c2b4bc337839f2a01363d40cfc334c0084e79dc0fd0a0d",
  "size": 284656,
  "subdir": "linux-64",
  "timestamp": 1556041895170,
  "track_features": "",
  "url": "https://repo.anaconda.com/pkgs/main/linux-64/libpng-1.6.37-hbc83047_0.conda",
  "version": "1.6.37"
}