{
  "build": "h7d1a2b0_0",
  "build_number": 0,
  "channel": "https://repo.anaconda.com/pkgs/main/linux-64",
  "constrains": [],
  "depends": [
    "icu >=58.2,<59.0a0",
    "libgcc-ng >=7.3.0",
    "libxml2 >=2.9.8,<2.10.0a0"
  ],
  "extracted_package_dir": "/home/idoye/Study/Devops/python/python_script/anaconda_ide/anaconda3/pkgs/libxslt-1.1.33-h7d1a2b0_0",
  "features": "",
  "files": [
    "bin/xml2-config.bak",
    "bin/xslt-config",
    "bin/xsltproc",
    "include/libexslt/exslt.h",
    "include/libexslt/exsltconfig.h",
    "include/libexslt/exsltexports.h",
    "include/libxslt/attributes.h",
    "include/libxslt/documents.h",
    "include/libxslt/extensions.h",
    "include/libxslt/extra.h",
    "include/libxslt/functions.h",
    "include/libxslt/imports.h",
    "include/libxslt/keys.h",
    "include/libxslt/namespaces.h",
    "include/libxslt/numbersInternals.h",
    "include/libxslt/pattern.h",
    "include/libxslt/preproc.h",
    "include/libxslt/security.h",
    "include/libxslt/templates.h",
    "include/libxslt/transform.h",
    "include/libxslt/variables.h",
    "include/libxslt/xslt.h",
    "include/libxslt/xsltInternals.h",
    "include/libxslt/xsltconfig.h",
    "include/libxslt/xsltexports.h",
    "include/libxslt/xsltlocale.h",
    "include/libxslt/xsltutils.h",
    "lib/libexslt.a",
    "lib/libexslt.so",
    "lib/libexslt.so.0",
    "lib/libexslt.so.0.8.20",
    "lib/libxslt.a",
    "lib/libxslt.so",
    "lib/libxslt.so.1",
    "lib/libxslt.so.1.1.33",
    "lib/pkgconfig/libexslt.pc",
    "lib/pkgconfig/libxslt.pc",
    "lib/xsltConf.sh",
    "share/aclocal/libxslt.m4",
    "share/doc/libxslt-1.1.33/html/API.html",
    "share/doc/libxslt-1.1.33/html/APIchunk0.html",
    "share/doc/libxslt-1.1.33/html/APIchunk1.html",
    "share/doc/libxslt-1.1.33/html/APIchunk10.html",
    "share/doc/libxslt-1.1.33/html/APIchunk11.html",
    "share/doc/libxslt-1.1.33/html/APIchunk12.html",
    "share/doc/libxslt-1.1.33/html/APIchunk13.html",
    "share/doc/libxslt-1.1.33/html/APIchunk2.html",
    "share/doc/libxslt-1.1.33/html/APIchunk3.html",
    "share/doc/libxslt-1.1.33/html/APIchunk4.html",
    "share/doc/libxslt-1.1.33/html/APIchunk5.html",
    "share/doc/libxslt-1.1.33/html/APIchunk6.html",
    "share/doc/libxslt-1.1.33/html/APIchunk7.html",
    "share/doc/libxslt-1.1.33/html/APIchunk8.html",
    "share/doc/libxslt-1.1.33/html/APIchunk9.html",
    "share/doc/libxslt-1.1.33/html/APIconstructors.html",
    "share/doc/libxslt-1.1.33/html/APIfiles.html",
    "share/doc/libxslt-1.1.33/html/APIfunctions.html",
    "share/doc/libxslt-1.1.33/html/APIsymbols.html",
    "share/doc/libxslt-1.1.33/html/EXSLT/APIchunk0.html",
    "share/doc/libxslt-1.1.33/html/EXSLT/APIconstructors.html",
    "share/doc/libxslt-1.1.33/html/EXSLT/APIfiles.html",
    "share/doc/libxslt-1.1.33/html/EXSLT/APIfunctions.html",
    "share/doc/libxslt-1.1.33/html/EXSLT/APIsymbols.html",
    "share/doc/libxslt-1.1.33/html/EXSLT/bugs.html",
    "share/doc/libxslt-1.1.33/html/EXSLT/docs.html",
    "share/doc/libxslt-1.1.33/html/EXSLT/downloads.html",
    "share/doc/libxslt-1.1.33/html/EXSLT/exslt.html",
    "share/doc/libxslt-1.1.33/html/EXSLT/help.html",
    "share/doc/libxslt-1.1.33/html/EXSLT/index.html",
    "share/doc/libxslt-1.1.33/html/EXSLT/intro.html",
    "share/doc/libxslt-1.1.33/html/FAQ.html",
    "share/doc/libxslt-1.1.33/html/Libxslt-Logo-180x168.gif",
    "share/doc/libxslt-1.1.33/html/Libxslt-Logo-90x34.gif",
    "share/doc/libxslt-1.1.33/html/bugs.html",
    "share/doc/libxslt-1.1.33/html/contexts.gif",
    "share/doc/libxslt-1.1.33/html/contribs.html",
    "share/doc/libxslt-1.1.33/html/docbook.html",
    "share/doc/libxslt-1.1.33/html/docs.html",
    "share/doc/libxslt-1.1.33/html/downloads.html",
    "share/doc/libxslt-1.1.33/html/extensions.html",
    "share/doc/libxslt-1.1.33/html/help.html",
    "share/doc/libxslt-1.1.33/html/html/book1.html",
    "share/doc/libxslt-1.1.33/html/html/home.png",
    "share/doc/libxslt-1.1.33/html/html/index.html",
    "share/doc/libxslt-1.1.33/html/html/left.png",
    "share/doc/libxslt-1.1.33/html/html/libxslt-attributes.html",
    "share/doc/libxslt-1.1.33/html/html/libxslt-documents.html",
    "share/doc/libxslt-1.1.33/html/html/libxslt-extensions.html",
    "share/doc/libxslt-1.1.33/html/html/libxslt-extra.html",
    "share/doc/libxslt-1.1.33/html/html/libxslt-functions.html",
    "share/doc/libxslt-1.1.33/html/html/libxslt-imports.html",
    "share/doc/libxslt-1.1.33/html/html/libxslt-keys.html",
    "share/doc/libxslt-1.1.33/html/html/libxslt-lib.html",
    "share/doc/libxslt-1.1.33/html/html/libxslt-namespaces.html",
    "share/doc/libxslt-1.1.33/html/html/libxslt-numbersInternals.html",
    "share/doc/libxslt-1.1.33/html/html/libxslt-pattern.html",
    "share/doc/libxslt-1.1.33/html/html/libxslt-preproc.html",
    "share/doc/libxslt-1.1.33/html/html/libxslt-security.html",
    "share/doc/libxslt-1.1.33/html/html/libxslt-templates.html",
    "share/doc/libxslt-1.1.33/html/html/libxslt-transform.html",
    "share/doc/libxslt-1.1.33/html/html/libxslt-variables.html",
    "share/doc/libxslt-1.1.33/html/html/libxslt-xslt.html",
    "share/doc/libxslt-1.1.33/html/html/libxslt-xsltInternals.html",
    "share/doc/libxslt-1.1.33/html/html/libxslt-xsltexports.html",
    "share/doc/libxslt-1.1.33/html/html/libxslt-xsltlocale.html",
    "share/doc/libxslt-1.1.33/html/html/libxslt-xsltutils.html",
    "share/doc/libxslt-1.1.33/html/html/right.png",
    "share/doc/libxslt-1.1.33/html/html/up.png",
    "share/doc/libxslt-1.1.33/html/index.html",
    "share/doc/libxslt-1.1.33/html/internals.html",
    "share/doc/libxslt-1.1.33/html/intro.html",
    "share/doc/libxslt-1.1.33/html/news.html",
    "share/doc/libxslt-1.1.33/html/node.gif",
    "share/doc/libxslt-1.1.33/html/object.gif",
    "share/doc/libxslt-1.1.33/html/processing.gif",
    "share/doc/libxslt-1.1.33/html/python.html",
    "share/doc/libxslt-1.1.33/html/redhat.gif",
    "share/doc/libxslt-1.1.33/html/smallfootonly.gif",
    "share/doc/libxslt-1.1.33/html/stylesheet.gif",
    "share/doc/libxslt-1.1.33/html/templates.gif",
    "share/doc/libxslt-1.1.33/html/tutorial/libxslt_tutorial.c",
    "share/doc/libxslt-1.1.33/html/tutorial/libxslttutorial.html",
    "share/doc/libxslt-1.1.33/html/tutorial/libxslttutorial.xml",
    "share/doc/libxslt-1.1.33/html/tutorial2/libxslt_pipes.c",
    "share/doc/libxslt-1.1.33/html/tutorial2/libxslt_pipes.html",
    "share/doc/libxslt-1.1.33/html/tutorial2/libxslt_pipes.xml",
    "share/doc/libxslt-1.1.33/html/xslt.html",
    "share/doc/libxslt-1.1.33/html/xsltproc.html",
    "share/doc/libxslt-1.1.33/html/xsltproc2.html",
    "share/man/man1/xsltproc.1",
    "share/man/man3/libexslt.3",
    "share/man/man3/libxslt.3"
  ],
  "fn": "libxslt-1.1.33-h7d1a2b0_0.conda",
  "legacy_bz2_md5": "33a5cde90b012a948aa6a821d11ebfcb",
  "legacy_bz2_size": 591009,
  "license": "MIT",
  "link": {
    "source": "/home/idoye/Study/Devops/python/python_script/anaconda_ide/anaconda3/pkgs/libxslt-1.1.33-h7d1a2b0_0",
    "type": 1
  },
  "md5": "56c05c1104eb8f0dd29230bc757241cc",
  "name": "libxslt",
  "package_tarball_full_path": "/home/idoye/Study/Devops/python/python_script/anaconda_ide/anaconda3/pkgs/libxslt-1.1.33-h7d1a2b0_0.conda",
  "paths_data": {
    "paths": [
      {
        "_path": "bin/xml2-config.bak",
        "file_mode": "text",
        "path_type": "hardlink",
        "prefix_placeholder": "/opt/anaconda1anaconda2anaconda3",
        "sha256": "f9563f1121b533dd92b7e0c71cbb51296a30b200fbb6e0b0fd8adc814f694690",
        "sha256_in_prefix": "ed1e34e90aaabccd76f730f0ae11f887c4b40b14523aca402328289772d6b19e",
        "size_in_bytes": 2277
      },
      {
        "_path": "bin/xslt-config",
        "file_mode": "text",
        "path_type": "hardlink",
        "prefix_placeholder": "/opt/anaconda1anaconda2anaconda3",
        "sha256": "fbe3e6032533f1649fae3edcfefcc9985d3ca40678c1d20f815105efdc2b5095",
        "sha256_in_prefix": "a22de42be00792536c2772620c97c75900aba5c018ee94595456c21682c95c0d",
        "size_in_bytes": 2685
      },
      {
        "_path": "include/libxslt/xsltconfig.h",
        "file_mode": "text",
        "path_type": "hardlink",
        "prefix_placeholder": "/opt/anaconda1anaconda2anaconda3",
        "sha256": "4b284a58c47cb63ff655b8efff1737d0ee938b2259812ed7fb2f53c25bed2084",
        "sha256_in_prefix": "88267417ed07539a9483b61b1ac9f85571c141fb26793a354ce9b4012cca707b",
        "size_in_bytes": 3516
      },
      {
        "_path": "lib/libxslt.a",
        "file_mode": "binary",
        "path_type": "hardlink",
        "prefix_placeholder": "/tmp/build/80754af9/libxslt_1547922779889/_h_env_placehold_placehold_placehold_placehold_placehold_placehold_placehold_placehold_placehold_placehold_placehold_placehold_placehold_placehold_placehold_placehold_placehold_placehold_placehold_placehold_placeh",
        "sha256": "9a1a4c8c62140165547613662db449c90a70232e891d5fa64ac016202c224d7f",
        "sha256_in_prefix": "a814286f5f5e3b05623015172fd2c53403f4bdc83e1c459e2597472353550c02",
        "size_in_bytes": 520932
      },
      {
        "_path": "lib/libxslt.so.1.1.33",
        "file_mode": "binary",
        "path_type": "hardlink",
        "prefix_placeholder": "/tmp/build/80754af9/libxslt_1547922779889/_h_env_placehold_placehold_placehold_placehold_placehold_placehold_placehold_placehold_placehold_placehold_placehold_placehold_placehold_placehold_placehold_placehold_placehold_placehold_placehold_placehold_placeh",
        "sha256": "da2a23e05d42f7c10d8e97d228532f0d725e78662b2ae583f17e8331032bf7a2",
        "sha256_in_prefix": "8230f97db7f1cf42b826ebd24f778d8a7bd0d025b3eb4a5278fddcab4fc34274",
        "size_in_bytes": 297000
      },
      {
        "_path": "lib/pkgconfig/libexslt.pc",
        "file_mode": "text",
        "path_type": "hardlink",
        "prefix_placeholder": "/opt/anaconda1anaconda2anaconda3",
        "sha256": "bdaea61c6721533cec3b8b85a99e1c5b594d79cc3144a2b872ae71716922f7d1",
        "sha256_in_prefix": "05563f7b9c3d1b9421047c6963138aa00ca2cc3f139a5f0f6827b1ae8868dc58",
        "size_in_bytes": 509
      },
      {
        "_path": "lib/pkgconfig/libxslt.pc",
        "file_mode": "text",
        "path_type": "hardlink",
        "prefix_placeholder": "/opt/anaconda1anaconda2anaconda3",
        "sha256": "a2fe998de7a0b834d291c4a06a28cfad194f361d7837a23b81ef05dd021893d0",
        "sha256_in_prefix": "9542163942bd73460c7611cedca07dad69133da4a6d40cc155806d3a99bf5cf4",
        "size_in_bytes": 505
      },
      {
        "_path": "lib/xsltConf.sh",
        "file_mode": "text",
        "path_type": "hardlink",
        "prefix_placeholder": "/opt/anaconda1anaconda2anaconda3",
        "sha256": "3cbeff750ed91b29b41740053936bfdcfdb295dc1fb4d54ebe06c65895c28245",
        "sha256_in_prefix": "d2503beeb2a08043d238cfb852129421dda413292e5f17364ca291630dc4f226",
        "size_in_bytes": 462
      }
    ],
    "paths_version": 1
  },
  "requested_spec": "libxslt==1.1.33=h7d1a2b0_0",
  "sha256": "4b013ba71a910ddeb6ccd580fde5dc42367a1bee44aae3970cad42f3e1800325",
  "size": 436699,
  "subdir": "linux-64",
  "timestamp": 1547922875391,
  "track_features": "",
  "url": "https://repo.anaconda.com/pkgs/main/linux-64/libxslt-1.1.33-h7d1a2b0_0.conda",
  "version": "1.1.33"
}