{
  "build": "py37_1",
  "build_number": 1,
  "channel": "https://repo.anaconda.com/pkgs/main/linux-64",
  "constrains": [],
  "depends": [
    "python >=3.7,<3.8.0a0"
  ],
  "extracted_package_dir": "/home/idoye/Study/Devops/python/python_script/anaconda_ide/anaconda3/pkgs/mccabe-0.6.1-py37_1",
  "features": "",
  "files": [
    "lib/python3.7/site-packages/__pycache__/mccabe.cpython-37.pyc",
    "lib/python3.7/site-packages/mccabe-0.6.1-py3.7.egg-info/PKG-INFO",
    "lib/python3.7/site-packages/mccabe-0.6.1-py3.7.egg-info/SOURCES.txt",
    "lib/python3.7/site-packages/mccabe-0.6.1-py3.7.egg-info/dependency_links.txt",
    "lib/python3.7/site-packages/mccabe-0.6.1-py3.7.egg-info/entry_points.txt",
    "lib/python3.7/site-packages/mccabe-0.6.1-py3.7.egg-info/not-zip-safe",
    "lib/python3.7/site-packages/mccabe-0.6.1-py3.7.egg-info/top_level.txt",
    "lib/python3.7/site-packages/mccabe.py"
  ],
  "fn": "mccabe-0.6.1-py37_1.conda",
  "legacy_bz2_md5": "6d7310d6e562fb9b17ccc2ac0bede407",
  "legacy_bz2_size": 13894,
  "license": "MIT",
  "license_family": "MIT",
  "link": {
    "source": "/home/idoye/Study/Devops/python/python_script/anaconda_ide/anaconda3/pkgs/mccabe-0.6.1-py37_1",
    "type": 1
  },
  "md5": "c12d643fcdd833be4b997b28c3484e41",
  "name": "mccabe",
  "package_tarball_full_path": "/home/idoye/Study/Devops/python/python_script/anaconda_ide/anaconda3/pkgs/mccabe-0.6.1-py37_1.conda",
  "paths_data": {
    "paths": [],
    "paths_version": 1
  },
  "requested_spec": "mccabe==0.6.1=py37_1",
  "sha256": "82efa955b2fd13f9830d6750556a23f56877cb97059c87a6f1d90f6fc8c297e7",
  "size": 14472,
  "subdir": "linux-64",
  "timestamp": 1530812519822,
  "track_features": "",
  "url": "https://repo.anaconda.com/pkgs/main/linux-64/mccabe-0.6.1-py37_1.conda",
  "version": "0.6.1"
}