{
  "build": "py37_0",
  "build_number": 0,
  "channel": "https://repo.anaconda.com/pkgs/main/linux-64",
  "constrains": [],
  "depends": [
    "python >=3.7,<3.8.0a0"
  ],
  "extracted_package_dir": "/home/idoye/Study/Devops/python/python_script/anaconda_ide/anaconda3/pkgs/pickleshare-0.7.5-py37_0",
  "features": "",
  "files": [
    "lib/python3.7/site-packages/__pycache__/pickleshare.cpython-37.pyc",
    "lib/python3.7/site-packages/pickleshare-0.7.5-py3.7.egg-info/PKG-INFO",
    "lib/python3.7/site-packages/pickleshare-0.7.5-py3.7.egg-info/SOURCES.txt",
    "lib/python3.7/site-packages/pickleshare-0.7.5-py3.7.egg-info/dependency_links.txt",
    "lib/python3.7/site-packages/pickleshare-0.7.5-py3.7.egg-info/installed-files.txt",
    "lib/python3.7/site-packages/pickleshare-0.7.5-py3.7.egg-info/requires.txt",
    "lib/python3.7/site-packages/pickleshare-0.7.5-py3.7.egg-info/top_level.txt",
    "lib/python3.7/site-packages/pickleshare.py"
  ],
  "fn": "pickleshare-0.7.5-py37_0.conda",
  "legacy_bz2_md5": "9ae7569c6a498f159fa0730a8af760e8",
  "legacy_bz2_size": 12900,
  "license": "MIT",
  "link": {
    "source": "/home/idoye/Study/Devops/python/python_script/anaconda_ide/anaconda3/pkgs/pickleshare-0.7.5-py37_0",
    "type": 1
  },
  "md5": "3672172b55b8accb6d85ebd1163ca969",
  "name": "pickleshare",
  "package_tarball_full_path": "/home/idoye/Study/Devops/python/python_script/anaconda_ide/anaconda3/pkgs/pickleshare-0.7.5-py37_0.conda",
  "paths_data": {
    "paths": [],
    "paths_version": 1
  },
  "requested_spec": "pickleshare==0.7.5=py37_0",
  "sha256": "3e78a8a02feca767e668e2b2026ba0d860842cd8865b4da74063286b616715e1",
  "size": 13108,
  "subdir": "linux-64",
  "timestamp": 1538597722845,
  "track_features": "",
  "url": "https://repo.anaconda.com/pkgs/main/linux-64/pickleshare-0.7.5-py37_0.conda",
  "version": "0.7.5"
}