{
  "build": "py37_0",
  "build_number": 0,
  "channel": "https://repo.anaconda.com/pkgs/main/linux-64",
  "constrains": [],
  "depends": [
    "python >=3.7,<3.8.0a0"
  ],
  "extracted_package_dir": "/home/idoye/Study/Devops/python/python_script/anaconda_ide/anaconda3/pkgs/ply-3.11-py37_0",
  "features": "",
  "files": [
    "lib/python3.7/site-packages/ply-3.11-py3.7.egg-info/PKG-INFO",
    "lib/python3.7/site-packages/ply-3.11-py3.7.egg-info/SOURCES.txt",
    "lib/python3.7/site-packages/ply-3.11-py3.7.egg-info/dependency_links.txt",
    "lib/python3.7/site-packages/ply-3.11-py3.7.egg-info/top_level.txt",
    "lib/python3.7/site-packages/ply/__init__.py",
    "lib/python3.7/site-packages/ply/__pycache__/__init__.cpython-37.pyc",
    "lib/python3.7/site-packages/ply/__pycache__/cpp.cpython-37.pyc",
    "lib/python3.7/site-packages/ply/__pycache__/ctokens.cpython-37.pyc",
    "lib/python3.7/site-packages/ply/__pycache__/lex.cpython-37.pyc",
    "lib/python3.7/site-packages/ply/__pycache__/yacc.cpython-37.pyc",
    "lib/python3.7/site-packages/ply/__pycache__/ygen.cpython-37.pyc",
    "lib/python3.7/site-packages/ply/cpp.py",
    "lib/python3.7/site-packages/ply/ctokens.py",
    "lib/python3.7/site-packages/ply/lex.py",
    "lib/python3.7/site-packages/ply/yacc.py",
    "lib/python3.7/site-packages/ply/ygen.py"
  ],
  "fn": "ply-3.11-py37_0.conda",
  "legacy_bz2_md5": "c45dfa912d7b6e17369921a3c64a556a",
  "legacy_bz2_size": 81281,
  "license": "BSD 3-clause",
  "license_family": "BSD",
  "link": {
    "source": "/home/idoye/Study/Devops/python/python_script/anaconda_ide/anaconda3/pkgs/ply-3.11-py37_0",
    "type": 1
  },
  "md5": "3bdc1cc765a33c321405b37355cdbdf1",
  "name": "ply",
  "package_tarball_full_path": "/home/idoye/Study/Devops/python/python_script/anaconda_ide/anaconda3/pkgs/ply-3.11-py37_0.conda",
  "paths_data": {
    "paths": [],
    "paths_version": 1
  },
  "requested_spec": "ply==3.11=py37_0",
  "sha256": "afb09898fa199ff4909fa43b0e00f2db329ba69483ea519fcafabadff335280a",
  "size": 83561,
  "subdir": "linux-64",
  "timestamp": 1530873685472,
  "track_features": "",
  "url": "https://repo.anaconda.com/pkgs/main/linux-64/ply-3.11-py37_0.conda",
  "version": "3.11"
}