{
  "build": "py_0",
  "build_number": 0,
  "channel": "https://repo.anaconda.com/pkgs/main/noarch",
  "constrains": [],
  "depends": [
    "numpy >=1.10",
    "pytest >=3.0",
    "python",
    "six"
  ],
  "extracted_package_dir": "/home/idoye/Study/Devops/python/python_script/anaconda_ide/anaconda3/pkgs/pytest-doctestplus-0.4.0-py_0",
  "features": "",
  "files": [
    "lib/python3.7/site-packages/pytest_doctestplus-0.4.0.dist-info/INSTALLER",
    "lib/python3.7/site-packages/pytest_doctestplus-0.4.0.dist-info/LICENSE.rst",
    "lib/python3.7/site-packages/pytest_doctestplus-0.4.0.dist-info/METADATA",
    "lib/python3.7/site-packages/pytest_doctestplus-0.4.0.dist-info/RECORD",
    "lib/python3.7/site-packages/pytest_doctestplus-0.4.0.dist-info/WHEEL",
    "lib/python3.7/site-packages/pytest_doctestplus-0.4.0.dist-info/entry_points.txt",
    "lib/python3.7/site-packages/pytest_doctestplus-0.4.0.dist-info/top_level.txt",
    "lib/python3.7/site-packages/pytest_doctestplus/__init__.py",
    "lib/python3.7/site-packages/pytest_doctestplus/output_checker.py",
    "lib/python3.7/site-packages/pytest_doctestplus/plugin.py",
    "lib/python3.7/site-packages/pytest_doctestplus/__pycache__/__init__.cpython-37.pyc",
    "lib/python3.7/site-packages/pytest_doctestplus/__pycache__/output_checker.cpython-37.pyc",
    "lib/python3.7/site-packages/pytest_doctestplus/__pycache__/plugin.cpython-37.pyc"
  ],
  "fn": "pytest-doctestplus-0.4.0-py_0.tar.bz2",
  "license": "BSD 3-Clause",
  "license_family": "BSD",
  "link": {
    "source": "/home/idoye/Study/Devops/python/python_script/anaconda_ide/anaconda3/pkgs/pytest-doctestplus-0.4.0-py_0",
    "type": 1
  },
  "md5": "bc0315d425e572ccfdb0f182fedb9081",
  "name": "pytest-doctestplus",
  "noarch": "python",
  "package_tarball_full_path": "/home/idoye/Study/Devops/python/python_script/anaconda_ide/anaconda3/pkgs/pytest-doctestplus-0.4.0-py_0.tar.bz2",
  "package_type": "noarch_python",
  "paths_data": {
    "paths": [
      {
        "_path": "lib/python3.7/site-packages/pytest_doctestplus/__pycache__/__init__.cpython-37.pyc",
        "path_type": "pyc_file"
      },
      {
        "_path": "lib/python3.7/site-packages/pytest_doctestplus/__pycache__/output_checker.cpython-37.pyc",
        "path_type": "pyc_file"
      },
      {
        "_path": "lib/python3.7/site-packages/pytest_doctestplus/__pycache__/plugin.cpython-37.pyc",
        "path_type": "pyc_file"
      }
    ],
    "paths_version": 1
  },
  "requested_spec": "pytest-doctestplus==0.4.0=py_0",
  "sha256": "c8456579c7d9e932cab1d9604f54b24bb4e67f94b176d94dee81b2a4951d8e06",
  "size": 18321,
  "subdir": "noarch",
  "timestamp": 1569374968481,
  "track_features": "",
  "url": "https://repo.anaconda.com/pkgs/main/noarch/pytest-doctestplus-0.4.0-py_0.tar.bz2",
  "version": "0.4.0"
}