{
  "build": "py37_13",
  "build_number": 13,
  "channel": "https://repo.anaconda.com/pkgs/main/linux-64",
  "constrains": [],
  "depends": [
    "libarchive",
    "python >=3.7,<3.8.0a0"
  ],
  "extracted_package_dir": "/home/idoye/Study/Devops/python/python_script/anaconda_ide/anaconda3/pkgs/python-libarchive-c-2.8-py37_13",
  "features": "",
  "files": [
    "lib/python3.7/site-packages/libarchive/__init__.py",
    "lib/python3.7/site-packages/libarchive/__pycache__/__init__.cpython-37.pyc",
    "lib/python3.7/site-packages/libarchive/__pycache__/entry.cpython-37.pyc",
    "lib/python3.7/site-packages/libarchive/__pycache__/exception.cpython-37.pyc",
    "lib/python3.7/site-packages/libarchive/__pycache__/extract.cpython-37.pyc",
    "lib/python3.7/site-packages/libarchive/__pycache__/ffi.cpython-37.pyc",
    "lib/python3.7/site-packages/libarchive/__pycache__/flags.cpython-37.pyc",
    "lib/python3.7/site-packages/libarchive/__pycache__/read.cpython-37.pyc",
    "lib/python3.7/site-packages/libarchive/__pycache__/write.cpython-37.pyc",
    "lib/python3.7/site-packages/libarchive/entry.py",
    "lib/python3.7/site-packages/libarchive/exception.py",
    "lib/python3.7/site-packages/libarchive/extract.py",
    "lib/python3.7/site-packages/libarchive/ffi.py",
    "lib/python3.7/site-packages/libarchive/flags.py",
    "lib/python3.7/site-packages/libarchive/read.py",
    "lib/python3.7/site-packages/libarchive/write.py",
    "lib/python3.7/site-packages/libarchive_c-2.8-py3.7.egg-info/PKG-INFO",
    "lib/python3.7/site-packages/libarchive_c-2.8-py3.7.egg-info/SOURCES.txt",
    "lib/python3.7/site-packages/libarchive_c-2.8-py3.7.egg-info/dependency_links.txt",
    "lib/python3.7/site-packages/libarchive_c-2.8-py3.7.egg-info/top_level.txt"
  ],
  "fn": "python-libarchive-c-2.8-py37_13.conda",
  "legacy_bz2_md5": "e21956cfa75890a577807c20a6b28f5e",
  "legacy_bz2_size": 23944,
  "license": "CC0-1.0",
  "link": {
    "source": "/home/idoye/Study/Devops/python/python_script/anaconda_ide/anaconda3/pkgs/python-libarchive-c-2.8-py37_13",
    "type": 1
  },
  "md5": "958730010c39cc6a0a3212cdb444c140",
  "name": "python-libarchive-c",
  "package_tarball_full_path": "/home/idoye/Study/Devops/python/python_script/anaconda_ide/anaconda3/pkgs/python-libarchive-c-2.8-py37_13.conda",
  "paths_data": {
    "paths": [],
    "paths_version": 1
  },
  "requested_spec": "python-libarchive-c==2.8=py37_13",
  "sha256": "cd9cb3927cb23e633ea71bee3f5bbfe34057ff016fc90a6b237b9ad8c882e4ea",
  "size": 24598,
  "subdir": "linux-64",
  "timestamp": 1565112746113,
  "track_features": "",
  "url": "https://repo.anaconda.com/pkgs/main/linux-64/python-libarchive-c-2.8-py37_13.conda",
  "version": "2.8"
}