{
  "build": "py_0",
  "build_number": 0,
  "channel": "https://repo.anaconda.com/pkgs/main/noarch",
  "constrains": [],
  "depends": [
    "ipykernel >=4.1",
    "ipython_genutils",
    "jupyter_client >=4.1",
    "jupyter_core",
    "pygments",
    "pyqt",
    "python",
    "traitlets"
  ],
  "extracted_package_dir": "/home/idoye/Study/Devops/python/python_script/anaconda_ide/anaconda3/pkgs/qtconsole-4.5.5-py_0",
  "features": "",
  "files": [
    "lib/python3.7/site-packages/qtconsole-4.5.5.dist-info/INSTALLER",
    "lib/python3.7/site-packages/qtconsole-4.5.5.dist-info/LICENSE",
    "lib/python3.7/site-packages/qtconsole-4.5.5.dist-info/METADATA",
    "lib/python3.7/site-packages/qtconsole-4.5.5.dist-info/RECORD",
    "lib/python3.7/site-packages/qtconsole-4.5.5.dist-info/WHEEL",
    "lib/python3.7/site-packages/qtconsole-4.5.5.dist-info/entry_points.txt",
    "lib/python3.7/site-packages/qtconsole-4.5.5.dist-info/top_level.txt",
    "lib/python3.7/site-packages/qtconsole/__init__.py",
    "lib/python3.7/site-packages/qtconsole/__main__.py",
    "lib/python3.7/site-packages/qtconsole/_version.py",
    "lib/python3.7/site-packages/qtconsole/ansi_code_processor.py",
    "lib/python3.7/site-packages/qtconsole/base_frontend_mixin.py",
    "lib/python3.7/site-packages/qtconsole/bracket_matcher.py",
    "lib/python3.7/site-packages/qtconsole/call_tip_widget.py",
    "lib/python3.7/site-packages/qtconsole/client.py",
    "lib/python3.7/site-packages/qtconsole/comms.py",
    "lib/python3.7/site-packages/qtconsole/completion_html.py",
    "lib/python3.7/site-packages/qtconsole/completion_plain.py",
    "lib/python3.7/site-packages/qtconsole/completion_widget.py",
    "lib/python3.7/site-packages/qtconsole/console_widget.py",
    "lib/python3.7/site-packages/qtconsole/frontend_widget.py",
    "lib/python3.7/site-packages/qtconsole/history_console_widget.py",
    "lib/python3.7/site-packages/qtconsole/inprocess.py",
    "lib/python3.7/site-packages/qtconsole/ipython_widget.py",
    "lib/python3.7/site-packages/qtconsole/jupyter_widget.py",
    "lib/python3.7/site-packages/qtconsole/kernel_mixins.py",
    "lib/python3.7/site-packages/qtconsole/kill_ring.py",
    "lib/python3.7/site-packages/qtconsole/mainwindow.py",
    "lib/python3.7/site-packages/qtconsole/manager.py",
    "lib/python3.7/site-packages/qtconsole/pygments_highlighter.py",
    "lib/python3.7/site-packages/qtconsole/qstringhelpers.py",
    "lib/python3.7/site-packages/qtconsole/qt.py",
    "lib/python3.7/site-packages/qtconsole/qt_loaders.py",
    "lib/python3.7/site-packages/qtconsole/qtconsoleapp.py",
    "lib/python3.7/site-packages/qtconsole/resources/icon/JupyterConsole.svg",
    "lib/python3.7/site-packages/qtconsole/rich_ipython_widget.py",
    "lib/python3.7/site-packages/qtconsole/rich_jupyter_widget.py",
    "lib/python3.7/site-packages/qtconsole/rich_text.py",
    "lib/python3.7/site-packages/qtconsole/styles.py",
    "lib/python3.7/site-packages/qtconsole/svg.py",
    "lib/python3.7/site-packages/qtconsole/tests/__init__.py",
    "lib/python3.7/site-packages/qtconsole/tests/test_00_console_widget.py",
    "lib/python3.7/site-packages/qtconsole/tests/test_ansi_code_processor.py",
    "lib/python3.7/site-packages/qtconsole/tests/test_app.py",
    "lib/python3.7/site-packages/qtconsole/tests/test_comms.py",
    "lib/python3.7/site-packages/qtconsole/tests/test_completion_widget.py",
    "lib/python3.7/site-packages/qtconsole/tests/test_frontend_widget.py",
    "lib/python3.7/site-packages/qtconsole/tests/test_jupyter_widget.py",
    "lib/python3.7/site-packages/qtconsole/tests/test_kill_ring.py",
    "lib/python3.7/site-packages/qtconsole/tests/test_styles.py",
    "lib/python3.7/site-packages/qtconsole/usage.py",
    "lib/python3.7/site-packages/qtconsole/util.py",
    "lib/python3.7/site-packages/qtconsole/__pycache__/__init__.cpython-37.pyc",
    "lib/python3.7/site-packages/qtconsole/__pycache__/__main__.cpython-37.pyc",
    "lib/python3.7/site-packages/qtconsole/__pycache__/_version.cpython-37.pyc",
    "lib/python3.7/site-packages/qtconsole/__pycache__/ansi_code_processor.cpython-37.pyc",
    "lib/python3.7/site-packages/qtconsole/__pycache__/base_frontend_mixin.cpython-37.pyc",
    "lib/python3.7/site-packages/qtconsole/__pycache__/bracket_matcher.cpython-37.pyc",
    "lib/python3.7/site-packages/qtconsole/__pycache__/call_tip_widget.cpython-37.pyc",
    "lib/python3.7/site-packages/qtconsole/__pycache__/client.cpython-37.pyc",
    "lib/python3.7/site-packages/qtconsole/__pycache__/comms.cpython-37.pyc",
    "lib/python3.7/site-packages/qtconsole/__pycache__/completion_html.cpython-37.pyc",
    "lib/python3.7/site-packages/qtconsole/__pycache__/completion_plain.cpython-37.pyc",
    "lib/python3.7/site-packages/qtconsole/__pycache__/completion_widget.cpython-37.pyc",
    "lib/python3.7/site-packages/qtconsole/__pycache__/console_widget.cpython-37.pyc",
    "lib/python3.7/site-packages/qtconsole/__pycache__/frontend_widget.cpython-37.pyc",
    "lib/python3.7/site-packages/qtconsole/__pycache__/history_console_widget.cpython-37.pyc",
    "lib/python3.7/site-packages/qtconsole/__pycache__/inprocess.cpython-37.pyc",
    "lib/python3.7/site-packages/qtconsole/__pycache__/ipython_widget.cpython-37.pyc",
    "lib/python3.7/site-packages/qtconsole/__pycache__/jupyter_widget.cpython-37.pyc",
    "lib/python3.7/site-packages/qtconsole/__pycache__/kernel_mixins.cpython-37.pyc",
    "lib/python3.7/site-packages/qtconsole/__pycache__/kill_ring.cpython-37.pyc",
    "lib/python3.7/site-packages/qtconsole/__pycache__/mainwindow.cpython-37.pyc",
    "lib/python3.7/site-packages/qtconsole/__pycache__/manager.cpython-37.pyc",
    "lib/python3.7/site-packages/qtconsole/__pycache__/pygments_highlighter.cpython-37.pyc",
    "lib/python3.7/site-packages/qtconsole/__pycache__/qstringhelpers.cpython-37.pyc",
    "lib/python3.7/site-packages/qtconsole/__pycache__/qt.cpython-37.pyc",
    "lib/python3.7/site-packages/qtconsole/__pycache__/qt_loaders.cpython-37.pyc",
    "lib/python3.7/site-packages/qtconsole/__pycache__/qtconsoleapp.cpython-37.pyc",
    "lib/python3.7/site-packages/qtconsole/__pycache__/rich_ipython_widget.cpython-37.pyc",
    "lib/python3.7/site-packages/qtconsole/__pycache__/rich_jupyter_widget.cpython-37.pyc",
    "lib/python3.7/site-packages/qtconsole/__pycache__/rich_text.cpython-37.pyc",
    "lib/python3.7/site-packages/qtconsole/__pycache__/styles.cpython-37.pyc",
    "lib/python3.7/site-packages/qtconsole/__pycache__/svg.cpython-37.pyc",
    "lib/python3.7/site-packages/qtconsole/tests/__pycache__/__init__.cpython-37.pyc",
    "lib/python3.7/site-packages/qtconsole/tests/__pycache__/test_00_console_widget.cpython-37.pyc",
    "lib/python3.7/site-packages/qtconsole/tests/__pycache__/test_ansi_code_processor.cpython-37.pyc",
    "lib/python3.7/site-packages/qtconsole/tests/__pycache__/test_app.cpython-37.pyc",
    "lib/python3.7/site-packages/qtconsole/tests/__pycache__/test_comms.cpython-37.pyc",
    "lib/python3.7/site-packages/qtconsole/tests/__pycache__/test_completion_widget.cpython-37.pyc",
    "lib/python3.7/site-packages/qtconsole/tests/__pycache__/test_frontend_widget.cpython-37.pyc",
    "lib/python3.7/site-packages/qtconsole/tests/__pycache__/test_jupyter_widget.cpython-37.pyc",
    "lib/python3.7/site-packages/qtconsole/tests/__pycache__/test_kill_ring.cpython-37.pyc",
    "lib/python3.7/site-packages/qtconsole/tests/__pycache__/test_styles.cpython-37.pyc",
    "lib/python3.7/site-packages/qtconsole/__pycache__/usage.cpython-37.pyc",
    "lib/python3.7/site-packages/qtconsole/__pycache__/util.cpython-37.pyc",
    "bin/jupyter-qtconsole"
  ],
  "fn": "qtconsole-4.5.5-py_0.tar.bz2",
  "license": "BSD 3-Clause",
  "link": {
    "source": "/home/idoye/Study/Devops/python/python_script/anaconda_ide/anaconda3/pkgs/qtconsole-4.5.5-py_0",
    "type": 1
  },
  "md5": "0853b1fce165928344ca2154f03d2e0a",
  "name": "qtconsole",
  "noarch": "python",
  "package_tarball_full_path": "/home/idoye/Study/Devops/python/python_script/anaconda_ide/anaconda3/pkgs/qtconsole-4.5.5-py_0.tar.bz2",
  "package_type": "noarch_python",
  "paths_data": {
    "paths": [
      {
        "_path": "lib/python3.7/site-packages/qtconsole/__pycache__/__init__.cpython-37.pyc",
        "path_type": "pyc_file"
      },
      {
        "_path": "lib/python3.7/site-packages/qtconsole/__pycache__/__main__.cpython-37.pyc",
        "path_type": "pyc_file"
      },
      {
        "_path": "lib/python3.7/site-packages/qtconsole/__pycache__/_version.cpython-37.pyc",
        "path_type": "pyc_file"
      },
      {
        "_path": "lib/python3.7/site-packages/qtconsole/__pycache__/ansi_code_processor.cpython-37.pyc",
        "path_type": "pyc_file"
      },
      {
        "_path": "lib/python3.7/site-packages/qtconsole/__pycache__/base_frontend_mixin.cpython-37.pyc",
        "path_type": "pyc_file"
      },
      {
        "_path": "lib/python3.7/site-packages/qtconsole/__pycache__/bracket_matcher.cpython-37.pyc",
        "path_type": "pyc_file"
      },
      {
        "_path": "lib/python3.7/site-packages/qtconsole/__pycache__/call_tip_widget.cpython-37.pyc",
        "path_type": "pyc_file"
      },
      {
        "_path": "lib/python3.7/site-packages/qtconsole/__pycache__/client.cpython-37.pyc",
        "path_type": "pyc_file"
      },
      {
        "_path": "lib/python3.7/site-packages/qtconsole/__pycache__/comms.cpython-37.pyc",
        "path_type": "pyc_file"
      },
      {
        "_path": "lib/python3.7/site-packages/qtconsole/__pycache__/completion_html.cpython-37.pyc",
        "path_type": "pyc_file"
      },
      {
        "_path": "lib/python3.7/site-packages/qtconsole/__pycache__/completion_plain.cpython-37.pyc",
        "path_type": "pyc_file"
      },
      {
        "_path": "lib/python3.7/site-packages/qtconsole/__pycache__/completion_widget.cpython-37.pyc",
        "path_type": "pyc_file"
      },
      {
        "_path": "lib/python3.7/site-packages/qtconsole/__pycache__/console_widget.cpython-37.pyc",
        "path_type": "pyc_file"
      },
      {
        "_path": "lib/python3.7/site-packages/qtconsole/__pycache__/frontend_widget.cpython-37.pyc",
        "path_type": "pyc_file"
      },
      {
        "_path": "lib/python3.7/site-packages/qtconsole/__pycache__/history_console_widget.cpython-37.pyc",
        "path_type": "pyc_file"
      },
      {
        "_path": "lib/python3.7/site-packages/qtconsole/__pycache__/inprocess.cpython-37.pyc",
        "path_type": "pyc_file"
      },
      {
        "_path": "lib/python3.7/site-packages/qtconsole/__pycache__/ipython_widget.cpython-37.pyc",
        "path_type": "pyc_file"
      },
      {
        "_path": "lib/python3.7/site-packages/qtconsole/__pycache__/jupyter_widget.cpython-37.pyc",
        "path_type": "pyc_file"
      },
      {
        "_path": "lib/python3.7/site-packages/qtconsole/__pycache__/kernel_mixins.cpython-37.pyc",
        "path_type": "pyc_file"
      },
      {
        "_path": "lib/python3.7/site-packages/qtconsole/__pycache__/kill_ring.cpython-37.pyc",
        "path_type": "pyc_file"
      },
      {
        "_path": "lib/python3.7/site-packages/qtconsole/__pycache__/mainwindow.cpython-37.pyc",
        "path_type": "pyc_file"
      },
      {
        "_path": "lib/python3.7/site-packages/qtconsole/__pycache__/manager.cpython-37.pyc",
        "path_type": "pyc_file"
      },
      {
        "_path": "lib/python3.7/site-packages/qtconsole/__pycache__/pygments_highlighter.cpython-37.pyc",
        "path_type": "pyc_file"
      },
      {
        "_path": "lib/python3.7/site-packages/qtconsole/__pycache__/qstringhelpers.cpython-37.pyc",
        "path_type": "pyc_file"
      },
      {
        "_path": "lib/python3.7/site-packages/qtconsole/__pycache__/qt.cpython-37.pyc",
        "path_type": "pyc_file"
      },
      {
        "_path": "lib/python3.7/site-packages/qtconsole/__pycache__/qt_loaders.cpython-37.pyc",
        "path_type": "pyc_file"
      },
      {
        "_path": "lib/python3.7/site-packages/qtconsole/__pycache__/qtconsoleapp.cpython-37.pyc",
        "path_type": "pyc_file"
      },
      {
        "_path": "lib/python3.7/site-packages/qtconsole/__pycache__/rich_ipython_widget.cpython-37.pyc",
        "path_type": "pyc_file"
      },
      {
        "_path": "lib/python3.7/site-packages/qtconsole/__pycache__/rich_jupyter_widget.cpython-37.pyc",
        "path_type": "pyc_file"
      },
      {
        "_path": "lib/python3.7/site-packages/qtconsole/__pycache__/rich_text.cpython-37.pyc",
        "path_type": "pyc_file"
      },
      {
        "_path": "lib/python3.7/site-packages/qtconsole/__pycache__/styles.cpython-37.pyc",
        "path_type": "pyc_file"
      },
      {
        "_path": "lib/python3.7/site-packages/qtconsole/__pycache__/svg.cpython-37.pyc",
        "path_type": "pyc_file"
      },
      {
        "_path": "lib/python3.7/site-packages/qtconsole/tests/__pycache__/__init__.cpython-37.pyc",
        "path_type": "pyc_file"
      },
      {
        "_path": "lib/python3.7/site-packages/qtconsole/tests/__pycache__/test_00_console_widget.cpython-37.pyc",
        "path_type": "pyc_file"
      },
      {
        "_path": "lib/python3.7/site-packages/qtconsole/tests/__pycache__/test_ansi_code_processor.cpython-37.pyc",
        "path_type": "pyc_file"
      },
      {
        "_path": "lib/python3.7/site-packages/qtconsole/tests/__pycache__/test_app.cpython-37.pyc",
        "path_type": "pyc_file"
      },
      {
        "_path": "lib/python3.7/site-packages/qtconsole/tests/__pycache__/test_comms.cpython-37.pyc",
        "path_type": "pyc_file"
      },
      {
        "_path": "lib/python3.7/site-packages/qtconsole/tests/__pycache__/test_completion_widget.cpython-37.pyc",
        "path_type": "pyc_file"
      },
      {
        "_path": "lib/python3.7/site-packages/qtconsole/tests/__pycache__/test_frontend_widget.cpython-37.pyc",
        "path_type": "pyc_file"
      },
      {
        "_path": "lib/python3.7/site-packages/qtconsole/tests/__pycache__/test_jupyter_widget.cpython-37.pyc",
        "path_type": "pyc_file"
      },
      {
        "_path": "lib/python3.7/site-packages/qtconsole/tests/__pycache__/test_kill_ring.cpython-37.pyc",
        "path_type": "pyc_file"
      },
      {
        "_path": "lib/python3.7/site-packages/qtconsole/tests/__pycache__/test_styles.cpython-37.pyc",
        "path_type": "pyc_file"
      },
      {
        "_path": "lib/python3.7/site-packages/qtconsole/__pycache__/usage.cpython-37.pyc",
        "path_type": "pyc_file"
      },
      {
        "_path": "lib/python3.7/site-packages/qtconsole/__pycache__/util.cpython-37.pyc",
        "path_type": "pyc_file"
      },
      {
        "_path": "bin/jupyter-qtconsole",
        "path_type": "unix_python_entry_point"
      }
    ],
    "paths_version": 1
  },
  "requested_spec": "qtconsole==4.5.5=py_0",
  "sha256": "d9289a8b40ed5a769be0c4003c3fd98cd6b00fd9accd256fc816e1342d8f3269",
  "size": 96523,
  "subdir": "noarch",
  "timestamp": 1568217186369,
  "track_features": "",
  "url": "https://repo.anaconda.com/pkgs/main/noarch/qtconsole-4.5.5-py_0.tar.bz2",
  "version": "4.5.5"
}