{
  "build": "py37hf484d3e_0",
  "build_number": 0,
  "channel": "https://repo.anaconda.com/pkgs/main/linux-64",
  "constrains": [],
  "depends": [
    "libgcc-ng >=7.2.0",
    "libstdcxx-ng >=7.2.0",
    "python >=3.7,<3.8.0a0"
  ],
  "extracted_package_dir": "/home/idoye/Study/Devops/python/python_script/anaconda_ide/anaconda3/pkgs/sip-4.19.8-py37hf484d3e_0",
  "features": "",
  "files": [
    "bin/sip",
    "include/python3.7m/sip.h",
    "lib/python3.7/site-packages/__pycache__/sipconfig.cpython-37.pyc",
    "lib/python3.7/site-packages/__pycache__/sipdistutils.cpython-37.pyc",
    "lib/python3.7/site-packages/sip.pyi",
    "lib/python3.7/site-packages/sip.so",
    "lib/python3.7/site-packages/sipconfig.py",
    "lib/python3.7/site-packages/sipdistutils.py"
  ],
  "fn": "sip-4.19.8-py37hf484d3e_0.conda",
  "legacy_bz2_md5": "128cd74c4a5f3ec92872bfb7f5b288c2",
  "legacy_bz2_size": 297157,
  "license": "GPL-3.0",
  "link": {
    "source": "/home/idoye/Study/Devops/python/python_script/anaconda_ide/anaconda3/pkgs/sip-4.19.8-py37hf484d3e_0",
    "type": 1
  },
  "md5": "a41603290a87146546d40828e3a3848d",
  "name": "sip",
  "package_tarball_full_path": "/home/idoye/Study/Devops/python/python_script/anaconda_ide/anaconda3/pkgs/sip-4.19.8-py37hf484d3e_0.conda",
  "paths_data": {
    "paths": [
      {
        "_path": "lib/python3.7/site-packages/sipconfig.py",
        "file_mode": "text",
        "path_type": "hardlink",
        "prefix_placeholder": "/opt/anaconda1anaconda2anaconda3",
        "sha256": "e286ac920c1180651cda0404acbd853f32c43e38423fcf7077400658c9912a68",
        "sha256_in_prefix": "135f80e07933a71c6e349a47614c153a68713e424c83b5f75580f1a2eb659d56",
        "size_in_bytes": 96603
      }
    ],
    "paths_version": 1
  },
  "requested_spec": "sip==4.19.8=py37hf484d3e_0",
  "sha256": "755426c442fd2f6a0cbf6f37dfe480d67552ce92c90b9f2c7614123704d99363",
  "size": 280402,
  "subdir": "linux-64",
  "timestamp": 1530793400234,
  "track_features": "",
  "url": "https://repo.anaconda.com/pkgs/main/linux-64/sip-4.19.8-py37hf484d3e_0.conda",
  "version": "4.19.8"
}