{
  "build": "hbc83047_0",
  "build_number": 0,
  "channel": "https://repo.anaconda.com/pkgs/main/linux-64",
  "constrains": [],
  "depends": [
    "libgcc-ng >=7.3.0",
    "zlib >=1.2.11,<1.3.0a0"
  ],
  "extracted_package_dir": "/home/idoye/Study/Devops/python/python_script/anaconda_ide/anaconda3/pkgs/tk-8.6.8-hbc83047_0",
  "features": "",
  "files": [
    "bin/sqlite3_analyzer",
    "bin/tclsh",
    "bin/tclsh8.6",
    "bin/wish",
    "bin/wish8.6",
    "include/default.h",
    "include/fakemysql.h",
    "include/fakepq.h",
    "include/fakesql.h",
    "include/itcl.h",
    "include/itcl2TclOO.h",
    "include/itclDecls.h",
    "include/itclInt.h",
    "include/itclIntDecls.h",
    "include/itclMigrate2TclCore.h",
    "include/itclTclIntStubsFcn.h",
    "include/ks_names.h",
    "include/mysqlStubs.h",
    "include/odbcStubs.h",
    "include/pqStubs.h",
    "include/tcl.h",
    "include/tclDecls.h",
    "include/tclOO.h",
    "include/tclOODecls.h",
    "include/tclPlatDecls.h",
    "include/tclThread.h",
    "include/tclTomMath.h",
    "include/tclTomMathDecls.h",
    "include/tdbc.h",
    "include/tdbcDecls.h",
    "include/tdbcInt.h",
    "include/tk.h",
    "include/tk3d.h",
    "include/tkBusy.h",
    "include/tkButton.h",
    "include/tkCanvas.h",
    "include/tkColor.h",
    "include/tkDecls.h",
    "include/tkEntry.h",
    "include/tkFileFilter.h",
    "include/tkFont.h",
    "include/tkImgPhoto.h",
    "include/tkInt.h",
    "include/tkIntDecls.h",
    "include/tkIntPlatDecls.h",
    "include/tkIntXlibDecls.h",
    "include/tkMenu.h",
    "include/tkMenubutton.h",
    "include/tkPlatDecls.h",
    "include/tkPort.h",
    "include/tkScale.h",
    "include/tkScrollbar.h",
    "include/tkSelect.h",
    "include/tkText.h",
    "include/tkUndo.h",
    "include/tkUnixDefault.h",
    "include/tkUnixInt.h",
    "include/tkUnixPort.h",
    "lib/itcl4.1.1/itcl.tcl",
    "lib/itcl4.1.1/itclConfig.sh",
    "lib/itcl4.1.1/itclHullCmds.tcl",
    "lib/itcl4.1.1/itclWidget.tcl",
    "lib/itcl4.1.1/libitcl4.1.1.so",
    "lib/itcl4.1.1/libitclstub4.1.1.a",
    "lib/itcl4.1.1/pkgIndex.tcl",
    "lib/libtcl8.6.so",
    "lib/libtclstub8.6.a",
    "lib/libtk8.6.so",
    "lib/libtkstub8.6.a",
    "lib/pkgconfig/tcl.pc",
    "lib/pkgconfig/tk.pc",
    "lib/sqlite3.21.0/libsqlite3.21.0.so",
    "lib/sqlite3.21.0/pkgIndex.tcl",
    "lib/tcl8.6/auto.tcl",
    "lib/tcl8.6/clock.tcl",
    "lib/tcl8.6/encoding/ascii.enc",
    "lib/tcl8.6/encoding/big5.enc",
    "lib/tcl8.6/encoding/cp1250.enc",
    "lib/tcl8.6/encoding/cp1251.enc",
    "lib/tcl8.6/encoding/cp1252.enc",
    "lib/tcl8.6/encoding/cp1253.enc",
    "lib/tcl8.6/encoding/cp1254.enc",
    "lib/tcl8.6/encoding/cp1255.enc",
    "lib/tcl8.6/encoding/cp1256.enc",
    "lib/tcl8.6/encoding/cp1257.enc",
    "lib/tcl8.6/encoding/cp1258.enc",
    "lib/tcl8.6/encoding/cp437.enc",
    "lib/tcl8.6/encoding/cp737.enc",
    "lib/tcl8.6/encoding/cp775.enc",
    "lib/tcl8.6/encoding/cp850.enc",
    "lib/tcl8.6/encoding/cp852.enc",
    "lib/tcl8.6/encoding/cp855.enc",
    "lib/tcl8.6/encoding/cp857.enc",
    "lib/tcl8.6/encoding/cp860.enc",
    "lib/tcl8.6/encoding/cp861.enc",
    "lib/tcl8.6/encoding/cp862.enc",
    "lib/tcl8.6/encoding/cp863.enc",
    "lib/tcl8.6/encoding/cp864.enc",
    "lib/tcl8.6/encoding/cp865.enc",
    "lib/tcl8.6/encoding/cp866.enc",
    "lib/tcl8.6/encoding/cp869.enc",
    "lib/tcl8.6/encoding/cp874.enc",
    "lib/tcl8.6/encoding/cp932.enc",
    "lib/tcl8.6/encoding/cp936.enc",
    "lib/tcl8.6/encoding/cp949.enc",
    "lib/tcl8.6/encoding/cp950.enc",
    "lib/tcl8.6/encoding/dingbats.enc",
    "lib/tcl8.6/encoding/ebcdic.enc",
    "lib/tcl8.6/encoding/euc-cn.enc",
    "lib/tcl8.6/encoding/euc-jp.enc",
    "lib/tcl8.6/encoding/euc-kr.enc",
    "lib/tcl8.6/encoding/gb12345.enc",
    "lib/tcl8.6/encoding/gb1988.enc",
    "lib/tcl8.6/encoding/gb2312-raw.enc",
    "lib/tcl8.6/encoding/gb2312.enc",
    "lib/tcl8.6/encoding/iso2022-jp.enc",
    "lib/tcl8.6/encoding/iso2022-kr.enc",
    "lib/tcl8.6/encoding/iso2022.enc",
    "lib/tcl8.6/encoding/iso8859-1.enc",
    "lib/tcl8.6/encoding/iso8859-10.enc",
    "lib/tcl8.6/encoding/iso8859-13.enc",
    "lib/tcl8.6/encoding/iso8859-14.enc",
    "lib/tcl8.6/encoding/iso8859-15.enc",
    "lib/tcl8.6/encoding/iso8859-16.enc",
    "lib/tcl8.6/encoding/iso8859-2.enc",
    "lib/tcl8.6/encoding/iso8859-3.enc",
    "lib/tcl8.6/encoding/iso8859-4.enc",
    "lib/tcl8.6/encoding/iso8859-5.enc",
    "lib/tcl8.6/encoding/iso8859-6.enc",
    "lib/tcl8.6/encoding/iso8859-7.enc",
    "lib/tcl8.6/encoding/iso8859-8.enc",
    "lib/tcl8.6/encoding/iso8859-9.enc",
    "lib/tcl8.6/encoding/jis0201.enc",
    "lib/tcl8.6/encoding/jis0208.enc",
    "lib/tcl8.6/encoding/jis0212.enc",
    "lib/tcl8.6/encoding/koi8-r.enc",
    "lib/tcl8.6/encoding/koi8-u.enc",
    "lib/tcl8.6/encoding/ksc5601.enc",
    "lib/tcl8.6/encoding/macCentEuro.enc",
    "lib/tcl8.6/encoding/macCroatian.enc",
    "lib/tcl8.6/encoding/macCyrillic.enc",
    "lib/tcl8.6/encoding/macDingbats.enc",
    "lib/tcl8.6/encoding/macGreek.enc",
    "lib/tcl8.6/encoding/macIceland.enc",
    "lib/tcl8.6/encoding/macJapan.enc",
    "lib/tcl8.6/encoding/macRoman.enc",
    "lib/tcl8.6/encoding/macRomania.enc",
    "lib/tcl8.6/encoding/macThai.enc",
    "lib/tcl8.6/encoding/macTurkish.enc",
    "lib/tcl8.6/encoding/macUkraine.enc",
    "lib/tcl8.6/encoding/shiftjis.enc",
    "lib/tcl8.6/encoding/symbol.enc",
    "lib/tcl8.6/encoding/tis-620.enc",
    "lib/tcl8.6/history.tcl",
    "lib/tcl8.6/http1.0/http.tcl",
    "lib/tcl8.6/http1.0/pkgIndex.tcl",
    "lib/tcl8.6/init.tcl",
    "lib/tcl8.6/msgs/af.msg",
    "lib/tcl8.6/msgs/af_za.msg",
    "lib/tcl8.6/msgs/ar.msg",
    "lib/tcl8.6/msgs/ar_in.msg",
    "lib/tcl8.6/msgs/ar_jo.msg",
    "lib/tcl8.6/msgs/ar_lb.msg",
    "lib/tcl8.6/msgs/ar_sy.msg",
    "lib/tcl8.6/msgs/be.msg",
    "lib/tcl8.6/msgs/bg.msg",
    "lib/tcl8.6/msgs/bn.msg",
    "lib/tcl8.6/msgs/bn_in.msg",
    "lib/tcl8.6/msgs/ca.msg",
    "lib/tcl8.6/msgs/cs.msg",
    "lib/tcl8.6/msgs/da.msg",
    "lib/tcl8.6/msgs/de.msg",
    "lib/tcl8.6/msgs/de_at.msg",
    "lib/tcl8.6/msgs/de_be.msg",
    "lib/tcl8.6/msgs/el.msg",
    "lib/tcl8.6/msgs/en_au.msg",
    "lib/tcl8.6/msgs/en_be.msg",
    "lib/tcl8.6/msgs/en_bw.msg",
    "lib/tcl8.6/msgs/en_ca.msg",
    "lib/tcl8.6/msgs/en_gb.msg",
    "lib/tcl8.6/msgs/en_hk.msg",
    "lib/tcl8.6/msgs/en_ie.msg",
    "lib/tcl8.6/msgs/en_in.msg",
    "lib/tcl8.6/msgs/en_nz.msg",
    "lib/tcl8.6/msgs/en_ph.msg",
    "lib/tcl8.6/msgs/en_sg.msg",
    "lib/tcl8.6/msgs/en_za.msg",
    "lib/tcl8.6/msgs/en_zw.msg",
    "lib/tcl8.6/msgs/eo.msg",
    "lib/tcl8.6/msgs/es.msg",
    "lib/tcl8.6/msgs/es_ar.msg",
    "lib/tcl8.6/msgs/es_bo.msg",
    "lib/tcl8.6/msgs/es_cl.msg",
    "lib/tcl8.6/msgs/es_co.msg",
    "lib/tcl8.6/msgs/es_cr.msg",
    "lib/tcl8.6/msgs/es_do.msg",
    "lib/tcl8.6/msgs/es_ec.msg",
    "lib/tcl8.6/msgs/es_gt.msg",
    "lib/tcl8.6/msgs/es_hn.msg",
    "lib/tcl8.6/msgs/es_mx.msg",
    "lib/tcl8.6/msgs/es_ni.msg",
    "lib/tcl8.6/msgs/es_pa.msg",
    "lib/tcl8.6/msgs/es_pe.msg",
    "lib/tcl8.6/msgs/es_pr.msg",
    "lib/tcl8.6/msgs/es_py.msg",
    "lib/tcl8.6/msgs/es_sv.msg",
    "lib/tcl8.6/msgs/es_uy.msg",
    "lib/tcl8.6/msgs/es_ve.msg",
    "lib/tcl8.6/msgs/et.msg",
    "lib/tcl8.6/msgs/eu.msg",
    "lib/tcl8.6/msgs/eu_es.msg",
    "lib/tcl8.6/msgs/fa.msg",
    "lib/tcl8.6/msgs/fa_in.msg",
    "lib/tcl8.6/msgs/fa_ir.msg",
    "lib/tcl8.6/msgs/fi.msg",
    "lib/tcl8.6/msgs/fo.msg",
    "lib/tcl8.6/msgs/fo_fo.msg",
    "lib/tcl8.6/msgs/fr.msg",
    "lib/tcl8.6/msgs/fr_be.msg",
    "lib/tcl8.6/msgs/fr_ca.msg",
    "lib/tcl8.6/msgs/fr_ch.msg",
    "lib/tcl8.6/msgs/ga.msg",
    "lib/tcl8.6/msgs/ga_ie.msg",
    "lib/tcl8.6/msgs/gl.msg",
    "lib/tcl8.6/msgs/gl_es.msg",
    "lib/tcl8.6/msgs/gv.msg",
    "lib/tcl8.6/msgs/gv_gb.msg",
    "lib/tcl8.6/msgs/he.msg",
    "lib/tcl8.6/msgs/hi.msg",
    "lib/tcl8.6/msgs/hi_in.msg",
    "lib/tcl8.6/msgs/hr.msg",
    "lib/tcl8.6/msgs/hu.msg",
    "lib/tcl8.6/msgs/id.msg",
    "lib/tcl8.6/msgs/id_id.msg",
    "lib/tcl8.6/msgs/is.msg",
    "lib/tcl8.6/msgs/it.msg",
    "lib/tcl8.6/msgs/it_ch.msg",
    "lib/tcl8.6/msgs/ja.msg",
    "lib/tcl8.6/msgs/kl.msg",
    "lib/tcl8.6/msgs/kl_gl.msg",
    "lib/tcl8.6/msgs/ko.msg",
    "lib/tcl8.6/msgs/ko_kr.msg",
    "lib/tcl8.6/msgs/kok.msg",
    "lib/tcl8.6/msgs/kok_in.msg",
    "lib/tcl8.6/msgs/kw.msg",
    "lib/tcl8.6/msgs/kw_gb.msg",
    "lib/tcl8.6/msgs/lt.msg",
    "lib/tcl8.6/msgs/lv.msg",
    "lib/tcl8.6/msgs/mk.msg",
    "lib/tcl8.6/msgs/mr.msg",
    "lib/tcl8.6/msgs/mr_in.msg",
    "lib/tcl8.6/msgs/ms.msg",
    "lib/tcl8.6/msgs/ms_my.msg",
    "lib/tcl8.6/msgs/mt.msg",
    "lib/tcl8.6/msgs/nb.msg",
    "lib/tcl8.6/msgs/nl.msg",
    "lib/tcl8.6/msgs/nl_be.msg",
    "lib/tcl8.6/msgs/nn.msg",
    "lib/tcl8.6/msgs/pl.msg",
    "lib/tcl8.6/msgs/pt.msg",
    "lib/tcl8.6/msgs/pt_br.msg",
    "lib/tcl8.6/msgs/ro.msg",
    "lib/tcl8.6/msgs/ru.msg",
    "lib/tcl8.6/msgs/ru_ua.msg",
    "lib/tcl8.6/msgs/sh.msg",
    "lib/tcl8.6/msgs/sk.msg",
    "lib/tcl8.6/msgs/sl.msg",
    "lib/tcl8.6/msgs/sq.msg",
    "lib/tcl8.6/msgs/sr.msg",
    "lib/tcl8.6/msgs/sv.msg",
    "lib/tcl8.6/msgs/sw.msg",
    "lib/tcl8.6/msgs/ta.msg",
    "lib/tcl8.6/msgs/ta_in.msg",
    "lib/tcl8.6/msgs/te.msg",
    "lib/tcl8.6/msgs/te_in.msg",
    "lib/tcl8.6/msgs/th.msg",
    "lib/tcl8.6/msgs/tr.msg",
    "lib/tcl8.6/msgs/uk.msg",
    "lib/tcl8.6/msgs/vi.msg",
    "lib/tcl8.6/msgs/zh.msg",
    "lib/tcl8.6/msgs/zh_cn.msg",
    "lib/tcl8.6/msgs/zh_hk.msg",
    "lib/tcl8.6/msgs/zh_sg.msg",
    "lib/tcl8.6/msgs/zh_tw.msg",
    "lib/tcl8.6/opt0.4/optparse.tcl",
    "lib/tcl8.6/opt0.4/pkgIndex.tcl",
    "lib/tcl8.6/package.tcl",
    "lib/tcl8.6/parray.tcl",
    "lib/tcl8.6/safe.tcl",
    "lib/tcl8.6/tclAppInit.c",
    "lib/tcl8.6/tclIndex",
    "lib/tcl8.6/tm.tcl",
    "lib/tcl8.6/word.tcl",
    "lib/tcl8/8.4/platform-1.0.14.tm",
    "lib/tcl8/8.4/platform/shell-1.1.4.tm",
    "lib/tcl8/8.5/msgcat-1.6.1.tm",
    "lib/tcl8/8.5/tcltest-2.4.1.tm",
    "lib/tcl8/8.6/http-2.8.12.tm",
    "lib/tcl8/8.6/tdbc/sqlite3-1.0.6.tm",
    "lib/tclConfig.sh",
    "lib/tclooConfig.sh",
    "lib/tdbc1.0.6/libtdbc1.0.6.so",
    "lib/tdbc1.0.6/libtdbcstub1.0.6.a",
    "lib/tdbc1.0.6/pkgIndex.tcl",
    "lib/tdbc1.0.6/tdbc.tcl",
    "lib/tdbc1.0.6/tdbcConfig.sh",
    "lib/tdbcmysql1.0.6/libtdbcmysql1.0.6.so",
    "lib/tdbcmysql1.0.6/pkgIndex.tcl",
    "lib/tdbcmysql1.0.6/tdbcmysql.tcl",
    "lib/tdbcodbc1.0.6/libtdbcodbc1.0.6.so",
    "lib/tdbcodbc1.0.6/pkgIndex.tcl",
    "lib/tdbcodbc1.0.6/tdbcodbc.tcl",
    "lib/tdbcpostgres1.0.6/libtdbcpostgres1.0.6.so",
    "lib/tdbcpostgres1.0.6/pkgIndex.tcl",
    "lib/tdbcpostgres1.0.6/tdbcpostgres.tcl",
    "lib/thread2.8.2/libthread2.8.2.so",
    "lib/thread2.8.2/pkgIndex.tcl",
    "lib/thread2.8.2/ttrace.tcl",
    "lib/tk8.6/bgerror.tcl",
    "lib/tk8.6/button.tcl",
    "lib/tk8.6/choosedir.tcl",
    "lib/tk8.6/clrpick.tcl",
    "lib/tk8.6/comdlg.tcl",
    "lib/tk8.6/console.tcl",
    "lib/tk8.6/demos/README",
    "lib/tk8.6/demos/anilabel.tcl",
    "lib/tk8.6/demos/aniwave.tcl",
    "lib/tk8.6/demos/arrow.tcl",
    "lib/tk8.6/demos/bind.tcl",
    "lib/tk8.6/demos/bitmap.tcl",
    "lib/tk8.6/demos/browse",
    "lib/tk8.6/demos/button.tcl",
    "lib/tk8.6/demos/check.tcl",
    "lib/tk8.6/demos/clrpick.tcl",
    "lib/tk8.6/demos/colors.tcl",
    "lib/tk8.6/demos/combo.tcl",
    "lib/tk8.6/demos/cscroll.tcl",
    "lib/tk8.6/demos/ctext.tcl",
    "lib/tk8.6/demos/dialog1.tcl",
    "lib/tk8.6/demos/dialog2.tcl",
    "lib/tk8.6/demos/en.msg",
    "lib/tk8.6/demos/entry1.tcl",
    "lib/tk8.6/demos/entry2.tcl",
    "lib/tk8.6/demos/entry3.tcl",
    "lib/tk8.6/demos/filebox.tcl",
    "lib/tk8.6/demos/floor.tcl",
    "lib/tk8.6/demos/fontchoose.tcl",
    "lib/tk8.6/demos/form.tcl",
    "lib/tk8.6/demos/goldberg.tcl",
    "lib/tk8.6/demos/hello",
    "lib/tk8.6/demos/hscale.tcl",
    "lib/tk8.6/demos/icon.tcl",
    "lib/tk8.6/demos/image1.tcl",
    "lib/tk8.6/demos/image2.tcl",
    "lib/tk8.6/demos/images/earth.gif",
    "lib/tk8.6/demos/images/earthmenu.png",
    "lib/tk8.6/demos/images/earthris.gif",
    "lib/tk8.6/demos/images/flagdown.xbm",
    "lib/tk8.6/demos/images/flagup.xbm",
    "lib/tk8.6/demos/images/gray25.xbm",
    "lib/tk8.6/demos/images/letters.xbm",
    "lib/tk8.6/demos/images/noletter.xbm",
    "lib/tk8.6/demos/images/ouster.png",
    "lib/tk8.6/demos/images/pattern.xbm",
    "lib/tk8.6/demos/images/tcllogo.gif",
    "lib/tk8.6/demos/images/teapot.ppm",
    "lib/tk8.6/demos/items.tcl",
    "lib/tk8.6/demos/ixset",
    "lib/tk8.6/demos/knightstour.tcl",
    "lib/tk8.6/demos/label.tcl",
    "lib/tk8.6/demos/labelframe.tcl",
    "lib/tk8.6/demos/license.terms",
    "lib/tk8.6/demos/mclist.tcl",
    "lib/tk8.6/demos/menu.tcl",
    "lib/tk8.6/demos/menubu.tcl",
    "lib/tk8.6/demos/msgbox.tcl",
    "lib/tk8.6/demos/nl.msg",
    "lib/tk8.6/demos/paned1.tcl",
    "lib/tk8.6/demos/paned2.tcl",
    "lib/tk8.6/demos/pendulum.tcl",
    "lib/tk8.6/demos/plot.tcl",
    "lib/tk8.6/demos/puzzle.tcl",
    "lib/tk8.6/demos/radio.tcl",
    "lib/tk8.6/demos/rmt",
    "lib/tk8.6/demos/rolodex",
    "lib/tk8.6/demos/ruler.tcl",
    "lib/tk8.6/demos/sayings.tcl",
    "lib/tk8.6/demos/search.tcl",
    "lib/tk8.6/demos/spin.tcl",
    "lib/tk8.6/demos/states.tcl",
    "lib/tk8.6/demos/style.tcl",
    "lib/tk8.6/demos/tclIndex",
    "lib/tk8.6/demos/tcolor",
    "lib/tk8.6/demos/text.tcl",
    "lib/tk8.6/demos/textpeer.tcl",
    "lib/tk8.6/demos/timer",
    "lib/tk8.6/demos/toolbar.tcl",
    "lib/tk8.6/demos/tree.tcl",
    "lib/tk8.6/demos/ttkbut.tcl",
    "lib/tk8.6/demos/ttkmenu.tcl",
    "lib/tk8.6/demos/ttknote.tcl",
    "lib/tk8.6/demos/ttkpane.tcl",
    "lib/tk8.6/demos/ttkprogress.tcl",
    "lib/tk8.6/demos/ttkscale.tcl",
    "lib/tk8.6/demos/twind.tcl",
    "lib/tk8.6/demos/unicodeout.tcl",
    "lib/tk8.6/demos/vscale.tcl",
    "lib/tk8.6/demos/widget",
    "lib/tk8.6/dialog.tcl",
    "lib/tk8.6/entry.tcl",
    "lib/tk8.6/focus.tcl",
    "lib/tk8.6/fontchooser.tcl",
    "lib/tk8.6/iconlist.tcl",
    "lib/tk8.6/icons.tcl",
    "lib/tk8.6/images/README",
    "lib/tk8.6/images/logo.eps",
    "lib/tk8.6/images/logo100.gif",
    "lib/tk8.6/images/logo64.gif",
    "lib/tk8.6/images/logoLarge.gif",
    "lib/tk8.6/images/logoMed.gif",
    "lib/tk8.6/images/pwrdLogo.eps",
    "lib/tk8.6/images/pwrdLogo100.gif",
    "lib/tk8.6/images/pwrdLogo150.gif",
    "lib/tk8.6/images/pwrdLogo175.gif",
    "lib/tk8.6/images/pwrdLogo200.gif",
    "lib/tk8.6/images/pwrdLogo75.gif",
    "lib/tk8.6/images/tai-ku.gif",
    "lib/tk8.6/listbox.tcl",
    "lib/tk8.6/megawidget.tcl",
    "lib/tk8.6/menu.tcl",
    "lib/tk8.6/mkpsenc.tcl",
    "lib/tk8.6/msgbox.tcl",
    "lib/tk8.6/msgs/cs.msg",
    "lib/tk8.6/msgs/da.msg",
    "lib/tk8.6/msgs/de.msg",
    "lib/tk8.6/msgs/el.msg",
    "lib/tk8.6/msgs/en.msg",
    "lib/tk8.6/msgs/en_gb.msg",
    "lib/tk8.6/msgs/eo.msg",
    "lib/tk8.6/msgs/es.msg",
    "lib/tk8.6/msgs/fr.msg",
    "lib/tk8.6/msgs/hu.msg",
    "lib/tk8.6/msgs/it.msg",
    "lib/tk8.6/msgs/nl.msg",
    "lib/tk8.6/msgs/pl.msg",
    "lib/tk8.6/msgs/pt.msg",
    "lib/tk8.6/msgs/ru.msg",
    "lib/tk8.6/msgs/sv.msg",
    "lib/tk8.6/obsolete.tcl",
    "lib/tk8.6/optMenu.tcl",
    "lib/tk8.6/palette.tcl",
    "lib/tk8.6/panedwindow.tcl",
    "lib/tk8.6/pkgIndex.tcl",
    "lib/tk8.6/safetk.tcl",
    "lib/tk8.6/scale.tcl",
    "lib/tk8.6/scrlbar.tcl",
    "lib/tk8.6/spinbox.tcl",
    "lib/tk8.6/tclIndex",
    "lib/tk8.6/tearoff.tcl",
    "lib/tk8.6/text.tcl",
    "lib/tk8.6/tk.tcl",
    "lib/tk8.6/tkAppInit.c",
    "lib/tk8.6/tkfbox.tcl",
    "lib/tk8.6/ttk/altTheme.tcl",
    "lib/tk8.6/ttk/aquaTheme.tcl",
    "lib/tk8.6/ttk/button.tcl",
    "lib/tk8.6/ttk/clamTheme.tcl",
    "lib/tk8.6/ttk/classicTheme.tcl",
    "lib/tk8.6/ttk/combobox.tcl",
    "lib/tk8.6/ttk/cursors.tcl",
    "lib/tk8.6/ttk/defaults.tcl",
    "lib/tk8.6/ttk/entry.tcl",
    "lib/tk8.6/ttk/fonts.tcl",
    "lib/tk8.6/ttk/menubutton.tcl",
    "lib/tk8.6/ttk/notebook.tcl",
    "lib/tk8.6/ttk/panedwindow.tcl",
    "lib/tk8.6/ttk/progress.tcl",
    "lib/tk8.6/ttk/scale.tcl",
    "lib/tk8.6/ttk/scrollbar.tcl",
    "lib/tk8.6/ttk/sizegrip.tcl",
    "lib/tk8.6/ttk/spinbox.tcl",
    "lib/tk8.6/ttk/treeview.tcl",
    "lib/tk8.6/ttk/ttk.tcl",
    "lib/tk8.6/ttk/utils.tcl",
    "lib/tk8.6/ttk/vistaTheme.tcl",
    "lib/tk8.6/ttk/winTheme.tcl",
    "lib/tk8.6/ttk/xpTheme.tcl",
    "lib/tk8.6/unsupported.tcl",
    "lib/tk8.6/xmfbox.tcl",
    "lib/tkConfig.sh"
  ],
  "fn": "tk-8.6.8-hbc83047_0.conda",
  "legacy_bz2_md5": "7cfa80461710ca1d25a692d28738cfd3",
  "legacy_bz2_size": 3295425,
  "license": "Tcl/Tk",
  "license_family": "BSD",
  "link": {
    "source": "/home/idoye/Study/Devops/python/python_script/anaconda_ide/anaconda3/pkgs/tk-8.6.8-hbc83047_0",
    "type": 1
  },
  "md5": "4ecf8aae4ac77912de13acb98c562f80",
  "name": "tk",
  "package_tarball_full_path": "/home/idoye/Study/Devops/python/python_script/anaconda_ide/anaconda3/pkgs/tk-8.6.8-hbc83047_0.conda",
  "paths_data": {
    "paths": [
      {
        "_path": "lib/itcl4.1.1/itclConfig.sh",
        "file_mode": "text",
        "path_type": "hardlink",
        "prefix_placeholder": "/opt/anaconda1anaconda2anaconda3",
        "sha256": "56bc029b7d5c8a76191fcfc2747bcbbe9f7f8bb63ddacd0c936f0407079e878a",
        "sha256_in_prefix": "c7e5205144a793ef71b7b39ce7a96811ba5f11f9080aef267700fb1f29fd54e5",
        "size_in_bytes": 3397
      },
      {
        "_path": "lib/libtcl8.6.so",
        "file_mode": "binary",
        "path_type": "hardlink",
        "prefix_placeholder": "/tmp/build/80754af9/tk_1535485056075/_h_env_placehold_placehold_placehold_placehold_placehold_placehold_placehold_placehold_placehold_placehold_placehold_placehold_placehold_placehold_placehold_placehold_placehold_placehold_placehold_placehold_placehold_p",
        "sha256": "26388af1a8ec2ff24f0e74ca9aff8b224989a7a9453d24830bdeb40a7d83e9ef",
        "sha256_in_prefix": "c7422d4ba54eaeacdc6fcdf4bf64e1333e9b5bcfc31819f5b9bb490eb3211b82",
        "size_in_bytes": 1970968
      },
      {
        "_path": "lib/pkgconfig/tcl.pc",
        "file_mode": "text",
        "path_type": "hardlink",
        "prefix_placeholder": "/opt/anaconda1anaconda2anaconda3",
        "sha256": "d466b9d8ae5c01cc5c36da0a4ea44b46a5c53f93805dddd40cc7b3adebd6f0ee",
        "sha256_in_prefix": "afff1c899a500ed2daa3c6435b2bf8b7d4553dc88a6cb0ba26ad7191817deee0",
        "size_in_bytes": 508
      },
      {
        "_path": "lib/pkgconfig/tk.pc",
        "file_mode": "text",
        "path_type": "hardlink",
        "prefix_placeholder": "/opt/anaconda1anaconda2anaconda3",
        "sha256": "f40e7a447f4bee19940a286b3b2bb4db74046fde1cf24ba2c173ed8531ca667c",
        "sha256_in_prefix": "0fccb0e36fba7f947204985a5696f8d0842b80a60fa29246cef519b5a1ae2fd1",
        "size_in_bytes": 503
      },
      {
        "_path": "lib/tclConfig.sh",
        "file_mode": "text",
        "path_type": "hardlink",
        "prefix_placeholder": "/opt/anaconda1anaconda2anaconda3",
        "sha256": "152719f3bef52c5eecebd588398055d485a8e311421f87bfefdadb7e6977adf2",
        "sha256_in_prefix": "93bfff878a2e0830b158090719c00a67a3ab4478ef876c94cf3915bf136de364",
        "size_in_bytes": 8587
      },
      {
        "_path": "lib/tdbc1.0.6/tdbcConfig.sh",
        "file_mode": "text",
        "path_type": "hardlink",
        "prefix_placeholder": "/opt/anaconda1anaconda2anaconda3",
        "sha256": "e30167b7a394c59144fecd6eb0e6a6ab0b9ad141ebb7ecbf8d1410f9403d55e3",
        "sha256_in_prefix": "dbca4322c9abda7bad98e9d4f145db1a44cfbfaf431770e52dabf7153450f649",
        "size_in_bytes": 3981
      },
      {
        "_path": "lib/tkConfig.sh",
        "file_mode": "text",
        "path_type": "hardlink",
        "prefix_placeholder": "/opt/anaconda1anaconda2anaconda3",
        "sha256": "aae469ee21ad5b23bea96a660204fb784334ca4fd20c23c36a4dd51e7bc62e40",
        "sha256_in_prefix": "ce81062b7f1ccf99304da27ae3d1499cedc520b06bda7584213cdd4600aaa6ae",
        "size_in_bytes": 4398
      }
    ],
    "paths_version": 1
  },
  "requested_spec": "tk==8.6.8=hbc83047_0",
  "sha256": "f2844a31d7dc92060c09af984e76288f3f67a919c47d97211528e5989f22fbd8",
  "size": 2944603,
  "subdir": "linux-64",
  "timestamp": 1535485270027,
  "track_features": "",
  "url": "https://repo.anaconda.com/pkgs/main/linux-64/tk-8.6.8-hbc83047_0.conda",
  "version": "8.6.8"
}