{
  "build": "hb453b48_1",
  "build_number": 1,
  "channel": "https://repo.anaconda.com/pkgs/main/linux-64",
  "constrains": [],
  "depends": [
    "glib >=2.56.1,<2.57.0a0",
    "libffi >=3.2.1,<4.0a0",
    "libgcc-ng >=7.2.0",
    "pcre >=8.42,<9.0a0",
    "xz >=5.2.3,<6.0a0"
  ],
  "features": "",
  "fn": "gstreamer-1.14.0-hb453b48_1.conda",
  "legacy_bz2_md5": "c76b52069ea63fc59a9b6074b2084657",
  "legacy_bz2_size": 4022762,
  "md5": "e9b8ad6885e6a342de09c9168bf30e8a",
  "name": "gstreamer",
  "sha256": "6393230d167ee5d77cbd7cdd50b139be9683bd0e5d81c07d01cb7854c04c8e2a",
  "size": 3276952,
  "subdir": "linux-64",
  "timestamp": 1523671228623,
  "track_features": "",
  "url": "https://repo.anaconda.com/pkgs/main/linux-64/gstreamer-1.14.0-hb453b48_1.conda",
  "version": "1.14.0"
}