{
  "build": "py_0",
  "build_number": 0,
  "channel": "https://repo.anaconda.com/pkgs/main/noarch",
  "constrains": [],
  "depends": [
    "python >=3.5"
  ],
  "features": "",
  "fn": "jeepney-0.4.1-py_0.tar.bz2",
  "license": "MIT",
  "license_family": "MIT",
  "md5": "78ef5e654263e07975c81398e9c5dca5",
  "name": "jeepney",
  "noarch": "python",
  "package_type": "noarch_python",
  "sha256": "e3c737f31dd9ed04902d13c71a60fc71fb94bca179966d42882f397836971c98",
  "size": 21470,
  "subdir": "noarch",
  "timestamp": 1569424563648,
  "track_features": "",
  "url": "https://repo.anaconda.com/pkgs/main/noarch/jeepney-0.4.1-py_0.tar.bz2",
  "version": "0.4.1"
}