{
  "arch": "x86_64",
  "build": "py37_0",
  "build_number": 0,
  "depends": [
    "python >=3.7,<3.8.0a0",
    "zipp >=0.5"
  ],
  "license": "APACHE-2.0",
  "license_family": "APACHE",
  "name": "importlib_metadata",
  "platform": "linux",
  "subdir": "linux-64",
  "timestamp": 1569374920397,
  "version": "0.23"
}