{
  "arch": "x86_64",
  "build": "py37_0",
  "build_number": 0,
  "depends": [
    "python >=3.7,<3.8.0a0",
    "setuptools"
  ],
  "license": "MIT",
  "name": "isort",
  "platform": "linux",
  "subdir": "linux-64",
  "timestamp": 1562085540235,
  "version": "4.3.21"
}