{
  "paths": [
    {
      "_path": "site-packages/backports.functools_lru_cache-1.5-py2.7.egg-info/PKG-INFO",
      "path_type": "hardlink",
      "sha256": "d81e1e7440c23414c2c109261dcbeca3e95c7330fe48090f045799e000074afc",
      "size_in_bytes": 1833
    },
    {
      "_path": "site-packages/backports.functools_lru_cache-1.5-py2.7.egg-info/SOURCES.txt",
      "path_type": "hardlink",
      "sha256": "9cb16e2c17d2dd2a2c28dce22386af01896fa11c70b08fecf3563288353f4f2e",
      "size_in_bytes": 571
    },
    {
      "_path": "site-packages/backports.functools_lru_cache-1.5-py2.7.egg-info/dependency_links.txt",
      "path_type": "hardlink",
      "sha256": "01ba4719c80b6fe911b091a7c05124b64eeece964e09c058ef8f9805daca546b",
      "size_in_bytes": 1
    },
    {
      "_path": "site-packages/backports.functools_lru_cache-1.5-py2.7.egg-info/namespace_packages.txt",
      "path_type": "hardlink",
      "sha256": "01ba4719c80b6fe911b091a7c05124b64eeece964e09c058ef8f9805daca546b",
      "size_in_bytes": 1
    },
    {
      "_path": "site-packages/backports.functools_lru_cache-1.5-py2.7.egg-info/requires.txt",
      "path_type": "hardlink",
      "sha256": "ce67d236a38d52e9b9b9d4ebc1ef8e850923e792da54f60954c52485e171b4aa",
      "size_in_bytes": 97
    },
    {
      "_path": "site-packages/backports.functools_lru_cache-1.5-py2.7.egg-info/top_level.txt",
      "path_type": "hardlink",
      "sha256": "7068da2cc3a8051d452b4029a23b73595995893b49ec91882bf1f05e212cbed5",
      "size_in_bytes": 10
    },
    {
      "_path": "site-packages/backports/functools_lru_cache.py",
      "path_type": "hardlink",
      "sha256": "473f5e79e7b883b9d210b467a90098c1feff8b5f6519709994bcdfa9afd98ec9",
      "size_in_bytes": 7317
    }
  ],
  "paths_version": 1
}