{
  "build": "py37hd408876_0",
  "build_number": 0,
  "channel": "https://repo.anaconda.com/pkgs/main/linux-64",
  "constrains": [],
  "depends": [
    "libgcc-ng >=7.3.0",
    "libstdcxx-ng >=7.3.0",
    "python >=3.7,<3.8.0a0",
    "zlib >=1.2.11,<1.3.0a0"
  ],
  "features": "",
  "fn": "llvmlite-0.29.0-py37hd408876_0.conda",
  "legacy_bz2_md5": "f958842cbc89357b294969f9785a81e6",
  "legacy_bz2_size": 18512109,
  "license": "New BSD License",
  "md5": "d609543cb58119db4dff8bcd0bc784d8",
  "name": "llvmlite",
  "sha256": "44127523da58a35a65ee27bc1996c6db2a191f13b5c64387c9a69310a7212060",
  "size": 15573222,
  "subdir": "linux-64",
  "timestamp": 1560810370347,
  "track_features": "",
  "url": "https://repo.anaconda.com/pkgs/main/linux-64/llvmlite-0.29.0-py37hd408876_0.conda",
  "version": "0.29.0"
}