{
  "arch": null,
  "build": "py_0",
  "build_number": 0,
  "depends": [
    "pyparsing >=2.0.2",
    "python",
    "six"
  ],
  "license": "Apache 2.0 or BSD 2-Clause",
  "name": "packaging",
  "noarch": "python",
  "platform": null,
  "subdir": "noarch",
  "timestamp": 1569263648344,
  "version": "19.2"
}