{
  "build": "py_0",
  "build_number": 0,
  "channel": "https://repo.anaconda.com/pkgs/main/noarch",
  "constrains": [],
  "depends": [
    "python",
    "pytz"
  ],
  "features": "",
  "fn": "babel-2.7.0-py_0.tar.bz2",
  "license": "BSD 3-clause",
  "md5": "c220393e450af56d940a82b2fa7c446f",
  "name": "babel",
  "noarch": "python",
  "package_type": "noarch_python",
  "sha256": "218acb4554ab65eb0d8b8fcbbd80109e9a01d11790c6e881866dd32c749be555",
  "size": 6125050,
  "subdir": "noarch",
  "timestamp": 1559860413175,
  "track_features": "",
  "url": "https://repo.anaconda.com/pkgs/main/noarch/babel-2.7.0-py_0.tar.bz2",
  "version": "2.7.0"
}