{
  "build": "py37_0",
  "build_number": 0,
  "channel": "https://repo.anaconda.com/pkgs/main/linux-64",
  "constrains": [],
  "depends": [
    "python >=3.7,<3.8.0a0"
  ],
  "features": "",
  "fn": "pyflakes-2.1.1-py37_0.conda",
  "legacy_bz2_md5": "881de1295f6a1590d58a67e30f6f13bd",
  "legacy_bz2_size": 107444,
  "license": "MIT",
  "license_family": "MIT",
  "md5": "8449a0bf2b9f58555643ee823d049bec",
  "name": "pyflakes",
  "sha256": "e27601cea1c04c7e6ae5e822d5518de7c27b742e6889842494b7f70127cd84cf",
  "size": 108451,
  "subdir": "linux-64",
  "timestamp": 1552332355490,
  "track_features": "",
  "url": "https://repo.anaconda.com/pkgs/main/linux-64/pyflakes-2.1.1-py37_0.conda",
  "version": "2.1.1"
}