{
  "arch": "x86_64",
  "build": "he6710b0_0",
  "build_number": 0,
  "depends": [
    "libgcc-ng >=7.3.0",
    "libstdcxx-ng >=7.3.0"
  ],
  "license": "BSD 3-Clause",
  "license_family": "BSD",
  "name": "pcre",
  "platform": "linux",
  "subdir": "linux-64",
  "timestamp": 1552419679242,
  "version": "8.43"
}