{
  "arch": null,
  "build": "py_0",
  "build_number": 0,
  "depends": [
    "python"
  ],
  "license": "BSD 3-Clause",
  "name": "heapdict",
  "noarch": "python",
  "platform": null,
  "subdir": "noarch",
  "timestamp": 1569462768431,
  "version": "1.0.1"
}