{
  "build": "py37_0",
  "build_number": 0,
  "channel": "https://repo.anaconda.com/pkgs/main/linux-64",
  "constrains": [],
  "depends": [
    "chardet >=2.0",
    "cloudpickle",
    "jedi >=0.9",
    "keyring",
    "nbconvert",
    "numpydoc",
    "pickleshare",
    "psutil",
    "pycodestyle",
    "pyflakes",
    "pygments >=2.0",
    "pylint",
    "pyqt 5.*",
    "python >=3.7,<3.8.0a0",
    "pyzmq",
    "qtawesome >=0.5.7",
    "qtconsole >=4.2",
    "qtpy >=1.5.0",
    "rope >=0.10.5",
    "sphinx",
    "spyder-kernels >=0.5.0,<1"
  ],
  "features": "",
  "fn": "spyder-3.3.6-py37_0.conda",
  "legacy_bz2_md5": "72de2e1257e9d4f47e2b53ad4a9d26fe",
  "legacy_bz2_size": 2644182,
  "license": "MIT",
  "md5": "9eb4895e45a1ba16fd6af63f0cc67c70",
  "name": "spyder",
  "sha256": "dfb850c89e5c8177e5b15c3ef46f8c61de9f3f3d8564da6d09ceb8c7dc3a943d",
  "size": 2261068,
  "subdir": "linux-64",
  "timestamp": 1563210388380,
  "track_features": "",
  "url": "https://repo.anaconda.com/pkgs/main/linux-64/spyder-3.3.6-py37_0.conda",
  "version": "3.3.6"
}