{
  "paths": [
    {
      "_path": "site-packages/Pygments-2.4.2.dist-info/AUTHORS",
      "path_type": "hardlink",
      "sha256": "4c5eda1f562961b853088dac90e2256d8d7b2c50c58457bbd89d23e2cd3e03dd",
      "size_in_bytes": 8343
    },
    {
      "_path": "site-packages/Pygments-2.4.2.dist-info/INSTALLER",
      "path_type": "hardlink",
      "sha256": "ceebae7b8927a3227e5303cf5e0f1f7b34bb542ad7250ac03fbcde36ec2f1508",
      "size_in_bytes": 4
    },
    {
      "_path": "site-packages/Pygments-2.4.2.dist-info/LICENSE",
      "path_type": "hardlink",
      "sha256": "45b88d3449c37806594758bf3c484d9d98b12b1ecc163f65431fe07fea6025f0",
      "size_in_bytes": 1331
    },
    {
      "_path": "site-packages/Pygments-2.4.2.dist-info/METADATA",
      "path_type": "hardlink",
      "sha256": "53cfd50956d6affb37287be50c1d188e52637602d5eafd67a398f68c69c59c0a",
      "size_in_bytes": 1783
    },
    {
      "_path": "site-packages/Pygments-2.4.2.dist-info/RECORD",
      "path_type": "hardlink",
      "sha256": "86a3b568591e1b05a84545904561c2e0258e59d05300fec02479fc7e2f638b36",
      "size_in_bytes": 25234
    },
    {
      "_path": "site-packages/Pygments-2.4.2.dist-info/WHEEL",
      "path_type": "hardlink",
      "sha256": "87f6959f9381d8811152331b8b6a6e72647fcf3589b64df4dd85ef861eb4349f",
      "size_in_bytes": 110
    },
    {
      "_path": "site-packages/Pygments-2.4.2.dist-info/entry_points.txt",
      "path_type": "hardlink",
      "sha256": "357b7d0510d1bfab407c3c2a28cd1b0c7aebc5a22dd9fd67c47f42c23ca348a7",
      "size_in_bytes": 54
    },
    {
      "_path": "site-packages/Pygments-2.4.2.dist-info/top_level.txt",
      "path_type": "hardlink",
      "sha256": "46328aaab5484ada1e6cb1dd6ecd326762e4e2b4bb7311a0b97b0b098bd9d809",
      "size_in_bytes": 9
    },
    {
      "_path": "site-packages/pygments/__init__.py",
      "path_type": "hardlink",
      "sha256": "d9be8508a73ee7cb6abf39ced6e313e850abde0f7a3c9690dfa2bb79450dc4e9",
      "size_in_bytes": 3145
    },
    {
      "_path": "site-packages/pygments/cmdline.py",
      "path_type": "hardlink",
      "sha256": "700af4302d1bbc549d611bc5ac921ede67f22f18560714af69ccdf969cd14069",
      "size_in_bytes": 19535
    },
    {
      "_path": "site-packages/pygments/console.py",
      "path_type": "hardlink",
      "sha256": "405d1b4076c67854527ad73783926c986ce254742a2190a9ac4c0d95916d8918",
      "size_in_bytes": 1721
    },
    {
      "_path": "site-packages/pygments/filter.py",
      "path_type": "hardlink",
      "sha256": "f37c150a18b7dc9e205b9195fa8a19487a175a8ab322718103be03856db7f651",
      "size_in_bytes": 2038
    },
    {
      "_path": "site-packages/pygments/filters/__init__.py",
      "path_type": "hardlink",
      "sha256": "61cb0d4c792bda2cd88307a765e50a7a0ae333314dcc5f55f851839b0b63495e",
      "size_in_bytes": 11573
    },
    {
      "_path": "site-packages/pygments/formatter.py",
      "path_type": "hardlink",
      "sha256": "f5c7889da53a76ac9baf396e76f659a2a34406606fa1f61515aeb7845454ac92",
      "size_in_bytes": 2948
    },
    {
      "_path": "site-packages/pygments/formatters/__init__.py",
      "path_type": "hardlink",
      "sha256": "489f22c27f8a88c9feea74e1f3e0b5b4b7113dd34966eb74c03148626e98a4db",
      "size_in_bytes": 5124
    },
    {
      "_path": "site-packages/pygments/formatters/_mapping.py",
      "path_type": "hardlink",
      "sha256": "78593d74e850795dd6ddbbc2fbc850a26aaed3277fb71505c48fa3cac35394c3",
      "size_in_bytes": 6214
    },
    {
      "_path": "site-packages/pygments/formatters/bbcode.py",
      "path_type": "hardlink",
      "sha256": "fcaed4cf0c93ef4b273980224f752422d6d747041856e4c7a6bd4066d4472fa6",
      "size_in_bytes": 3314
    },
    {
      "_path": "site-packages/pygments/formatters/html.py",
      "path_type": "hardlink",
      "sha256": "5c171972966e1a5df4314806d3bf0babcd8f37498ebadc92b49bf6ba6920c4cd",
      "size_in_bytes": 32686
    },
    {
      "_path": "site-packages/pygments/formatters/img.py",
      "path_type": "hardlink",
      "sha256": "dcf81dec9f4b3a4a959fc4ebc40b4c3a46996491dba5f7113a4906af4baa8ac3",
      "size_in_bytes": 19781
    },
    {
      "_path": "site-packages/pygments/formatters/irc.py",
      "path_type": "hardlink",
      "sha256": "9d4f634a3011b91699a42b827b2edb9d1c064c629e0931219bfc830d8c73290f",
      "size_in_bytes": 5869
    },
    {
      "_path": "site-packages/pygments/formatters/latex.py",
      "path_type": "hardlink",
      "sha256": "1b36995b76902d6232c7800587ff65f548da4c608bfd25e4f8a6d3297692d232",
      "size_in_bytes": 17758
    },
    {
      "_path": "site-packages/pygments/formatters/other.py",
      "path_type": "hardlink",
      "sha256": "0fa2fa415a8683f0e86f335abdf62e6b040f5913279c0dae557c7ba6bbcd5bec",
      "size_in_bytes": 5162
    },
    {
      "_path": "site-packages/pygments/formatters/rtf.py",
      "path_type": "hardlink",
      "sha256": "99d42aff667d910febaa5599b0cc5351dec1a32c6fef6063dc2753d733f0a657",
      "size_in_bytes": 5049
    },
    {
      "_path": "site-packages/pygments/formatters/svg.py",
      "path_type": "hardlink",
      "sha256": "4c8296e4a2553ad8d8d423b863d2aa89df70d881697e4551dc90f5984ba34496",
      "size_in_bytes": 5840
    },
    {
      "_path": "site-packages/pygments/formatters/terminal.py",
      "path_type": "hardlink",
      "sha256": "5dcca8805feaca72cc142d741af51e9f4b47f401f4cd1f2af39c62974ae5a5bd",
      "size_in_bytes": 4997
    },
    {
      "_path": "site-packages/pygments/formatters/terminal256.py",
      "path_type": "hardlink",
      "sha256": "d5df66f7a14f1b4c4469712a5f78f400119652912364ac615462d693ef2c9bba",
      "size_in_bytes": 11068
    },
    {
      "_path": "site-packages/pygments/lexer.py",
      "path_type": "hardlink",
      "sha256": "346eae443fc48c4747cd987421dcc2dad68066d215fcfba7670b5a8f2d6af031",
      "size_in_bytes": 31698
    },
    {
      "_path": "site-packages/pygments/lexers/__init__.py",
      "path_type": "hardlink",
      "sha256": "b36f5b26f3e02d14cbea5cb4f03ef513581fef866228566629ce9b0e37a710b6",
      "size_in_bytes": 11191
    },
    {
      "_path": "site-packages/pygments/lexers/_asy_builtins.py",
      "path_type": "hardlink",
      "sha256": "0a0fa6e28be80a64ed12ac873e1d9625be7c55d122cf7be3babbe2ef098db0ae",
      "size_in_bytes": 27321
    },
    {
      "_path": "site-packages/pygments/lexers/_cl_builtins.py",
      "path_type": "hardlink",
      "sha256": "528e3943e8010a4b3e0294ece8798c70f5438ae9104070d246d0eb7b9dfa33fc",
      "size_in_bytes": 14053
    },
    {
      "_path": "site-packages/pygments/lexers/_cocoa_builtins.py",
      "path_type": "hardlink",
      "sha256": "c8e7cbd34664ea93b988dd5498d4c1f73370fed326828c9d594e41f2a05d257f",
      "size_in_bytes": 40016
    },
    {
      "_path": "site-packages/pygments/lexers/_csound_builtins.py",
      "path_type": "hardlink",
      "sha256": "4d6eb4aeb623d2aa273258721658f554009a4110f98db49c985f2360bc796c9c",
      "size_in_bytes": 16867
    },
    {
      "_path": "site-packages/pygments/lexers/_lasso_builtins.py",
      "path_type": "hardlink",
      "sha256": "d6347edde0e17f509470f49211781b24cca602441a26aa5620f8d8338acbe929",
      "size_in_bytes": 134534
    },
    {
      "_path": "site-packages/pygments/lexers/_lua_builtins.py",
      "path_type": "hardlink",
      "sha256": "5f38fe7e9e92c377a6699bdb92192fa23df0a3bfb83eb203ec9d5c3f1d8f9e70",
      "size_in_bytes": 8346
    },
    {
      "_path": "site-packages/pygments/lexers/_mapping.py",
      "path_type": "hardlink",
      "sha256": "1e61cad709aece97cfba6cd6f39e5a1b99534a4d59c082f84f7c32c849a213d2",
      "size_in_bytes": 56846
    },
    {
      "_path": "site-packages/pygments/lexers/_mql_builtins.py",
      "path_type": "hardlink",
      "sha256": "7429d5090b92c22f73dd8ab602c7c5dd5282c9432e64113a165b90feadb004f0",
      "size_in_bytes": 24736
    },
    {
      "_path": "site-packages/pygments/lexers/_openedge_builtins.py",
      "path_type": "hardlink",
      "sha256": "842a9b21977fa9c05394bc9018c13c9aa8a35030889b93fd1ed22cbfc242106f",
      "size_in_bytes": 48362
    },
    {
      "_path": "site-packages/pygments/lexers/_php_builtins.py",
      "path_type": "hardlink",
      "sha256": "b87e61ca45dbc8ce1de9d5eab3bf165c46242b0560130230c0e3f71d721be58c",
      "size_in_bytes": 154429
    },
    {
      "_path": "site-packages/pygments/lexers/_postgres_builtins.py",
      "path_type": "hardlink",
      "sha256": "388d23ee2ef680aa0d189a260138cafcfd340fb7154fa6e93ea79e481e24d1a3",
      "size_in_bytes": 11210
    },
    {
      "_path": "site-packages/pygments/lexers/_scilab_builtins.py",
      "path_type": "hardlink",
      "sha256": "e608ee0b5372fa42731e2d6783e4c8e1324a56e22eb75a23e09ddfd9b3dd2c89",
      "size_in_bytes": 52405
    },
    {
      "_path": "site-packages/pygments/lexers/_sourcemod_builtins.py",
      "path_type": "hardlink",
      "sha256": "87bf52606efa4870ac4a4eea5c8ed386a204a477e0d38f9e436cbdcf8b2a0839",
      "size_in_bytes": 27113
    },
    {
      "_path": "site-packages/pygments/lexers/_stan_builtins.py",
      "path_type": "hardlink",
      "sha256": "05f4abfcf886e50134fbb8547d7e20fe3770ba029fd735ad184db0df7168b6f0",
      "size_in_bytes": 10481
    },
    {
      "_path": "site-packages/pygments/lexers/_stata_builtins.py",
      "path_type": "hardlink",
      "sha256": "ad9f25a2947fbcab8308178217da0f7fbd6c1e40fa9feb4de93e50a72395120e",
      "size_in_bytes": 25228
    },
    {
      "_path": "site-packages/pygments/lexers/_tsql_builtins.py",
      "path_type": "hardlink",
      "sha256": "e6aae46491e4fe6d528139e10ab2a9e635c9c5ec6309a7f81ad464639fcf4c40",
      "size_in_bytes": 15484
    },
    {
      "_path": "site-packages/pygments/lexers/_vbscript_builtins.py",
      "path_type": "hardlink",
      "sha256": "721a2d6af7857850be03aa9c440821402edf030ac3995f81284fd35be86b6709",
      "size_in_bytes": 4249
    },
    {
      "_path": "site-packages/pygments/lexers/_vim_builtins.py",
      "path_type": "hardlink",
      "sha256": "225fe98eb3f43d652330b0913ce64fa0b81dff78dabafbfd486b413a4ce65360",
      "size_in_bytes": 57090
    },
    {
      "_path": "site-packages/pygments/lexers/actionscript.py",
      "path_type": "hardlink",
      "sha256": "8d04e97ca7b43b04504e49ccb35df6fd686a103216ee541b2d6d075390f470eb",
      "size_in_bytes": 11181
    },
    {
      "_path": "site-packages/pygments/lexers/agile.py",
      "path_type": "hardlink",
      "sha256": "d3223f06affe7a4a850a233391c9c97cd435da2c80e1098f93bd1109f9755dad",
      "size_in_bytes": 900
    },
    {
      "_path": "site-packages/pygments/lexers/algebra.py",
      "path_type": "hardlink",
      "sha256": "bcc8d2a02f4281259432868dbbb832b100dd01ce3ab7f63a538757da61333427",
      "size_in_bytes": 7201
    },
    {
      "_path": "site-packages/pygments/lexers/ambient.py",
      "path_type": "hardlink",
      "sha256": "d7f0762649855601aaf89b84866ad722efaae563f67bb22be434a93bba9737d1",
      "size_in_bytes": 2557
    },
    {
      "_path": "site-packages/pygments/lexers/ampl.py",
      "path_type": "hardlink",
      "sha256": "1d678d67162c3613ee1a65b5960354c4c7b9cccb5b310fb1345a23f6854ebeaf",
      "size_in_bytes": 4123
    },
    {
      "_path": "site-packages/pygments/lexers/apl.py",
      "path_type": "hardlink",
      "sha256": "83322e4bba76433fa93793348b8e6ebc3a30fe0b0d36eb3993acebc1ed7d33d7",
      "size_in_bytes": 3174
    },
    {
      "_path": "site-packages/pygments/lexers/archetype.py",
      "path_type": "hardlink",
      "sha256": "96e241082841b07e9f74939ba33e6955348d08787b9a22ddd71b4b9c8ed31fcf",
      "size_in_bytes": 11136
    },
    {
      "_path": "site-packages/pygments/lexers/asm.py",
      "path_type": "hardlink",
      "sha256": "2398234599727b089ef54b0de2afaa6ea27b4c3715d56bb8bbf30a74186c274d",
      "size_in_bytes": 29408
    },
    {
      "_path": "site-packages/pygments/lexers/automation.py",
      "path_type": "hardlink",
      "sha256": "f68478f79922c846e5f9ebfb3d6178330fa3bedb926ce9262894663af53341bf",
      "size_in_bytes": 19640
    },
    {
      "_path": "site-packages/pygments/lexers/basic.py",
      "path_type": "hardlink",
      "sha256": "b225e4ddf41f4c47c935e496dac23eadfb2ca14a728fb76b31d32bb3972c62bb",
      "size_in_bytes": 27576
    },
    {
      "_path": "site-packages/pygments/lexers/bibtex.py",
      "path_type": "hardlink",
      "sha256": "4c3c21e770cfcc3a80a6afd716485dba4430644c385fa6bc8f95d87515339b36",
      "size_in_bytes": 4727
    },
    {
      "_path": "site-packages/pygments/lexers/boa.py",
      "path_type": "hardlink",
      "sha256": "381fd6db8da6a6bdafc1b860d0c3b806965c7618da5ee33a7df439e339f7f992",
      "size_in_bytes": 3942
    },
    {
      "_path": "site-packages/pygments/lexers/business.py",
      "path_type": "hardlink",
      "sha256": "557bde77cf0f1ff2e0d3958237f31bd9bc57725657e8861d1372976555ed5192",
      "size_in_bytes": 27665
    },
    {
      "_path": "site-packages/pygments/lexers/c_cpp.py",
      "path_type": "hardlink",
      "sha256": "2d0f22aaf6c346eeed5387667bbf4c27c8fb20db504d57be69c52b430407bfe9",
      "size_in_bytes": 10527
    },
    {
      "_path": "site-packages/pygments/lexers/c_like.py",
      "path_type": "hardlink",
      "sha256": "c79d5112b64b91853f873a771c6a77eeaf52b8edf63dcb05f7d4836ab7aaeaee",
      "size_in_bytes": 25184
    },
    {
      "_path": "site-packages/pygments/lexers/capnproto.py",
      "path_type": "hardlink",
      "sha256": "a42df35c549f6051c4201ab73aa2cf18a97bd4ae47b5d5a7004a8ccfa9fc2856",
      "size_in_bytes": 2194
    },
    {
      "_path": "site-packages/pygments/lexers/chapel.py",
      "path_type": "hardlink",
      "sha256": "5414e2c6409dc0e79b20a4dd5b4a314c0952db313df4461418de6188276719e0",
      "size_in_bytes": 3824
    },
    {
      "_path": "site-packages/pygments/lexers/clean.py",
      "path_type": "hardlink",
      "sha256": "5c6d3fd8a572c5b445a7efd4e47813d7037db2b2f9db690e7bff53e751de4260",
      "size_in_bytes": 6362
    },
    {
      "_path": "site-packages/pygments/lexers/compiled.py",
      "path_type": "hardlink",
      "sha256": "886c1590227e497a28bc77a03814a7386e75f211e40ee75e81bf7fa92fbcbd6d",
      "size_in_bytes": 1385
    },
    {
      "_path": "site-packages/pygments/lexers/configs.py",
      "path_type": "hardlink",
      "sha256": "810518c40d78cb1c71306c3f6bc2bdccea30a9277c42aaa266388b18e6dcca70",
      "size_in_bytes": 31855
    },
    {
      "_path": "site-packages/pygments/lexers/console.py",
      "path_type": "hardlink",
      "sha256": "b63fc0440a655e5aaddac19bdb2731b0ecbcc482f834200c39dddb674663a238",
      "size_in_bytes": 4120
    },
    {
      "_path": "site-packages/pygments/lexers/crystal.py",
      "path_type": "hardlink",
      "sha256": "853cf6d325ab8ee6a6f49546f57c6be88ef1e7433fb0895f741b34fe083984a4",
      "size_in_bytes": 16845
    },
    {
      "_path": "site-packages/pygments/lexers/csound.py",
      "path_type": "hardlink",
      "sha256": "cc756e9661cf0f29496840cac7becd65568281618099d4806873375b3a2e5202",
      "size_in_bytes": 16715
    },
    {
      "_path": "site-packages/pygments/lexers/css.py",
      "path_type": "hardlink",
      "sha256": "185582f0e0432839080a7d9b4571f6666a44c461705771dce637f111010bc9e8",
      "size_in_bytes": 31509
    },
    {
      "_path": "site-packages/pygments/lexers/d.py",
      "path_type": "hardlink",
      "sha256": "13f1a3fb9a4b782dd5ea053326d7951fb26a64482169df62ba9d7d3d3f5a9b89",
      "size_in_bytes": 9530
    },
    {
      "_path": "site-packages/pygments/lexers/dalvik.py",
      "path_type": "hardlink",
      "sha256": "b40a0f3dafe24578561bf333b254af044f7d3651a7931d162a7c1d0d0dd753da",
      "size_in_bytes": 4420
    },
    {
      "_path": "site-packages/pygments/lexers/data.py",
      "path_type": "hardlink",
      "sha256": "934c6cb95d0c3362286305a9e0096b1c1092ddefa2e177505bf222698d827251",
      "size_in_bytes": 19055
    },
    {
      "_path": "site-packages/pygments/lexers/diff.py",
      "path_type": "hardlink",
      "sha256": "f2328456d480d982a9aeeb6938da85bcc28184ad54fc815dc5a49c4ee44d794e",
      "size_in_bytes": 4873
    },
    {
      "_path": "site-packages/pygments/lexers/dotnet.py",
      "path_type": "hardlink",
      "sha256": "22d7f4b1bb567a8a16708f5e05836d7045e4af48b7a829964b71805ffed54952",
      "size_in_bytes": 27599
    },
    {
      "_path": "site-packages/pygments/lexers/dsls.py",
      "path_type": "hardlink",
      "sha256": "f19ccee5cd8542dd65a0ce94770c3df162a49c46c9431245e3a205a76b195872",
      "size_in_bytes": 33339
    },
    {
      "_path": "site-packages/pygments/lexers/dylan.py",
      "path_type": "hardlink",
      "sha256": "b16f2df363e702794d30667f135c192f6fd00f13c8d7f00ff882cc9ebd8996c5",
      "size_in_bytes": 10422
    },
    {
      "_path": "site-packages/pygments/lexers/ecl.py",
      "path_type": "hardlink",
      "sha256": "e62bf1ca4e65ccca2db42b88c7213b0c1bd6609579293b9a1cd464bceb6033b7",
      "size_in_bytes": 5875
    },
    {
      "_path": "site-packages/pygments/lexers/eiffel.py",
      "path_type": "hardlink",
      "sha256": "1ded83c2852a5aa32df3f3c3ce83f736e065f4067d2b7fd29a91a42204b35ae2",
      "size_in_bytes": 2482
    },
    {
      "_path": "site-packages/pygments/lexers/elm.py",
      "path_type": "hardlink",
      "sha256": "c6c4ec354b3f136120ede31e2ffd27402f69cc0fc7dd76d223e8d91cdc46e767",
      "size_in_bytes": 2999
    },
    {
      "_path": "site-packages/pygments/lexers/erlang.py",
      "path_type": "hardlink",
      "sha256": "ba8b75bcde142f978382754f6702e7a0381fe9ee857eb8997facd7efa485e490",
      "size_in_bytes": 18938
    },
    {
      "_path": "site-packages/pygments/lexers/esoteric.py",
      "path_type": "hardlink",
      "sha256": "23b6043e741d7edc4439ab0279cf3f77156bef3832a4cb6862d76cd2fdacacd4",
      "size_in_bytes": 9489
    },
    {
      "_path": "site-packages/pygments/lexers/ezhil.py",
      "path_type": "hardlink",
      "sha256": "476e9be225d2a5d3248177b024dd883612572f42025e15b6a3d7eeddb9f4efc5",
      "size_in_bytes": 3020
    },
    {
      "_path": "site-packages/pygments/lexers/factor.py",
      "path_type": "hardlink",
      "sha256": "9c162126834b912c6db211ab174f2d490294abf4ed815a75ba4297e19ae89a6f",
      "size_in_bytes": 17864
    },
    {
      "_path": "site-packages/pygments/lexers/fantom.py",
      "path_type": "hardlink",
      "sha256": "dce4c90e46bca9e351ca43352a2d4bc9e93a81dfa3a8e6be97922045b5fc9128",
      "size_in_bytes": 9982
    },
    {
      "_path": "site-packages/pygments/lexers/felix.py",
      "path_type": "hardlink",
      "sha256": "0e84867449ed6601b72546de040f5fa94b60de53836eac18dff5d2e8421f5ede",
      "size_in_bytes": 9408
    },
    {
      "_path": "site-packages/pygments/lexers/floscript.py",
      "path_type": "hardlink",
      "sha256": "7b36b8470dd12379858c82000367339a2d929606dc488d53f2936beef51dd1e6",
      "size_in_bytes": 2667
    },
    {
      "_path": "site-packages/pygments/lexers/forth.py",
      "path_type": "hardlink",
      "sha256": "62a9bdcfe3e3ca68d08da95e096f9234974209cfcd59e157333fd7be3b404ad2",
      "size_in_bytes": 7179
    },
    {
      "_path": "site-packages/pygments/lexers/fortran.py",
      "path_type": "hardlink",
      "sha256": "5eac1b660db96ad8cd0cdf32527aa4c66d677ea6f34a0643aa62942053504879",
      "size_in_bytes": 9841
    },
    {
      "_path": "site-packages/pygments/lexers/foxpro.py",
      "path_type": "hardlink",
      "sha256": "8b507ac17e14e6863c1493b9046b5347445a5566cee8fe393d7c67762e477291",
      "size_in_bytes": 26236
    },
    {
      "_path": "site-packages/pygments/lexers/freefem.py",
      "path_type": "hardlink",
      "sha256": "6eed2a4f97100a87b54dc83665bcfa09c97995f7d6aa77d6bdb27d8e7e8432eb",
      "size_in_bytes": 27164
    },
    {
      "_path": "site-packages/pygments/lexers/functional.py",
      "path_type": "hardlink",
      "sha256": "809ab3829d6e8d36bc664e618f35ddbadcfcbef489a51c61a9354290ad37223d",
      "size_in_bytes": 698
    },
    {
      "_path": "site-packages/pygments/lexers/go.py",
      "path_type": "hardlink",
      "sha256": "69175cd25b0a6c5ef1c537149eedf99befdedd20fbb3678102596ad72effa98f",
      "size_in_bytes": 3701
    },
    {
      "_path": "site-packages/pygments/lexers/grammar_notation.py",
      "path_type": "hardlink",
      "sha256": "8ffdbcf53a9ae2e99d12ef05e49ce3bd63cd88672cfa790e0744d558dc8ca341",
      "size_in_bytes": 6329
    },
    {
      "_path": "site-packages/pygments/lexers/graph.py",
      "path_type": "hardlink",
      "sha256": "bf4d771b39ff448b8bac4cff0c9b946a1fef0a9bfa69548c6691c6a2fd7d04c6",
      "size_in_bytes": 2756
    },
    {
      "_path": "site-packages/pygments/lexers/graphics.py",
      "path_type": "hardlink",
      "sha256": "c5fafb8d9fc917cd6487e445c4815228e6b4e96e33d18c56ccec57026acbc0c0",
      "size_in_bytes": 38259
    },
    {
      "_path": "site-packages/pygments/lexers/haskell.py",
      "path_type": "hardlink",
      "sha256": "91462f5a4fe23c61c374048d0d4ed9da188dbc0ccd4fb7122bf7b487cb2c3fd8",
      "size_in_bytes": 32071
    },
    {
      "_path": "site-packages/pygments/lexers/haxe.py",
      "path_type": "hardlink",
      "sha256": "5e3a39ca64155fcf332ff1f75e172df92143503d17879ae18f3a9f28cf73cb6d",
      "size_in_bytes": 30958
    },
    {
      "_path": "site-packages/pygments/lexers/hdl.py",
      "path_type": "hardlink",
      "sha256": "db425359001e77fe59aee0297778845baee421e6c7ee67210e88d5a99eb72cca",
      "size_in_bytes": 18699
    },
    {
      "_path": "site-packages/pygments/lexers/hexdump.py",
      "path_type": "hardlink",
      "sha256": "ef2e978693866957dbb563d2cc5c607a7f2ee2cafdb1609b9d15139af9d6d4a2",
      "size_in_bytes": 3507
    },
    {
      "_path": "site-packages/pygments/lexers/html.py",
      "path_type": "hardlink",
      "sha256": "eb69814b02409a763545b603dfedfdd325df01ad4d89673b64c21513a4a5fc3c",
      "size_in_bytes": 19285
    },
    {
      "_path": "site-packages/pygments/lexers/idl.py",
      "path_type": "hardlink",
      "sha256": "860ec29e2cda56dedbafac9d5a4b78554f5430d6b1ee08384e8037feb9ea3353",
      "size_in_bytes": 14986
    },
    {
      "_path": "site-packages/pygments/lexers/igor.py",
      "path_type": "hardlink",
      "sha256": "14fff7533d3aa757a6441d41aa927fd75298e64dfc0f99c12cff6714b9d7b070",
      "size_in_bytes": 30917
    },
    {
      "_path": "site-packages/pygments/lexers/inferno.py",
      "path_type": "hardlink",
      "sha256": "881d3bc21ad377faa7b0004e51a96ff7df50845601da78481df4e9fc40ac4f13",
      "size_in_bytes": 3117
    },
    {
      "_path": "site-packages/pygments/lexers/installers.py",
      "path_type": "hardlink",
      "sha256": "4153cea852e60f274f8412589907328eae9742f70f6f51f18696efe49be02fe3",
      "size_in_bytes": 12866
    },
    {
      "_path": "site-packages/pygments/lexers/int_fiction.py",
      "path_type": "hardlink",
      "sha256": "fa3064b66d289c8533fe1cec3f495477783d68b5c9e0a2e5b34823230481e3aa",
      "size_in_bytes": 55779
    },
    {
      "_path": "site-packages/pygments/lexers/iolang.py",
      "path_type": "hardlink",
      "sha256": "4aff6ace1360bd5cf5c664ad64e2e6dca4ef95c236035cf2c005904e8e9a86cd",
      "size_in_bytes": 1905
    },
    {
      "_path": "site-packages/pygments/lexers/j.py",
      "path_type": "hardlink",
      "sha256": "db0a8182f93117df72053772b2512c69ec1e66ea8d3bfc8d64f8d3291c0d4dda",
      "size_in_bytes": 4527
    },
    {
      "_path": "site-packages/pygments/lexers/javascript.py",
      "path_type": "hardlink",
      "sha256": "81ce599c5a9226dce61894a620be8d0cb5793e875753ced7db1bfe5ef7cbb094",
      "size_in_bytes": 60079
    },
    {
      "_path": "site-packages/pygments/lexers/julia.py",
      "path_type": "hardlink",
      "sha256": "39b454f918cd7bf37acdc41982ae67c2ce76e97fe3ff873828f505c3044e167b",
      "size_in_bytes": 14179
    },
    {
      "_path": "site-packages/pygments/lexers/jvm.py",
      "path_type": "hardlink",
      "sha256": "2d917963310cf8ff86bb42d0af3cb6a7cf679cdcddf098d2e27eb936885b5d10",
      "size_in_bytes": 69967
    },
    {
      "_path": "site-packages/pygments/lexers/lisp.py",
      "path_type": "hardlink",
      "sha256": "6610d2a030abc25afd06c7980e273ee4555bd15a45aee9db0b010c5d642da374",
      "size_in_bytes": 143585
    },
    {
      "_path": "site-packages/pygments/lexers/make.py",
      "path_type": "hardlink",
      "sha256": "75b9e19195b1112be4bd5ebd4eb404658768e328941a8041204f95a575f5b813",
      "size_in_bytes": 7326
    },
    {
      "_path": "site-packages/pygments/lexers/markup.py",
      "path_type": "hardlink",
      "sha256": "765a25764c573107a3137e2cc5d7e98d14285ab145dc2d1d305c794911ef8ef7",
      "size_in_bytes": 20773
    },
    {
      "_path": "site-packages/pygments/lexers/math.py",
      "path_type": "hardlink",
      "sha256": "ef8612f99d33a413fa2589357ec6ae61b5bb5de67e5cf0d3a8a6a46e45f4bf56",
      "size_in_bytes": 700
    },
    {
      "_path": "site-packages/pygments/lexers/matlab.py",
      "path_type": "hardlink",
      "sha256": "7de1dfb6ab141b86872bd4e9bbe269b3f6d6fc0283960ccc8ff615ac6af624d5",
      "size_in_bytes": 29148
    },
    {
      "_path": "site-packages/pygments/lexers/ml.py",
      "path_type": "hardlink",
      "sha256": "5cb8c51646f1a27ef7292427a8a02a549376ffd288d02b37819a019e68876331",
      "size_in_bytes": 27892
    },
    {
      "_path": "site-packages/pygments/lexers/modeling.py",
      "path_type": "hardlink",
      "sha256": "3aa44b36fa62a87f0a9633190137ab4b391f26a87bfce5538ea7974e90bc4149",
      "size_in_bytes": 13390
    },
    {
      "_path": "site-packages/pygments/lexers/modula2.py",
      "path_type": "hardlink",
      "sha256": "cde9c0c09935ee155ad459ce4d91c90302eb0eb99cbabc6ee32c3ba54a1afd09",
      "size_in_bytes": 52561
    },
    {
      "_path": "site-packages/pygments/lexers/monte.py",
      "path_type": "hardlink",
      "sha256": "b489f496c2dd1b4887457ff4d4a23d3a447889acf2895e45f07dce96429d1594",
      "size_in_bytes": 6307
    },
    {
      "_path": "site-packages/pygments/lexers/ncl.py",
      "path_type": "hardlink",
      "sha256": "d14f310dd3b482e2259d02821ca98a40f5eff7526acb562fae43683289da629e",
      "size_in_bytes": 63986
    },
    {
      "_path": "site-packages/pygments/lexers/nimrod.py",
      "path_type": "hardlink",
      "sha256": "111505e0d54c5256e2ac5fc5bcdf042175c546fe9126a721ab8aebf6fba01cf2",
      "size_in_bytes": 5174
    },
    {
      "_path": "site-packages/pygments/lexers/nit.py",
      "path_type": "hardlink",
      "sha256": "15240274b363294af0fe98ac8821fe9b5e4441ccf7d25bfac2fbdb4e092b07e6",
      "size_in_bytes": 2743
    },
    {
      "_path": "site-packages/pygments/lexers/nix.py",
      "path_type": "hardlink",
      "sha256": "4538171712f69e203d886d732c745674d672ef485efef1350f4f8572853571fc",
      "size_in_bytes": 4031
    },
    {
      "_path": "site-packages/pygments/lexers/oberon.py",
      "path_type": "hardlink",
      "sha256": "1cc3a77a18126cb69357a9757b96f8e1a66db721366087c0da1cf28fa316e715",
      "size_in_bytes": 3733
    },
    {
      "_path": "site-packages/pygments/lexers/objective.py",
      "path_type": "hardlink",
      "sha256": "140ee09e28a9d5e1030bdc75508bdd23c7e546d1717a14c721dd0c96a074965a",
      "size_in_bytes": 22789
    },
    {
      "_path": "site-packages/pygments/lexers/ooc.py",
      "path_type": "hardlink",
      "sha256": "94fe8a4a8585aeaf50ef0e45fda45268b614af28789ee05c3df9d4930c8142c5",
      "size_in_bytes": 2999
    },
    {
      "_path": "site-packages/pygments/lexers/other.py",
      "path_type": "hardlink",
      "sha256": "d31b8e610d2e23d78b38d153341bf67be865b5985070de77d4d562eded807104",
      "size_in_bytes": 1768
    },
    {
      "_path": "site-packages/pygments/lexers/parasail.py",
      "path_type": "hardlink",
      "sha256": "6048293f707adaa1d838115ca0284e7e0cc04dcceb48f8f55b2a2f220a96de08",
      "size_in_bytes": 2737
    },
    {
      "_path": "site-packages/pygments/lexers/parsers.py",
      "path_type": "hardlink",
      "sha256": "7e14f2ab0ce27c4a4515f5bc7a643d598601c2552ce3c4affeaca40944285871",
      "size_in_bytes": 27590
    },
    {
      "_path": "site-packages/pygments/lexers/pascal.py",
      "path_type": "hardlink",
      "sha256": "a0b451fff3535cfb525ff1f677c243a05ac6a85249d1e13df0d3f374f8d594a7",
      "size_in_bytes": 32651
    },
    {
      "_path": "site-packages/pygments/lexers/pawn.py",
      "path_type": "hardlink",
      "sha256": "e22fe24116a0860b05eedd94544ef6e83f6aa2296322e34843d5dc4f87ada63d",
      "size_in_bytes": 8098
    },
    {
      "_path": "site-packages/pygments/lexers/perl.py",
      "path_type": "hardlink",
      "sha256": "d62fa63ea17a1b119c5f6f1b5b8565241a6fa599fc150a964438d81d08f5fb1a",
      "size_in_bytes": 32012
    },
    {
      "_path": "site-packages/pygments/lexers/php.py",
      "path_type": "hardlink",
      "sha256": "38c3b63161d423273fccd0d44036a38f5489d4a0c8e0f05db48c1eb4142045ef",
      "size_in_bytes": 10821
    },
    {
      "_path": "site-packages/pygments/lexers/pony.py",
      "path_type": "hardlink",
      "sha256": "87a4be30628deeaeec93cebda168c2d4e72057bcf05e5a189c616c8614c5c479",
      "size_in_bytes": 3269
    },
    {
      "_path": "site-packages/pygments/lexers/praat.py",
      "path_type": "hardlink",
      "sha256": "fcaaed23c984d8e2f0d4efa5a738b11793641201f3274f5c712eea2561231c41",
      "size_in_bytes": 12556
    },
    {
      "_path": "site-packages/pygments/lexers/prolog.py",
      "path_type": "hardlink",
      "sha256": "577467f74193a6e7a12820ea63690edfbcbcefa559f42d9703137a7df23ed1be",
      "size_in_bytes": 12031
    },
    {
      "_path": "site-packages/pygments/lexers/python.py",
      "path_type": "hardlink",
      "sha256": "cfb702513a846ce075f138de44627a6deb3b2e1064e1d7ab53bfa561f2f63ce7",
      "size_in_bytes": 42558
    },
    {
      "_path": "site-packages/pygments/lexers/qvt.py",
      "path_type": "hardlink",
      "sha256": "fe55cf4f949d0c4aa10a6baae1370ef4946b3fbd379084f76b563f656f4d4c26",
      "size_in_bytes": 6097
    },
    {
      "_path": "site-packages/pygments/lexers/r.py",
      "path_type": "hardlink",
      "sha256": "ee8274221abaa9d860773a4a6b2782f8c72210a9ba3d65b751624862720afe20",
      "size_in_bytes": 6279
    },
    {
      "_path": "site-packages/pygments/lexers/rdf.py",
      "path_type": "hardlink",
      "sha256": "e4fb397e6e501c154a107d8f301e874f66a75d050879a90c139840ea82545c69",
      "size_in_bytes": 9690
    },
    {
      "_path": "site-packages/pygments/lexers/rebol.py",
      "path_type": "hardlink",
      "sha256": "ddb84e14c32778fdfc3bd6891633d994d4d2e9cc1b7270e525a0db7ef178c758",
      "size_in_bytes": 18624
    },
    {
      "_path": "site-packages/pygments/lexers/resource.py",
      "path_type": "hardlink",
      "sha256": "849ca8adfc93373a8f5db80fe636f853d9b23d017bf0667f984db9ce770c5cad",
      "size_in_bytes": 2933
    },
    {
      "_path": "site-packages/pygments/lexers/rnc.py",
      "path_type": "hardlink",
      "sha256": "3b1a4696514300ce959ff6a51a268428ccd00e8a910ab97cda870e3b8b3a2ff9",
      "size_in_bytes": 1990
    },
    {
      "_path": "site-packages/pygments/lexers/roboconf.py",
      "path_type": "hardlink",
      "sha256": "f5e6645f9c646a38a64d5d45e70af463c4073dfb8407ae7d2dd7bc1f903315f3",
      "size_in_bytes": 2070
    },
    {
      "_path": "site-packages/pygments/lexers/robotframework.py",
      "path_type": "hardlink",
      "sha256": "493e1276dfdb5cd518557f2e5392f91637c97f2e22d4e93c82ccc97bfe31fae1",
      "size_in_bytes": 18745
    },
    {
      "_path": "site-packages/pygments/lexers/ruby.py",
      "path_type": "hardlink",
      "sha256": "1f007427dcb7b0b3022a3221c93c12bec2579d15b227d9df7e60cbf87ce6ac74",
      "size_in_bytes": 22147
    },
    {
      "_path": "site-packages/pygments/lexers/rust.py",
      "path_type": "hardlink",
      "sha256": "c16ce4332f0c7459aedfb07d765bd8bb01f20a83ac8e94cb0be80a038353d16e",
      "size_in_bytes": 7717
    },
    {
      "_path": "site-packages/pygments/lexers/sas.py",
      "path_type": "hardlink",
      "sha256": "82e10b77fe062c8d5f859af74b1b67f341adeace9589815fe235a72b6df3cc37",
      "size_in_bytes": 9449
    },
    {
      "_path": "site-packages/pygments/lexers/scripting.py",
      "path_type": "hardlink",
      "sha256": "95cf680cea64c0a03d9d4707277c765d7b3de08f94b1a8848b8a7d53f0b9f0cf",
      "size_in_bytes": 67764
    },
    {
      "_path": "site-packages/pygments/lexers/sgf.py",
      "path_type": "hardlink",
      "sha256": "47966a779a153b251df8d7b01173260026843b9457fc5ede61465a2571936388",
      "size_in_bytes": 2024
    },
    {
      "_path": "site-packages/pygments/lexers/shell.py",
      "path_type": "hardlink",
      "sha256": "8c6ce262fffcf75a1e2eb95139af53b710ba077e9fe594a537031a5d454d54a5",
      "size_in_bytes": 33270
    },
    {
      "_path": "site-packages/pygments/lexers/slash.py",
      "path_type": "hardlink",
      "sha256": "3c17b4ee9f4ec88dc4118646d1099e20281faa86e205dc2453e20b63ed10a1bc",
      "size_in_bytes": 8521
    },
    {
      "_path": "site-packages/pygments/lexers/smalltalk.py",
      "path_type": "hardlink",
      "sha256": "c704444d10763bf70a1d953dc35f105d9a62cfced63b0d2550b0e133173dc670",
      "size_in_bytes": 7215
    },
    {
      "_path": "site-packages/pygments/lexers/smv.py",
      "path_type": "hardlink",
      "sha256": "996baacf4b98a6240b394e08365c637eb7ec94e0b5ca9d4140cf1495ede0a96c",
      "size_in_bytes": 2802
    },
    {
      "_path": "site-packages/pygments/lexers/snobol.py",
      "path_type": "hardlink",
      "sha256": "60538eb8f938c81c60eacb65226e91dd489483390c8f3d3a69cedd5b72d1c4d9",
      "size_in_bytes": 2756
    },
    {
      "_path": "site-packages/pygments/lexers/special.py",
      "path_type": "hardlink",
      "sha256": "42928cab9b120407ec7429e9ae455d6c1329c6da8aa19557aca555cb716353ce",
      "size_in_bytes": 3151
    },
    {
      "_path": "site-packages/pygments/lexers/sql.py",
      "path_type": "hardlink",
      "sha256": "f4e92f197d6fa4487504459c248637dd7e1bcd74b931fb74a79a3df676c4a2cc",
      "size_in_bytes": 31574
    },
    {
      "_path": "site-packages/pygments/lexers/stata.py",
      "path_type": "hardlink",
      "sha256": "f488ccfbcfce49263bffb15dab5425344a9ea35299c791bbfcdf4d2f8ea39c5e",
      "size_in_bytes": 6457
    },
    {
      "_path": "site-packages/pygments/lexers/supercollider.py",
      "path_type": "hardlink",
      "sha256": "965556f87522ee6e0c346cb8c04a7c6c5d812464d7770174a0d7c97c9fec23c3",
      "size_in_bytes": 3516
    },
    {
      "_path": "site-packages/pygments/lexers/tcl.py",
      "path_type": "hardlink",
      "sha256": "3917f40815c7c02d8c141a59a5c2b6b0f042093c89deb73071838884df6cd002",
      "size_in_bytes": 5398
    },
    {
      "_path": "site-packages/pygments/lexers/templates.py",
      "path_type": "hardlink",
      "sha256": "8d5fc1f51185ef847d409e1a2fa564039f667a60c39084eadb94cf4c431ff5ad",
      "size_in_bytes": 73471
    },
    {
      "_path": "site-packages/pygments/lexers/teraterm.py",
      "path_type": "hardlink",
      "sha256": "9728d61cb9d652b0601eebd37e17d7d4dee32b874673cd993b3aed767eb4cdaf",
      "size_in_bytes": 6310
    },
    {
      "_path": "site-packages/pygments/lexers/testing.py",
      "path_type": "hardlink",
      "sha256": "0a2f69536ce10ffba785746888c95a0b38e06b65d8d5e72f22ba74e3ec2f75f0",
      "size_in_bytes": 10752
    },
    {
      "_path": "site-packages/pygments/lexers/text.py",
      "path_type": "hardlink",
      "sha256": "edcc218d5d86c0b447d023e394e6fb3cb55ae9712245084334553554edca3631",
      "size_in_bytes": 1030
    },
    {
      "_path": "site-packages/pygments/lexers/textedit.py",
      "path_type": "hardlink",
      "sha256": "282ecb8542f57058ac5ed99e4feee7997300f7b78556f02399d5a2b4ba6e995d",
      "size_in_bytes": 6057
    },
    {
      "_path": "site-packages/pygments/lexers/textfmts.py",
      "path_type": "hardlink",
      "sha256": "75e1891deed80137cae20a8074b54714361ac6c08ad443683ef0e76fff104ee7",
      "size_in_bytes": 10857
    },
    {
      "_path": "site-packages/pygments/lexers/theorem.py",
      "path_type": "hardlink",
      "sha256": "f37fd13d335cf3c2d89bde84f52ccdbbfceff7ef8ab14681dd169f6d8848667c",
      "size_in_bytes": 18902
    },
    {
      "_path": "site-packages/pygments/lexers/trafficscript.py",
      "path_type": "hardlink",
      "sha256": "0584f24c0943e280d567d0f5691ae6cb8cc80b8549fe7d8b82482af760f17893",
      "size_in_bytes": 1546
    },
    {
      "_path": "site-packages/pygments/lexers/typoscript.py",
      "path_type": "hardlink",
      "sha256": "7990ca31007969db79db7a5112ff619787b067aee1df90f6dcea3b26ae3df588",
      "size_in_bytes": 8296
    },
    {
      "_path": "site-packages/pygments/lexers/unicon.py",
      "path_type": "hardlink",
      "sha256": "c68d04de19c15b481b76cccbea7f7a09dcee99ede5d4323bb1c824210f24a1ac",
      "size_in_bytes": 18001
    },
    {
      "_path": "site-packages/pygments/lexers/urbi.py",
      "path_type": "hardlink",
      "sha256": "66adcf0930be288ed062e2d9ecd49d8a49bdf8cac086b607f431975524d3f3d2",
      "size_in_bytes": 5750
    },
    {
      "_path": "site-packages/pygments/lexers/varnish.py",
      "path_type": "hardlink",
      "sha256": "636b7f258eee573ea91f752f96922fb9ac6eac7e2046242b3f812cab0e633e79",
      "size_in_bytes": 7265
    },
    {
      "_path": "site-packages/pygments/lexers/verification.py",
      "path_type": "hardlink",
      "sha256": "aa4f71854403703da33d3d24f5b425a3fe5e28cdd498bed10a25dc79815417c5",
      "size_in_bytes": 3705
    },
    {
      "_path": "site-packages/pygments/lexers/web.py",
      "path_type": "hardlink",
      "sha256": "e2d868abe9bf9068b19c34766da5b0379784aa9140787dda45a38c2b827f18e1",
      "size_in_bytes": 918
    },
    {
      "_path": "site-packages/pygments/lexers/webmisc.py",
      "path_type": "hardlink",
      "sha256": "013a83c3f90886bf2e73e8504ca26984a7b0acd5f25e9d988eb443b48f6f7ea7",
      "size_in_bytes": 39909
    },
    {
      "_path": "site-packages/pygments/lexers/whiley.py",
      "path_type": "hardlink",
      "sha256": "27d66e3bc62ff43625f4c6fa207c99cf6ce0b86c595c12b14d2c037316a28bca",
      "size_in_bytes": 4012
    },
    {
      "_path": "site-packages/pygments/lexers/x10.py",
      "path_type": "hardlink",
      "sha256": "2eedf9413d25fa86e36e2ea60a6fabc5953fee03b5ad94218c0e899d9f840512",
      "size_in_bytes": 1965
    },
    {
      "_path": "site-packages/pygments/lexers/xorg.py",
      "path_type": "hardlink",
      "sha256": "1433747336f1303e980ceab02fa96db29125c0ca31c4d54a5b5d4e2fefa47906",
      "size_in_bytes": 887
    },
    {
      "_path": "site-packages/pygments/modeline.py",
      "path_type": "hardlink",
      "sha256": "72d8091cb8cb176de0925632a3b373e8fdc8dd9f00adec254f94769f628d6ad4",
      "size_in_bytes": 1010
    },
    {
      "_path": "site-packages/pygments/plugin.py",
      "path_type": "hardlink",
      "sha256": "40548165c3aa489a805509f27700e0f3f2c6ec6ce4c548168dbd05ceaa101c43",
      "size_in_bytes": 1734
    },
    {
      "_path": "site-packages/pygments/regexopt.py",
      "path_type": "hardlink",
      "sha256": "c8c6410770d1b9d3f80233c6014a4817ffe8fcd58e2b81eb35f155ea1d38575c",
      "size_in_bytes": 3094
    },
    {
      "_path": "site-packages/pygments/scanner.py",
      "path_type": "hardlink",
      "sha256": "fd02398d9968e14a32634079ef6647a963af54b25387d8c8ab7d7e899afe10fb",
      "size_in_bytes": 3123
    },
    {
      "_path": "site-packages/pygments/sphinxext.py",
      "path_type": "hardlink",
      "sha256": "78a87d2a62cf8018f592a3ebfa976ebcf3c3b77204c8db787a5a17815337f137",
      "size_in_bytes": 4657
    },
    {
      "_path": "site-packages/pygments/style.py",
      "path_type": "hardlink",
      "sha256": "53684eec2c3b12880bb3a215c63d55a6baa520200487dd01dc0c9fea44c00132",
      "size_in_bytes": 5758
    },
    {
      "_path": "site-packages/pygments/styles/__init__.py",
      "path_type": "hardlink",
      "sha256": "c9a06d9d536da2840a0322d4346655edf668cedb456ad3e4d438ed7e1823b8b0",
      "size_in_bytes": 2852
    },
    {
      "_path": "site-packages/pygments/styles/abap.py",
      "path_type": "hardlink",
      "sha256": "c1e35ad804e30436d637e109a77e8ab9aa4ebffd7ad4e62e74cea2973a7fe6d5",
      "size_in_bytes": 751
    },
    {
      "_path": "site-packages/pygments/styles/algol.py",
      "path_type": "hardlink",
      "sha256": "695303cb0c49d5545343e79877b099550d4114859e870d86f4e7068392a67c52",
      "size_in_bytes": 2263
    },
    {
      "_path": "site-packages/pygments/styles/algol_nu.py",
      "path_type": "hardlink",
      "sha256": "c60661325b1d47c469a42c9a1a5894281595be26a78f1b792ab21c58224354c3",
      "size_in_bytes": 2278
    },
    {
      "_path": "site-packages/pygments/styles/arduino.py",
      "path_type": "hardlink",
      "sha256": "32d3fbe464f94aa6805f63df682d75ea23c44c03ce683eab7ba719d5df717a14",
      "size_in_bytes": 4492
    },
    {
      "_path": "site-packages/pygments/styles/autumn.py",
      "path_type": "hardlink",
      "sha256": "b1eb53ba738e1490267551da6f7c26bf93a46668cfebe355a198cc032436ad86",
      "size_in_bytes": 2144
    },
    {
      "_path": "site-packages/pygments/styles/borland.py",
      "path_type": "hardlink",
      "sha256": "50e164b4f9a653f4caea9ad53044ef566e85853d35a2ab1df7f1dc1b5359abf6",
      "size_in_bytes": 1562
    },
    {
      "_path": "site-packages/pygments/styles/bw.py",
      "path_type": "hardlink",
      "sha256": "b74910cadc2f87fd1230170e7263397e83dc73725689277c5560485e4a0fd7bb",
      "size_in_bytes": 1355
    },
    {
      "_path": "site-packages/pygments/styles/colorful.py",
      "path_type": "hardlink",
      "sha256": "355f8cb845fad49d071f5334766bab73444d8a7a79780f6a2074e3859dcce9e9",
      "size_in_bytes": 2778
    },
    {
      "_path": "site-packages/pygments/styles/default.py",
      "path_type": "hardlink",
      "sha256": "8f5db86d0fb44c525a436537648096abcfca50e41d8d44b115592715ca52178d",
      "size_in_bytes": 2532
    },
    {
      "_path": "site-packages/pygments/styles/emacs.py",
      "path_type": "hardlink",
      "sha256": "ccd18e0bf7c79c2671569847922787afb7fecf12a44a0fcfac51305867d0c365",
      "size_in_bytes": 2486
    },
    {
      "_path": "site-packages/pygments/styles/friendly.py",
      "path_type": "hardlink",
      "sha256": "e79aaccc7125896893f21d5d5b91a39c4038ec2a57a49d015f40bec7a12666c4",
      "size_in_bytes": 2515
    },
    {
      "_path": "site-packages/pygments/styles/fruity.py",
      "path_type": "hardlink",
      "sha256": "ce44b0c8ace6583b3d26dce0ab7ac6e036ad8421fa3ead8954bb945bc6ae2972",
      "size_in_bytes": 1298
    },
    {
      "_path": "site-packages/pygments/styles/igor.py",
      "path_type": "hardlink",
      "sha256": "e86158b78ddbb71ef45d9a150d202a9637351bb5096fafebf5ebb3d1be675a96",
      "size_in_bytes": 739
    },
    {
      "_path": "site-packages/pygments/styles/lovelace.py",
      "path_type": "hardlink",
      "sha256": "3c139b233f7f8008cc27c62036b9beff3d8fff01bb9a8435068b0a2d3849976d",
      "size_in_bytes": 3173
    },
    {
      "_path": "site-packages/pygments/styles/manni.py",
      "path_type": "hardlink",
      "sha256": "12637a612a7e53e71cc6a2ea8df9c83e0faa90885402549befcb4806fc050ac0",
      "size_in_bytes": 2374
    },
    {
      "_path": "site-packages/pygments/styles/monokai.py",
      "path_type": "hardlink",
      "sha256": "3e9074bc1d3be7aa1ef809b141e1dee0f846c68375ce5fe4051d055f52a86f0b",
      "size_in_bytes": 5080
    },
    {
      "_path": "site-packages/pygments/styles/murphy.py",
      "path_type": "hardlink",
      "sha256": "a694fef8824b5ad71bc4a08d441baeb0fe3375299b47c612868b0275dde1a57b",
      "size_in_bytes": 2751
    },
    {
      "_path": "site-packages/pygments/styles/native.py",
      "path_type": "hardlink",
      "sha256": "c64a615d7bfc3ef7db81ac0d493476f0b7047b54d0c45b5dae4fec41c19ea361",
      "size_in_bytes": 1938
    },
    {
      "_path": "site-packages/pygments/styles/paraiso_dark.py",
      "path_type": "hardlink",
      "sha256": "ddae014a065031f07c1366d4322d56016903afdf281547da3f281cb25f41f593",
      "size_in_bytes": 5641
    },
    {
      "_path": "site-packages/pygments/styles/paraiso_light.py",
      "path_type": "hardlink",
      "sha256": "42c672879a0f41beb06209e8400907d8c4419098d13ea02ee437bbedd88e78df",
      "size_in_bytes": 5645
    },
    {
      "_path": "site-packages/pygments/styles/pastie.py",
      "path_type": "hardlink",
      "sha256": "76e10b18fb3f2c4ccb6deb00dfdbeed0ccf1b7090f276c27576ad2fdc953bb61",
      "size_in_bytes": 2473
    },
    {
      "_path": "site-packages/pygments/styles/perldoc.py",
      "path_type": "hardlink",
      "sha256": "59fe78228efa9e905912c56df07b8cfb1ee6a7327b8b03e08f93cffe139ff75c",
      "size_in_bytes": 2175
    },
    {
      "_path": "site-packages/pygments/styles/rainbow_dash.py",
      "path_type": "hardlink",
      "sha256": "2252eb21c97beb0cb86888992115b13335082ce23d9aced8117d28e942fd44e7",
      "size_in_bytes": 2480
    },
    {
      "_path": "site-packages/pygments/styles/rrt.py",
      "path_type": "hardlink",
      "sha256": "c50a7f079b03a38049e0ccf1e0f5952ba016fe966cfd7988a0cf332f0a5f553b",
      "size_in_bytes": 852
    },
    {
      "_path": "site-packages/pygments/styles/sas.py",
      "path_type": "hardlink",
      "sha256": "8c2ea254597bfb1a7430ac0590f33d41b1089f3c5596786c96e3d1ebd8aa3191",
      "size_in_bytes": 1441
    },
    {
      "_path": "site-packages/pygments/styles/solarized.py",
      "path_type": "hardlink",
      "sha256": "7ff13d6ddf931d4709509477ea14206eef415488cb8baca223f9f4ee846edaee",
      "size_in_bytes": 3747
    },
    {
      "_path": "site-packages/pygments/styles/stata_dark.py",
      "path_type": "hardlink",
      "sha256": "2b500a621f7725df44fde597843c3bfad33a7c96c8b857897004798d51353647",
      "size_in_bytes": 1245
    },
    {
      "_path": "site-packages/pygments/styles/stata_light.py",
      "path_type": "hardlink",
      "sha256": "70dd2e961aad783a8a9069cea802f568d1f2dc0bd86e6bbe7d2df95da329b4a3",
      "size_in_bytes": 1274
    },
    {
      "_path": "site-packages/pygments/styles/tango.py",
      "path_type": "hardlink",
      "sha256": "d55b407ac8587858788d621375be7fc1ffbb6af9750f0b465ab424bd22aa249a",
      "size_in_bytes": 7096
    },
    {
      "_path": "site-packages/pygments/styles/trac.py",
      "path_type": "hardlink",
      "sha256": "c1626892b63c1165b12530a13f1c58b07fdc07e08d37b7286b56418a1cdb886e",
      "size_in_bytes": 1933
    },
    {
      "_path": "site-packages/pygments/styles/vim.py",
      "path_type": "hardlink",
      "sha256": "f4fb479ded4ae1398a20570fa0ce0d63f1d15779da297448784bcc0b8dfbb7b5",
      "size_in_bytes": 1976
    },
    {
      "_path": "site-packages/pygments/styles/vs.py",
      "path_type": "hardlink",
      "sha256": "fa62bcfd1249935da06d1f935cfd7379d4297e5292db373dc504331db6530751",
      "size_in_bytes": 1073
    },
    {
      "_path": "site-packages/pygments/styles/xcode.py",
      "path_type": "hardlink",
      "sha256": "b3736e592a19f1d442b94d0f534f9a0e8a78c6a8005cfe2b55e7e0e721604158",
      "size_in_bytes": 1501
    },
    {
      "_path": "site-packages/pygments/token.py",
      "path_type": "hardlink",
      "sha256": "2752ce5fabe3862377a534a137d323d0c7db58fce1ca9b8f41866ec36f44f00b",
      "size_in_bytes": 6167
    },
    {
      "_path": "site-packages/pygments/unistring.py",
      "path_type": "hardlink",
      "sha256": "690675068ed424a2a11ac10872196e2b9b69abb17db637e9f800320afbcd40a1",
      "size_in_bytes": 64749
    },
    {
      "_path": "site-packages/pygments/util.py",
      "path_type": "hardlink",
      "sha256": "b8d968dcefa561179bd575eb3c53ab1807ca2e2a040c387675b0e85864335247",
      "size_in_bytes": 11900
    }
  ],
  "paths_version": 1
}