{
  "channels": [
    "defaults"
  ],
  "conda_build_version": "3.13.0",
  "conda_private": false,
  "conda_version": "4.5.11",
  "description": "This module analyzes jpeg/jpeg2000/png/gif image header and\nreturn image size.\n",
  "dev_url": "https://github.com/shibukawa/imagesize_py",
  "doc_source_url": "https://github.com/shibukawa/imagesize_py/blob/master/README.rst",
  "doc_url": "https://pypi.python.org/pypi/imagesize",
  "env_vars": {
    "CIO_TEST": "<not set>"
  },
  "extra": {
    "copy_test_source_files": true,
    "final": true,
    "recipe-maintainers": [
      "chohner"
    ]
  },
  "home": "https://github.com/shibukawa/imagesize_py",
  "license": "MIT",
  "root_pkgs": [
    "gcc_impl_linux-64 7.3.0 habb00fd_1",
    "psutil 5.4.7 py36h14c3975_0",
    "filelock 3.0.6 py36_0",
    "conda-env 2.6.0 1",
    "markupsafe 1.0 py36h14c3975_1",
    "pytz 2018.5 py36_0",
    "ca-certificates 2018.03.07 0",
    "gxx_impl_linux-64 7.3.0 hdf63c60_1",
    "expat 2.2.5 he0dffb1_0",
    "pyopenssl 18.0.0 py36_0",
    "xz 5.2.4 h14c3975_4",
    "binutils_impl_linux-64 2.31.1 h6176602_1",
    "jinja2 2.10 py36_0",
    "conda-build 3.13.0 py36_0",
    "asn1crypto 0.24.0 py36_0",
    "curl 7.61.0 h84994c4_0",
    "binutils_linux-64 2.31.1 h6176602_3",
    "wheel 0.31.1 py36_0",
    "pkginfo 1.4.2 py36_1",
    "decorator 4.3.0 py36_0",
    "libgcc-ng 8.2.0 hdf63c60_1",
    "readline 7.0 ha6073c6_4",
    "sqlite 3.24.0 h84994c4_0",
    "libffi 3.2.1 hd88cf55_4",
    "glob2 0.6 py36_0",
    "urllib3 1.23 py36_0",
    "pycparser 2.18 py36_1",
    "pip 10.0.1 py36_0",
    "gcc_linux-64 7.3.0 h553295d_3",
    "pysocks 1.6.8 py36_0",
    "chardet 3.0.4 py36_1",
    "pyyaml 3.13 py36h14c3975_0",
    "libcurl 7.61.0 h1ad7b7a_0",
    "gxx_linux-64 7.3.0 h553295d_3",
    "idna 2.7 py36_0",
    "python 3.6.6 hc3d631a_0",
    "cryptography 2.3.1 py36hc365091_0",
    "pycosat 0.6.3 py36h14c3975_0",
    "cffi 1.11.5 py36h9745a5d_0",
    "nbformat 4.4.0 py36_0",
    "ruamel_yaml 0.15.46 py36h14c3975_0",
    "libedit 3.1.20170329 h6b74fdf_2",
    "libstdcxx-ng 8.2.0 hdf63c60_1",
    "traitlets 4.3.2 py36_0",
    "six 1.11.0 py36_1",
    "beautifulsoup4 4.6.3 py36_0",
    "tk 8.6.7 hc745277_3",
    "yaml 0.1.7 had09818_2",
    "setuptools 40.2.0 py36_0",
    "certifi 2018.8.24 py36_1",
    "ipython_genutils 0.2.0 py36_0",
    "python-dateutil 2.7.3 py36_0",
    "patchelf 0.9 hf484d3e_2",
    "perl 5.26.2 h14c3975_0",
    "requests 2.19.1 py36_0",
    "jsonschema 2.6.0 py36_0",
    "openssl 1.0.2p h14c3975_0",
    "libssh2 1.8.0 h9cfc8f7_4",
    "git 2.18.0 pl526hb37396a_0",
    "anaconda-client 1.7.1 py36_0",
    "jupyter_core 4.4.0 py36_0",
    "clyent 1.2.2 py36_1",
    "ncurses 6.1 hf484d3e_0",
    "zlib 1.2.11 ha838bed_2",
    "conda 4.5.11 py36_0"
  ],
  "summary": "Getting image size from png/jpeg/jpeg2000/gif file"
}