{
  "build": "py37_0",
  "build_number": 0,
  "channel": "https://repo.anaconda.com/pkgs/main/linux-64",
  "constrains": [],
  "depends": [
    "python >=3.7,<3.8.0a0"
  ],
  "features": "",
  "fn": "imagesize-1.1.0-py37_0.conda",
  "legacy_bz2_md5": "051b6624bea3afe51cda1a3b44a79d09",
  "legacy_bz2_size": 9420,
  "license": "MIT",
  "md5": "4af54daea1db439b3095c6ee9f08ce5d",
  "name": "imagesize",
  "sha256": "9e7e96315a5e501acbd1ac20b0b57e4bd8966866e57412f008d59f871f320cb0",
  "size": 9456,
  "subdir": "linux-64",
  "timestamp": 1536074354238,
  "track_features": "",
  "url": "https://repo.anaconda.com/pkgs/main/linux-64/imagesize-1.1.0-py37_0.conda",
  "version": "1.1.0"
}