commit 32d60bcc6f76165458ae1196fea54b2616f0a363
Author: conda-forge-admin <pelson.pub+conda-forge@gmail.com>
Date:   Fri Sep 6 18:41:31 2019 -0500

    [ci skip] ***NO_CI*** Move from appveyor to azure.
    
    See https://github.com/conda-forge/conda-forge.github.io/issues/857

commit c0212f79fc9d2e3bbf9aac456831d83869fc526d
Merge: 5436488 618178b
Author: Jonathan J. Helmus <jjhelmus@gmail.com>
Date:   Sun Aug 25 07:55:43 2019 -0500

    Merge pull request #34 from regro-cf-autotick-bot/19.2.3
    
    pip v19.2.3

commit 618178bc3b75ffe42d14676817b0441211d3cff4
Author: regro-cf-autotick-bot <circleci@cf-graph.regro.github.com>
Date:   Sun Aug 25 05:30:47 2019 +0000

    updated v19.2.3

commit 543648815fc8c55665b7fd379ea44434a146e378
Merge: c6a21a4 306fe90
Author: Filipe <ocefpaf@gmail.com>
Date:   Sun Aug 11 15:42:25 2019 -0300

    Merge pull request #33 from regro-cf-autotick-bot/19.2.2
    
    pip v19.2.2

commit 306fe90c8a4dbe3d873494babb499e9c9ffa6ae2
Author: regro-cf-autotick-bot <circleci@cf-graph.regro.github.com>
Date:   Sun Aug 11 17:34:10 2019 +0000

    updated v19.2.2

commit c6a21a41175cea6f897f2d095a80143af3f0c017
Merge: 757da06 5de3075
Author: Filipe <ocefpaf@gmail.com>
Date:   Tue Jul 23 16:51:06 2019 -0300

    Merge pull request #32 from regro-cf-autotick-bot/19.2.1
    
    pip v19.2.1

commit 5de30759c741a1f2531891994db030f93ac98359
Author: regro-cf-autotick-bot <circleci@cf-graph.regro.github.com>
Date:   Tue Jul 23 19:24:39 2019 +0000

    updated v19.2.1

commit 757da06eef93928e54acef7ab5f6b541c1d74e16
Merge: 9915d2c 1211e72
Author: jakirkham <jakirkham@gmail.com>
Date:   Tue Jul 23 04:02:01 2019 -0400

    Merge pull request #31 from regro-cf-autotick-bot/19.2
    
    pip v19.2

commit 1211e7254aedb434c622504e33e7e83de0c0d934
Author: regro-cf-autotick-bot <circleci@cf-graph.regro.github.com>
Date:   Tue Jul 23 06:25:46 2019 +0000

    MNT: Re-rendered with conda-build 3.18.8, conda-smithy 3.4.1, and conda-forge-pinning 2019.07.22

commit a25ad0edb94d43e1ae402be1e79412e2b05f3165
Author: regro-cf-autotick-bot <circleci@cf-graph.regro.github.com>
Date:   Tue Jul 23 06:25:19 2019 +0000

    updated v19.2

commit 9915d2cca0da61bf86ea0c71f665fbe3ef589be0
Merge: a569408 e765f3e
Author: Filipe <ocefpaf@gmail.com>
Date:   Mon May 6 14:57:18 2019 -0400

    pip v19.1.1 (#28)
    
    pip v19.1.1

commit e765f3e4351ef0c251cd979c40572702b90ee36a
Author: regro-cf-autotick-bot <circleci@cf-graph.regro.github.com>
Date:   Mon May 6 16:25:00 2019 +0000

    MNT: Re-rendered with conda-build 3.17.8, conda-smithy 3.3.4, and conda-forge-pinning 2019.05.06

commit 864a94373062467274a5664c0de68c4b5c9645db
Author: regro-cf-autotick-bot <circleci@cf-graph.regro.github.com>
Date:   Mon May 6 16:24:45 2019 +0000

    updated v19.1.1

commit a569408d414add30a0cbd9c6b8b16e84c7a24cae
Merge: 31082f7 d1b2efa
Author: Jonathan J. Helmus <jjhelmus@gmail.com>
Date:   Fri Apr 26 20:32:58 2019 -0400

    Merge pull request #27 from jjhelmus/add_38
    
    Add Python 3.8 prerelease builds

commit d1b2efa73e8bf5a7503dfac83c8bde65f953f87d
Author: Jonathan Helmus <jjhelmus@gmail.com>
Date:   Fri Apr 26 17:54:58 2019 -0500

    Add Python 3.8 prerelease builds

commit 31082f7c35f5a3acf1ddff3bab4edf9758b06e00
Merge: 8f3a408 765dc7e
Author: Filipe <ocefpaf@gmail.com>
Date:   Wed Apr 24 07:11:11 2019 -0300

    Merge pull request #26 from regro-cf-autotick-bot/19.1
    
    pip v19.1

commit 765dc7e2fec81028e5b311fb447350d5cadfdca8
Author: regro-cf-autotick-bot <circleci@cf-graph.regro.github.com>
Date:   Wed Apr 24 03:31:22 2019 +0000

    MNT: Re-rendered with conda-build 3.17.8, conda-smithy 3.3.3, and conda-forge-pinning 2019.04.18

commit 7230aae14470cc8fc5ea7fe9a5ae963b6a904879
Author: regro-cf-autotick-bot <circleci@cf-graph.regro.github.com>
Date:   Wed Apr 24 03:31:07 2019 +0000

    updated v19.1

commit 8f3a4087e0e427bc8b753027714c1433422d3b0c
Merge: aca390d 7f75489
Author: Filipe <ocefpaf@gmail.com>
Date:   Thu Feb 21 07:04:33 2019 -0300

    Merge pull request #24 from regro-cf-autotick-bot/19.0.3
    
    pip v19.0.3

commit aca390d419bffadc0671a0c5efcae45bcd7c7ca5
Merge: b6c4614 aa9a170
Author: Marius van Niekerk <marius.v.niekerk@gmail.com>
Date:   Wed Feb 20 21:45:34 2019 -0500

    Merge pull request #25 from regro-cf-autotick-bot/rebuildaarch64_and_ppc64le_addition_arch
    
    Arch Migrator

commit aa9a17021eb5710263cf8a4eb6e6004030ec5f24
Author: regro-cf-autotick-bot <circleci@cf-graph.regro.github.com>
Date:   Wed Feb 20 22:22:51 2019 +0000

    MNT: Re-rendered with conda-build 3.15.1, conda-smithy 3.2.13, and conda-forge-pinning 2019.02.15

commit 237f18548f26dc1fefcd70a6ee503c4d1ed641ae
Author: regro-cf-autotick-bot <circleci@cf-graph.regro.github.com>
Date:   Wed Feb 20 22:22:39 2019 +0000

    bump build number

commit 7f7548953efb944c6edf7bc21240613b5da1896e
Author: regro-cf-autotick-bot <circleci@cf-graph.regro.github.com>
Date:   Wed Feb 20 18:13:52 2019 +0000

    updated v19.0.3

commit b6c461484e8c1ac26149330a9fb71b9d888b60fb
Merge: e90de90 8661fc0
Author: Jonathan J. Helmus <jjhelmus@gmail.com>
Date:   Sat Feb 9 07:37:14 2019 -0600

    Merge pull request #23 from regro-cf-autotick-bot/19.0.2
    
    pip v19.0.2

commit 8661fc0ba9312cd32c1cb85dbd084dec5dfabf8e
Author: regro-cf-autotick-bot <circleci@cf-graph.regro.github.com>
Date:   Sat Feb 9 05:12:57 2019 +0000

    MNT: Re-rendered with conda-build 3.15.1, conda-smithy 3.2.13, and conda-forge-pinning 2019.01.29

commit b2e06935f4b5477967ac84dd9ac508497823e26a
Author: regro-cf-autotick-bot <circleci@cf-graph.regro.github.com>
Date:   Sat Feb 9 05:12:46 2019 +0000

    updated v19.0.2

commit e90de905949751897ed8a658a6058defead0a714
Merge: 2c683df c4a58fa
Author: Jonathan J. Helmus <jjhelmus@gmail.com>
Date:   Mon Jan 28 09:46:35 2019 -0600

    Merge pull request #22 from regro-cf-autotick-bot/19.0.1
    
    pip v19.0.1

commit c4a58fadcbd24031975d2a17784114b36e0ddc06
Author: regro-cf-autotick-bot <circleci@cf-graph.regro.github.com>
Date:   Fri Jan 25 19:23:49 2019 +0000

    MNT: Re-rendered with conda-build 3.17.7, conda-smithy 3.2.9, and conda-forge-pinning 2019.01.21

commit 7c4995906382f705e237ec871a6a9edba91f29c0
Author: regro-cf-autotick-bot <circleci@cf-graph.regro.github.com>
Date:   Fri Jan 25 19:23:44 2019 +0000

    updated v19.0.1

commit 2c683df2f353db8c0e875efc78690967ff42626c
Merge: f2982d8 026eef4
Author: Filipe <ocefpaf@gmail.com>
Date:   Sat Oct 6 06:46:39 2018 -0300

    Merge pull request #20 from regro-cf-autotick-bot/18.1
    
    pip v18.1

commit 026eef4b6fe47b9884531cd7e613f6921ea6a9a7
Author: regro-cf-autotick-bot <circleci@cf-graph.regro.github.com>
Date:   Fri Oct 5 12:14:57 2018 +0000

    MNT: Re-rendered with conda-smithy 3.1.12 and pinning 2018.10.01

commit 8f9ab7198c5c21856017592246311dde93eac4ad
Author: regro-cf-autotick-bot <circleci@cf-graph.regro.github.com>
Date:   Fri Oct 5 12:14:43 2018 +0000

    updated v18.1

commit f2982d890803a79dd08a4915f83ce02aadb0e04e
Merge: a39003d 8b8f0de
Author: Marius van Niekerk <marius.v.niekerk@gmail.com>
Date:   Tue Oct 2 10:37:47 2018 -0400

    Merge pull request #19 from regro-cf-autotick-bot/rebuild
    
    Rebuild for Python 3.7, GCC 7, R 3.5.1, openBLAS 0.3.2

commit 8b8f0dee92029a6d8461a6404a328859f96ff734
Author: regro-cf-autotick-bot <circleci@cf-graph.regro.github.com>
Date:   Sun Sep 23 12:13:13 2018 +0000

    MNT: Re-rendered with conda-smithy 3.1.12 and pinning 2018.09.20

commit d49e4e883f7236d4139ed455bedb1a88369ff63c
Author: regro-cf-autotick-bot <circleci@cf-graph.regro.github.com>
Date:   Sun Sep 23 12:12:51 2018 +0000

    bump build number

commit a39003dd42444dee2cbd322cff7dd52ed0ddacef
Author: Travis CI User <travis@example.org>
Date:   Sat Aug 4 17:21:17 2018 +0000

    [ci skip] [skip ci] Update anaconda token

commit 8b3dbe6a95a7a46be31b28018cbf023750e8dd8c
Merge: 8a0e7ee f47bb44
Author: Filipe <ocefpaf@gmail.com>
Date:   Wed Aug 1 13:04:07 2018 -0300

    Merge pull request #18 from ocefpaf/drop_patch
    
    drop patch

commit f47bb446a930a98858437334e754f7244e8ea004
Author: Filipe Fernandes <ocefpaf@gmail.com>
Date:   Wed Aug 1 09:48:20 2018 -0300

    drop patch

commit 8a0e7ee7c77d273507512b0f4c0817c5805d2fe2
Merge: 1fb79d5 ad21fd7
Author: Filipe <ocefpaf@gmail.com>
Date:   Tue Jul 31 18:57:59 2018 -0300

    Merge pull request #16 from ocefpaf/py37
    
    testing py37

commit ad21fd787d8a33196e30358f496f6f08d09f681b
Author: Filipe Fernandes <ocefpaf@gmail.com>
Date:   Tue Jul 31 13:39:33 2018 -0300

    testing py37

commit 1fb79d53f67c18f8e8a572c715c1cff68b39da11
Merge: 9d89234 f45f8e9
Author: Filipe <ocefpaf@gmail.com>
Date:   Mon Jul 23 19:35:18 2018 -0300

    Merge pull request #15 from ocefpaf/update_18
    
    Update 18

commit f45f8e9d38796b9d9cdd8cb20b147ea03b262830
Author: conda-forge-admin <pelson.pub+conda-forge@gmail.com>
Date:   Mon Jul 23 20:14:46 2018 +0000

    MNT: Re-rendered with conda-smithy 3.1.6 and pinning 2018.07.20

commit bd98879784c2aac69a4a2a5116da51f770d5d426
Author: Filipe Fernandes <ocefpaf@gmail.com>
Date:   Mon Jul 23 17:13:08 2018 -0300

    refresh patch

commit ab4374833402bca0f7d91a10bba62580680d5870
Author: Filipe Fernandes <ocefpaf@gmail.com>
Date:   Mon Jul 23 17:11:29 2018 -0300

    update to 18.0

commit 9d892348e5670324736ed45c5f33cb52812eb939
Merge: a6e7c60 d95e4ec
Author: Filipe <ocefpaf@gmail.com>
Date:   Mon Jul 23 16:51:56 2018 -0300

    Merge pull request #14 from ocefpaf/update_recipe
    
    update recipe

commit d95e4ec796ea34b7961d96213a56659c16e10617
Author: Filipe Fernandes <ocefpaf@gmail.com>
Date:   Mon Jul 23 16:06:09 2018 -0300

    update recipe

commit a6e7c6075e47ee11b8faa403a20feb22cc39d363
Merge: 90aa2bd 7a832ef
Author: Filipe <ocefpaf@gmail.com>
Date:   Fri Mar 30 21:56:03 2018 -0300

    Merge pull request #9 from nehaljwani/pip-play-nicely-with-conda-cf
    
    Bump version to 9.0.3; Add patch to sever path/inode connection on clobber()

commit 7a832ef4c6eb9b1bc1f54cf01a6d0b9beb6e0bc4
Author: Nehal J Wani <nehaljw.kkd1@gmail.com>
Date:   Thu Mar 22 17:37:37 2018 +0000

    Add patch to sever path/inode connection on clobber()
    
    xref: https://github.com/conda/conda/issues/6861

commit 452c463a4d08e35b95cbbe699858eed05c0a02d8
Author: Nehal J Wani <nehaljw.kkd1@gmail.com>
Date:   Thu Mar 22 17:35:39 2018 +0000

    Update version to 9.0.3

commit 90aa2bda0d7fe6f8774e859400298d84dbcb01ea
Merge: a1d5d79 04e2863
Author: Filipe <ocefpaf@gmail.com>
Date:   Sun Mar 18 09:11:30 2018 -0300

    Merge pull request #7 from regro-cf-autotick-bot/9.0.2
    
    pip v9.0.2

commit 04e2863f85a67305799835a4cef8ce98946f2620
Author: Travis CI User <travis@example.org>
Date:   Sat Mar 17 17:05:40 2018 +0000

    updated v9.0.2

commit a1d5d79cfc833bd4c32520506596b118632f2dda
Merge: da3da90 0b5e8b4
Author: jakirkham <jakirkham@gmail.com>
Date:   Mon Jan 1 16:52:01 2018 -0800

    Merge pull request #6 from jakirkham-feedstocks/rebuild
    
    Rebuild `pip`

commit 0b5e8b4f05c71906ba2c1642062f8a491bb612a8
Author: John Kirkham <kirkhamj@janelia.hhmi.org>
Date:   Mon Jan 1 19:38:58 2018 -0500

    Rebuild `pip`
    
    Appears that some old `conda-build` issues caused `pip` to include the
    `pyc` files from `setuptools`. As this problem has long since been fixed
    in `conda-build`, this merely triggers a rebuild of `pip` to create a
    new package that does not have these unrelated files. The affected
    packages seem to only be on Python 3.5 as the Python 3.6 packages were
    built after the `conda-build` fix and the Python 2.7 packages used an
    older structure for `.pyc` files, which `conda-build` already handled
    correctly.

commit b2e87b6aec95caa32a4d28b14ced17211dda361f
Author: John Kirkham <kirkhamj@janelia.hhmi.org>
Date:   Mon Jan 1 19:34:50 2018 -0500

    MNT: Re-rendered with conda-smithy 2.4.5

commit da3da90cbfba46aead747c184f8190553d3d5a0a
Author: Travis-CI on github.com/conda-forge/staged-recipes <conda-forge@googlegroups.com>
Date:   Sat Aug 26 20:02:36 2017 +0000

    [ci skip] [skip ci] Update anaconda token

commit 20d0173aefecae6e291a20c0d469ec8139df7dc7
Merge: 51877e5 8e89c7a
Author: Filipe <ocefpaf@gmail.com>
Date:   Mon Dec 26 16:47:17 2016 -0300

    Merge pull request #5 from ocefpaf/py36
    
    Rerender with auto

commit 8e89c7ad4818f6752dc617381186c4e5640a7b64
Author: ocefpaf <ocefpaf@gmail.com>
Date:   Sun Dec 25 22:03:19 2016 -0300

    Rerender with auto

commit 51877e54ad166f4ef1439d95b5e7cd051d8e427c
Merge: 450faee d63f8a7
Author: jakirkham <jakirkham@gmail.com>
Date:   Thu Nov 10 00:08:02 2016 -0500

    Merge pull request #4 from jakirkham/release_9.0.1
    
    Release 9.0.1

commit d63f8a7344e5a9ac43ea36f19bfaaeb4896bdfa6
Author: John Kirkham <kirkhamj@janelia.hhmi.org>
Date:   Mon Nov 7 18:31:32 2016 -0500

    Release 9.0.1
    
    ```txt
    **9.0.1 (2016-11-06)**
    
    * Correct the deprecation message when not specifying a --format so that
    it
      uses the correct setting name (``format``) rather than the incorrect
    one
      (``list_format``) (:issue:`4058`).
    
    * Fix ``pip check`` to check all available distributions and not just
    the
      local ones (:issue:`4083`).
    
    * Fix a crash on non ASCII characters from `lsb_release`
    (:issue:`4062`).
    
    * Fix an SyntaxError in an an used module of a vendored dependency
      (:issue:`4059`).
    
    * Fix UNC paths on Windows (:issue:`4064`).
    ```

commit 450faeedd97b0a913ed8a9939d8f950c1ebccf40
Merge: b881717 f2068cd
Author: Matt Craig <mattwcraig@gmail.com>
Date:   Mon Nov 7 16:58:13 2016 -0600

    Merge pull request #2 from jakirkham/release_9.0.0
    
    Release 9.0.0

commit f2068cd68d4e7cc1cac1a832502548afcd4c75ff
Author: John Kirkham <kirkhamj@janelia.hhmi.org>
Date:   Fri Nov 4 09:38:09 2016 -0400

    recipe: Release 9.0.0.

commit b881717537912827380227de5f00cb38d7802248
Merge: 7dc93ba e4ecc65
Author: jakirkham <jakirkham@gmail.com>
Date:   Sun Nov 6 16:56:42 2016 -0500

    Merge pull request #3 from jakirkham/cleanup
    
    Cleanup

commit e4ecc65717b615e8e95cb618d06e17649e060412
Author: John Kirkham <kirkhamj@janelia.hhmi.org>
Date:   Fri Nov 4 09:32:30 2016 -0400

    recipe: Cleanup the recipe a bit.

commit 7dc93bae9b31fa423a45fbce3d445c2c34093357
Merge: 3ac9403 b99fc95
Author: jakirkham <jakirkham@gmail.com>
Date:   Fri Nov 4 09:25:03 2016 -0400

    Merge pull request #1 from jakirkham/re-render_master_1.4.6
    
    MNT: Re-rendered with conda-smithy 1.4.6 [ci skip]

commit b99fc955b3bd554e6f911c9086d8b0f6e15b9a35
Author: John Kirkham <kirkhamj@janelia.hhmi.org>
Date:   Fri Nov 4 02:17:51 2016 -0400

    MNT: Re-rendered with conda-smithy 1.4.6

commit 3ac9403447d9e9505ff86f0645d3aa3b5c6b45fb
Author: Travis-CI on github.com/conda-forge/staged-recipes <conda-forge@googlegroups.com>
Date:   Sat Jul 16 17:36:21 2016 +0000

    Re-render the feedstock after CI registration.

commit 5f1aff626e8714969fcb83e5431ab07639b47ff0
Author: Travis-CI on github.com/conda-forge/staged-recipes <conda-forge@googlegroups.com>
Date:   Sat Jul 16 17:34:32 2016 +0000

    Initial commit of the pip feedstock.
