{
  "arch": "x86_64",
  "build": "hdba287a_0",
  "build_number": 0,
  "depends": [
    "libgcc-ng >=7.2.0"
  ],
  "license": "GPL-2.0",
  "license_family": "GPL",
  "name": "jbig",
  "platform": "linux",
  "subdir": "linux-64",
  "timestamp": 1505744775994,
  "version": "2.1"
}