{
  "arch": "x86_64",
  "build": "py37_0",
  "build_number": 0,
  "depends": [
    "anaconda-client >=1.6.14",
    "chardet",
    "pillow",
    "psutil",
    "pyqt >=5.6,<6.0a0",
    "python >=3.7,<3.8.0a0",
    "pyyaml",
    "qtpy >=1.4.1",
    "requests",
    "setuptools"
  ],
  "license": "proprietary - Continuum Analytics, Inc.",
  "license_family": "Proprietary",
  "name": "anaconda-navigator",
  "platform": "linux",
  "subdir": "linux-64",
  "timestamp": 1553807946513,
  "version": "1.9.7"
}